{
  "arch": "x86_64",
  "build": "py37_0",
  "build_number": 0,
  "channel": "https://repo.anaconda.com/pkgs/main/win-64",
  "constrains": [],
  "depends": [
    "python >=3.7,<3.8.0a0"
  ],
  "extracted_package_dir": "C:\\Users\\NelsonRibeiro\\Desktop\\Miniconda3\\pkgs\\asn1crypto-0.24.0-py37_0",
  "features": "",
  "files": [
    "Lib/site-packages/asn1crypto-0.24.0-py3.7.egg-info/PKG-INFO",
    "Lib/site-packages/asn1crypto-0.24.0-py3.7.egg-info/SOURCES.txt",
    "Lib/site-packages/asn1crypto-0.24.0-py3.7.egg-info/dependency_links.txt",
    "Lib/site-packages/asn1crypto-0.24.0-py3.7.egg-info/top_level.txt",
    "Lib/site-packages/asn1crypto/__init__.py",
    "Lib/site-packages/asn1crypto/__pycache__/__init__.cpython-37.pyc",
    "Lib/site-packages/asn1crypto/__pycache__/_elliptic_curve.cpython-37.pyc",
    "Lib/site-packages/asn1crypto/__pycache__/_errors.cpython-37.pyc",
    "Lib/site-packages/asn1crypto/__pycache__/_ffi.cpython-37.pyc",
    "Lib/site-packages/asn1crypto/__pycache__/_inet.cpython-37.pyc",
    "Lib/site-packages/asn1crypto/__pycache__/_int.cpython-37.pyc",
    "Lib/site-packages/asn1crypto/__pycache__/_iri.cpython-37.pyc",
    "Lib/site-packages/asn1crypto/__pycache__/_ordereddict.cpython-37.pyc",
    "Lib/site-packages/asn1crypto/__pycache__/_teletex_codec.cpython-37.pyc",
    "Lib/site-packages/asn1crypto/__pycache__/_types.cpython-37.pyc",
    "Lib/site-packages/asn1crypto/__pycache__/algos.cpython-37.pyc",
    "Lib/site-packages/asn1crypto/__pycache__/cms.cpython-37.pyc",
    "Lib/site-packages/asn1crypto/__pycache__/core.cpython-37.pyc",
    "Lib/site-packages/asn1crypto/__pycache__/crl.cpython-37.pyc",
    "Lib/site-packages/asn1crypto/__pycache__/csr.cpython-37.pyc",
    "Lib/site-packages/asn1crypto/__pycache__/keys.cpython-37.pyc",
    "Lib/site-packages/asn1crypto/__pycache__/ocsp.cpython-37.pyc",
    "Lib/site-packages/asn1crypto/__pycache__/parser.cpython-37.pyc",
    "Lib/site-packages/asn1crypto/__pycache__/pdf.cpython-37.pyc",
    "Lib/site-packages/asn1crypto/__pycache__/pem.cpython-37.pyc",
    "Lib/site-packages/asn1crypto/__pycache__/pkcs12.cpython-37.pyc",
    "Lib/site-packages/asn1crypto/__pycache__/tsp.cpython-37.pyc",
    "Lib/site-packages/asn1crypto/__pycache__/util.cpython-37.pyc",
    "Lib/site-packages/asn1crypto/__pycache__/version.cpython-37.pyc",
    "Lib/site-packages/asn1crypto/__pycache__/x509.cpython-37.pyc",
    "Lib/site-packages/asn1crypto/_elliptic_curve.py",
    "Lib/site-packages/asn1crypto/_errors.py",
    "Lib/site-packages/asn1crypto/_ffi.py",
    "Lib/site-packages/asn1crypto/_inet.py",
    "Lib/site-packages/asn1crypto/_int.py",
    "Lib/site-packages/asn1crypto/_iri.py",
    "Lib/site-packages/asn1crypto/_ordereddict.py",
    "Lib/site-packages/asn1crypto/_perf/__init__.py",
    "Lib/site-packages/asn1crypto/_perf/__pycache__/__init__.cpython-37.pyc",
    "Lib/site-packages/asn1crypto/_perf/__pycache__/_big_num_ctypes.cpython-37.pyc",
    "Lib/site-packages/asn1crypto/_perf/_big_num_ctypes.py",
    "Lib/site-packages/asn1crypto/_teletex_codec.py",
    "Lib/site-packages/asn1crypto/_types.py",
    "Lib/site-packages/asn1crypto/algos.py",
    "Lib/site-packages/asn1crypto/cms.py",
    "Lib/site-packages/asn1crypto/core.py",
    "Lib/site-packages/asn1crypto/crl.py",
    "Lib/site-packages/asn1crypto/csr.py",
    "Lib/site-packages/asn1crypto/keys.py",
    "Lib/site-packages/asn1crypto/ocsp.py",
    "Lib/site-packages/asn1crypto/parser.py",
    "Lib/site-packages/asn1crypto/pdf.py",
    "Lib/site-packages/asn1crypto/pem.py",
    "Lib/site-packages/asn1crypto/pkcs12.py",
    "Lib/site-packages/asn1crypto/tsp.py",
    "Lib/site-packages/asn1crypto/util.py",
    "Lib/site-packages/asn1crypto/version.py",
    "Lib/site-packages/asn1crypto/x509.py"
  ],
  "fn": "asn1crypto-0.24.0-py37_0.tar.bz2",
  "license": "MIT",
  "link": {
    "source": "C:\\Users\\NelsonRibeiro\\Desktop\\Miniconda3\\pkgs\\asn1crypto-0.24.0-py37_0",
    "type": 1
  },
  "md5": "3a4916054f7d730b17e5d8a4343d9b59",
  "name": "asn1crypto",
  "package_tarball_full_path": "C:\\Users\\NelsonRibeiro\\Desktop\\Miniconda3\\pkgs\\asn1crypto-0.24.0-py37_0.tar.bz2",
  "paths_data": {
    "paths": [
      {
        "_path": "Lib/site-packages/asn1crypto-0.24.0-py3.7.egg-info/PKG-INFO",
        "path_type": "hardlink",
        "sha256": "b8716efba9968012ad2d7c67869d99ba25d400d04d06bd42bd2b98b48d036a27",
        "sha256_in_prefix": "b8716efba9968012ad2d7c67869d99ba25d400d04d06bd42bd2b98b48d036a27",
        "size_in_bytes": 1131
      },
      {
        "_path": "Lib/site-packages/asn1crypto-0.24.0-py3.7.egg-info/SOURCES.txt",
        "path_type": "hardlink",
        "sha256": "81d5f6ff3ad1ab364f4e38184a72e845aee6be534ed820c9821dca4c5536341b",
        "sha256_in_prefix": "81d5f6ff3ad1ab364f4e38184a72e845aee6be534ed820c9821dca4c5536341b",
        "size_in_bytes": 829
      },
      {
        "_path": "Lib/site-packages/asn1crypto-0.24.0-py3.7.egg-info/dependency_links.txt",
        "path_type": "hardlink",
        "sha256": "01ba4719c80b6fe911b091a7c05124b64eeece964e09c058ef8f9805daca546b",
        "sha256_in_prefix": "01ba4719c80b6fe911b091a7c05124b64eeece964e09c058ef8f9805daca546b",
        "size_in_bytes": 1
      },
      {
        "_path": "Lib/site-packages/asn1crypto-0.24.0-py3.7.egg-info/top_level.txt",
        "path_type": "hardlink",
        "sha256": "cfcfa317f43e8e0cc6a31ed3d976226a7dfec9ea6d2d2d88ecc8e824b05aab56",
        "sha256_in_prefix": "cfcfa317f43e8e0cc6a31ed3d976226a7dfec9ea6d2d2d88ecc8e824b05aab56",
        "size_in_bytes": 11
      },
      {
        "_path": "Lib/site-packages/asn1crypto/__init__.py",
        "path_type": "hardlink",
        "sha256": "77e1e7698f8853437569ea5423d6d8475d49d8419c70600df240ef28c806bbbf",
        "sha256_in_prefix": "77e1e7698f8853437569ea5423d6d8475d49d8419c70600df240ef28c806bbbf",
        "size_in_bytes": 209
      },
      {
        "_path": "Lib/site-packages/asn1crypto/__pycache__/__init__.cpython-37.pyc",
        "path_type": "hardlink",
        "sha256": "36fbc4f0a3b9e9c1fda697c728dfc6843bba0b4853bb232b2448a34805ef2e7a",
        "sha256_in_prefix": "36fbc4f0a3b9e9c1fda697c728dfc6843bba0b4853bb232b2448a34805ef2e7a",
        "size_in_bytes": 354
      },
      {
        "_path": "Lib/site-packages/asn1crypto/__pycache__/_elliptic_curve.cpython-37.pyc",
        "path_type": "hardlink",
        "sha256": "66df318a58c4f057856b203551e7fde695e1110c9f28ce5bedbaccd958bd50e9",
        "sha256_in_prefix": "66df318a58c4f057856b203551e7fde695e1110c9f28ce5bedbaccd958bd50e9",
        "size_in_bytes": 7805
      },
      {
        "_path": "Lib/site-packages/asn1crypto/__pycache__/_errors.cpython-37.pyc",
        "path_type": "hardlink",
        "sha256": "8c6a6d258da36a8ea83c60c5cbd557c05a900ef9ffac64b4c0993303c603aae6",
        "sha256_in_prefix": "8c6a6d258da36a8ea83c60c5cbd557c05a900ef9ffac64b4c0993303c603aae6",
        "size_in_bytes": 997
      },
      {
        "_path": "Lib/site-packages/asn1crypto/__pycache__/_ffi.cpython-37.pyc",
        "path_type": "hardlink",
        "sha256": "d9383a30fc5c1795228d216ffc0e560c0ba39cee091fa4439e1bf1e4825dbdff",
        "sha256_in_prefix": "d9383a30fc5c1795228d216ffc0e560c0ba39cee091fa4439e1bf1e4825dbdff",
        "size_in_bytes": 1289
      },
      {
        "_path": "Lib/site-packages/asn1crypto/__pycache__/_inet.cpython-37.pyc",
        "path_type": "hardlink",
        "sha256": "07b27deb25c841d39f2ae888222feb38e062645aac4127919655796a3618c85c",
        "sha256_in_prefix": "07b27deb25c841d39f2ae888222feb38e062645aac4127919655796a3618c85c",
        "size_in_bytes": 3582
      },
      {
        "_path": "Lib/site-packages/asn1crypto/__pycache__/_int.cpython-37.pyc",
        "path_type": "hardlink",
        "sha256": "2c4881670858d1b2be79964404eafd8a2351813be40e93135d513737d8081fae",
        "sha256_in_prefix": "2c4881670858d1b2be79964404eafd8a2351813be40e93135d513737d8081fae",
        "size_in_bytes": 3918
      },
      {
        "_path": "Lib/site-packages/asn1crypto/__pycache__/_iri.cpython-37.pyc",
        "path_type": "hardlink",
        "sha256": "210f48e8886fdafbcf2c9504f0841588d602a9637f2c4927ed4123f49975f80c",
        "sha256_in_prefix": "210f48e8886fdafbcf2c9504f0841588d602a9637f2c4927ed4123f49975f80c",
        "size_in_bytes": 6387
      },
      {
        "_path": "Lib/site-packages/asn1crypto/__pycache__/_ordereddict.cpython-37.pyc",
        "path_type": "hardlink",
        "sha256": "18a2da8cd17e8788f71437ca5d4a99ead0ab3a77d7eced52e81d7d8fa089f26d",
        "sha256_in_prefix": "18a2da8cd17e8788f71437ca5d4a99ead0ab3a77d7eced52e81d7d8fa089f26d",
        "size_in_bytes": 3650
      },
      {
        "_path": "Lib/site-packages/asn1crypto/__pycache__/_teletex_codec.cpython-37.pyc",
        "path_type": "hardlink",
        "sha256": "59af46194b47e5256978020a963ed0a2b36a3576d2adbe540aeafdf8e3c51aa0",
        "sha256_in_prefix": "59af46194b47e5256978020a963ed0a2b36a3576d2adbe540aeafdf8e3c51aa0",
        "size_in_bytes": 2968
      },
      {
        "_path": "Lib/site-packages/asn1crypto/__pycache__/_types.cpython-37.pyc",
        "path_type": "hardlink",
        "sha256": "6a97a967233353e46d25885b95be8310f6a6287508b296985c2232aee8c28e1c",
        "sha256_in_prefix": "6a97a967233353e46d25885b95be8310f6a6287508b296985c2232aee8c28e1c",
        "size_in_bytes": 1257
      },
      {
        "_path": "Lib/site-packages/asn1crypto/__pycache__/algos.cpython-37.pyc",
        "path_type": "hardlink",
        "sha256": "b7fbd34276537ef37a22e68ea81af45e3fdc69e211bbffdddd95e3a53f1a9fb0",
        "sha256_in_prefix": "b7fbd34276537ef37a22e68ea81af45e3fdc69e211bbffdddd95e3a53f1a9fb0",
        "size_in_bytes": 25041
      },
      {
        "_path": "Lib/site-packages/asn1crypto/__pycache__/cms.cpython-37.pyc",
        "path_type": "hardlink",
        "sha256": "8817eb4f675d15c2e0e4740ba530742af045c32e044ef2127a9c52618037752e",
        "sha256_in_prefix": "8817eb4f675d15c2e0e4740ba530742af045c32e044ef2127a9c52618037752e",
        "size_in_bytes": 26173
      },
      {
        "_path": "Lib/site-packages/asn1crypto/__pycache__/core.cpython-37.pyc",
        "path_type": "hardlink",
        "sha256": "b286c7b0a65377457c598613dca9dd204c6f52ecf244d528d4bb6ca280b5c239",
        "sha256_in_prefix": "b286c7b0a65377457c598613dca9dd204c6f52ecf244d528d4bb6ca280b5c239",
        "size_in_bytes": 116040
      },
      {
        "_path": "Lib/site-packages/asn1crypto/__pycache__/crl.cpython-37.pyc",
        "path_type": "hardlink",
        "sha256": "b75d9fc706f7c0b99d68e98566cdb07dac7165b9f7fbe6d1b202aaecd6615144",
        "sha256_in_prefix": "b75d9fc706f7c0b99d68e98566cdb07dac7165b9f7fbe6d1b202aaecd6615144",
        "size_in_bytes": 14704
      },
      {
        "_path": "Lib/site-packages/asn1crypto/__pycache__/csr.cpython-37.pyc",
        "path_type": "hardlink",
        "sha256": "dd57521ccffabeaa50a6c10e6ba26ffbbd6b701dbb03c36ac9ae74562722368c",
        "sha256_in_prefix": "dd57521ccffabeaa50a6c10e6ba26ffbbd6b701dbb03c36ac9ae74562722368c",
        "size_in_bytes": 2878
      },
      {
        "_path": "Lib/site-packages/asn1crypto/__pycache__/keys.cpython-37.pyc",
        "path_type": "hardlink",
        "sha256": "809c95678cfef99a80a9a4c340b94370aee094dfbca7b2c8edb20a21d189c45a",
        "sha256_in_prefix": "809c95678cfef99a80a9a4c340b94370aee094dfbca7b2c8edb20a21d189c45a",
        "size_in_bytes": 29067
      },
      {
        "_path": "Lib/site-packages/asn1crypto/__pycache__/ocsp.cpython-37.pyc",
        "path_type": "hardlink",
        "sha256": "f45ca28d792ae3c2b6aa5e6880006dd9bfddf40c0ab90683e84a1670b3771392",
        "sha256_in_prefix": "f45ca28d792ae3c2b6aa5e6880006dd9bfddf40c0ab90683e84a1670b3771392",
        "size_in_bytes": 18208
      },
      {
        "_path": "Lib/site-packages/asn1crypto/__pycache__/parser.cpython-37.pyc",
        "path_type": "hardlink",
        "sha256": "ab49a25fe52e84838f4a6ac657c92babc98bb25eda9728f456e2046d787c18fb",
        "sha256_in_prefix": "ab49a25fe52e84838f4a6ac657c92babc98bb25eda9728f456e2046d787c18fb",
        "size_in_bytes": 6767
      },
      {
        "_path": "Lib/site-packages/asn1crypto/__pycache__/pdf.cpython-37.pyc",
        "path_type": "hardlink",
        "sha256": "5d974f3df6f1684d424c422b6a30eaffb1aa8e9087fcbc2b2c398018e1857550",
        "sha256_in_prefix": "5d974f3df6f1684d424c422b6a30eaffb1aa8e9087fcbc2b2c398018e1857550",
        "size_in_bytes": 2760
      },
      {
        "_path": "Lib/site-packages/asn1crypto/__pycache__/pem.cpython-37.pyc",
        "path_type": "hardlink",
        "sha256": "6a1d0140c868dbae2cc4b20061650a12cb383d4eba2af6306b113a6df84423a2",
        "sha256_in_prefix": "6a1d0140c868dbae2cc4b20061650a12cb383d4eba2af6306b113a6df84423a2",
        "size_in_bytes": 5071
      },
      {
        "_path": "Lib/site-packages/asn1crypto/__pycache__/pkcs12.cpython-37.pyc",
        "path_type": "hardlink",
        "sha256": "80cfe6825bfe5e44935f53d57a92bcc9cc2890462e7bfb7a78ee879bd077278c",
        "sha256_in_prefix": "80cfe6825bfe5e44935f53d57a92bcc9cc2890462e7bfb7a78ee879bd077278c",
        "size_in_bytes": 5368
      },
      {
        "_path": "Lib/site-packages/asn1crypto/__pycache__/tsp.cpython-37.pyc",
        "path_type": "hardlink",
        "sha256": "24fc9aabb8e96ce018e0f1a451378d4915eec73c913f324f768123554ad2c406",
        "sha256_in_prefix": "24fc9aabb8e96ce018e0f1a451378d4915eec73c913f324f768123554ad2c406",
        "size_in_bytes": 9211
      },
      {
        "_path": "Lib/site-packages/asn1crypto/__pycache__/util.cpython-37.pyc",
        "path_type": "hardlink",
        "sha256": "098e33233e74f82b7ad36197a14e74f1ac0ecd2d79d2829dfb96696da2887009",
        "sha256_in_prefix": "098e33233e74f82b7ad36197a14e74f1ac0ecd2d79d2829dfb96696da2887009",
        "size_in_bytes": 16563
      },
      {
        "_path": "Lib/site-packages/asn1crypto/__pycache__/version.cpython-37.pyc",
        "path_type": "hardlink",
        "sha256": "c23d276753e5af2e24dfb5d3dc1bfffc38d4b05eb783ad7b01b4f95d89b75882",
        "sha256_in_prefix": "c23d276753e5af2e24dfb5d3dc1bfffc38d4b05eb783ad7b01b4f95d89b75882",
        "size_in_bytes": 315
      },
      {
        "_path": "Lib/site-packages/asn1crypto/__pycache__/x509.cpython-37.pyc",
        "path_type": "hardlink",
        "sha256": "f0d8e8ec8aeb42a5c42c124f24b59d29e8562458c6c74b8755ea073bf35bd2d7",
        "sha256_in_prefix": "f0d8e8ec8aeb42a5c42c124f24b59d29e8562458c6c74b8755ea073bf35bd2d7",
        "size_in_bytes": 78981
      },
      {
        "_path": "Lib/site-packages/asn1crypto/_elliptic_curve.py",
        "path_type": "hardlink",
        "sha256": "bdd39137a97a5d9c8242903ef6d764ef522b18b72200712298e7392ac1bb60dc",
        "sha256_in_prefix": "bdd39137a97a5d9c8242903ef6d764ef522b18b72200712298e7392ac1bb60dc",
        "size_in_bytes": 9419
      },
      {
        "_path": "Lib/site-packages/asn1crypto/_errors.py",
        "path_type": "hardlink",
        "sha256": "6020979227f32e40a7c68fa220efa821663e52e3d935b11a8bbcfde29b3c724e",
        "sha256_in_prefix": "6020979227f32e40a7c68fa220efa821663e52e3d935b11a8bbcfde29b3c724e",
        "size_in_bytes": 967
      },
      {
        "_path": "Lib/site-packages/asn1crypto/_ffi.py",
        "path_type": "hardlink",
        "sha256": "6382214cbacb4f1b7b5e0e6f71014b02f1ff32af318372d3726908267f86f1e1",
        "sha256_in_prefix": "6382214cbacb4f1b7b5e0e6f71014b02f1ff32af318372d3726908267f86f1e1",
        "size_in_bytes": 738
      },
      {
        "_path": "Lib/site-packages/asn1crypto/_inet.py",
        "path_type": "hardlink",
        "sha256": "cf62bc08ac527c443777450c208817c3936e80a2d9c914bffc29f5d22bdb8863",
        "sha256_in_prefix": "cf62bc08ac527c443777450c208817c3936e80a2d9c914bffc29f5d22bdb8863",
        "size_in_bytes": 4661
      },
      {
        "_path": "Lib/site-packages/asn1crypto/_int.py",
        "path_type": "hardlink",
        "sha256": "23e20d7b5ac71ac41f57abe776d0f9ddf8728ec10e1b96ba5a80d8e30e8cd81e",
        "sha256_in_prefix": "23e20d7b5ac71ac41f57abe776d0f9ddf8728ec10e1b96ba5a80d8e30e8cd81e",
        "size_in_bytes": 4618
      },
      {
        "_path": "Lib/site-packages/asn1crypto/_iri.py",
        "path_type": "hardlink",
        "sha256": "e601ba5411beb580104fa9569e3bc7447f91bc84ad69e1bf3f18723cb9cbf8a4",
        "sha256_in_prefix": "e601ba5411beb580104fa9569e3bc7447f91bc84ad69e1bf3f18723cb9cbf8a4",
        "size_in_bytes": 8628
      },
      {
        "_path": "Lib/site-packages/asn1crypto/_ordereddict.py",
        "path_type": "hardlink",
        "sha256": "e550182dbc7112d7dd6462a08f320dc6598d91883d77fec99990057ebd047009",
        "sha256_in_prefix": "e550182dbc7112d7dd6462a08f320dc6598d91883d77fec99990057ebd047009",
        "size_in_bytes": 4533
      },
      {
        "_path": "Lib/site-packages/asn1crypto/_perf/__init__.py",
        "path_type": "hardlink",
        "sha256": "e3b0c44298fc1c149afbf4c8996fb92427ae41e4649b934ca495991b7852b855",
        "sha256_in_prefix": "e3b0c44298fc1c149afbf4c8996fb92427ae41e4649b934ca495991b7852b855",
        "size_in_bytes": 0
      },
      {
        "_path": "Lib/site-packages/asn1crypto/_perf/__pycache__/__init__.cpython-37.pyc",
        "path_type": "hardlink",
        "sha256": "13cdc91ac40f1ef2c0236c2a8e7d65f93422c16c27df25238df542d6153da803",
        "sha256_in_prefix": "13cdc91ac40f1ef2c0236c2a8e7d65f93422c16c27df25238df542d6153da803",
        "size_in_bytes": 133
      },
      {
        "_path": "Lib/site-packages/asn1crypto/_perf/__pycache__/_big_num_ctypes.cpython-37.pyc",
        "path_type": "hardlink",
        "sha256": "2ae1664aa10341b21b9a6b0256657f9afa7ca002fa650287e9c3b467701efd98",
        "sha256_in_prefix": "2ae1664aa10341b21b9a6b0256657f9afa7ca002fa650287e9c3b467701efd98",
        "size_in_bytes": 1528
      },
      {
        "_path": "Lib/site-packages/asn1crypto/_perf/_big_num_ctypes.py",
        "path_type": "hardlink",
        "sha256": "6dcd565e1a11d3c9c1fa5d263aeb4a95dba9723c9bb3059c90ec6aba25c1cb1f",
        "sha256_in_prefix": "6dcd565e1a11d3c9c1fa5d263aeb4a95dba9723c9bb3059c90ec6aba25c1cb1f",
        "size_in_bytes": 2027
      },
      {
        "_path": "Lib/site-packages/asn1crypto/_teletex_codec.py",
        "path_type": "hardlink",
        "sha256": "2e10e9913a6b3daa1ced427d8bdbb09cffb9026d344956c74908b33e908ba6a1",
        "sha256_in_prefix": "2e10e9913a6b3daa1ced427d8bdbb09cffb9026d344956c74908b33e908ba6a1",
        "size_in_bytes": 5053
      },
      {
        "_path": "Lib/site-packages/asn1crypto/_types.py",
        "path_type": "hardlink",
        "sha256": "3b0b17df47a9bfe11323d786acb5bd18baafd0a7a889246725c8cdf76ae8aa14",
        "sha256_in_prefix": "3b0b17df47a9bfe11323d786acb5bd18baafd0a7a889246725c8cdf76ae8aa14",
        "size_in_bytes": 939
      },
      {
        "_path": "Lib/site-packages/asn1crypto/algos.py",
        "path_type": "hardlink",
        "sha256": "cdc2603fc5676534fad228d1e7e44fba123dbf891cc6b5a0cefeff1239597d6d",
        "sha256_in_prefix": "cdc2603fc5676534fad228d1e7e44fba123dbf891cc6b5a0cefeff1239597d6d",
        "size_in_bytes": 34095
      },
      {
        "_path": "Lib/site-packages/asn1crypto/cms.py",
        "path_type": "hardlink",
        "sha256": "04e592ddb4f7dd97e632974bff2a201bedcfc08d9f6d612bd45edac3fe4f159a",
        "sha256_in_prefix": "04e592ddb4f7dd97e632974bff2a201bedcfc08d9f6d612bd45edac3fe4f159a",
        "size_in_bytes": 25118
      },
      {
        "_path": "Lib/site-packages/asn1crypto/core.py",
        "path_type": "hardlink",
        "sha256": "203aeaddc387eb1c5ceb89d0707afd2d474abebd835387a1778f48ea4e5739c3",
        "sha256_in_prefix": "203aeaddc387eb1c5ceb89d0707afd2d474abebd835387a1778f48ea4e5739c3",
        "size_in_bytes": 157260
      },
      {
        "_path": "Lib/site-packages/asn1crypto/crl.py",
        "path_type": "hardlink",
        "sha256": "2892ee127d480c93b5f57e1e2d8851c9a33e0029f12a48a6a06b32027cc67600",
        "sha256_in_prefix": "2892ee127d480c93b5f57e1e2d8851c9a33e0029f12a48a6a06b32027cc67600",
        "size_in_bytes": 16104
      },
      {
        "_path": "Lib/site-packages/asn1crypto/csr.py",
        "path_type": "hardlink",
        "sha256": "08fd2d386c873c45776699c1ecbe0bf57f97d5ea43e93562c5a97a500b53bcb4",
        "sha256_in_prefix": "08fd2d386c873c45776699c1ecbe0bf57f97d5ea43e93562c5a97a500b53bcb4",
        "size_in_bytes": 2142
      },
      {
        "_path": "Lib/site-packages/asn1crypto/keys.py",
        "path_type": "hardlink",
        "sha256": "7c7f61041ab66ee4b7efcb0a4bc398147a5149048e536a824a7c6a31e7860479",
        "sha256_in_prefix": "7c7f61041ab66ee4b7efcb0a4bc398147a5149048e536a824a7c6a31e7860479",
        "size_in_bytes": 35185
      },
      {
        "_path": "Lib/site-packages/asn1crypto/ocsp.py",
        "path_type": "hardlink",
        "sha256": "8c5fc5e7ec707004eac6cfb6429a3d57cde585f0cd62e6594dde0e0e92a7c803",
        "sha256_in_prefix": "8c5fc5e7ec707004eac6cfb6429a3d57cde585f0cd62e6594dde0e0e92a7c803",
        "size_in_bytes": 17792
      },
      {
        "_path": "Lib/site-packages/asn1crypto/parser.py",
        "path_type": "hardlink",
        "sha256": "a64c954be0499389834ef7b49993149abad457f2079d093d02f82d904bdf10a3",
        "sha256_in_prefix": "a64c954be0499389834ef7b49993149abad457f2079d093d02f82d904bdf10a3",
        "size_in_bytes": 9149
      },
      {
        "_path": "Lib/site-packages/asn1crypto/pdf.py",
        "path_type": "hardlink",
        "sha256": "1cdc9b9e76b9586d9fb666fc371fd3e6b7b22c9d04ee1257a23dfb0ee2dba57d",
        "sha256_in_prefix": "1cdc9b9e76b9586d9fb666fc371fd3e6b7b22c9d04ee1257a23dfb0ee2dba57d",
        "size_in_bytes": 2250
      },
      {
        "_path": "Lib/site-packages/asn1crypto/pem.py",
        "path_type": "hardlink",
        "sha256": "b38eabfca090f61d4710d5cc8780062935deb22bd0aca9d6cd4dfe82893be6e2",
        "sha256_in_prefix": "b38eabfca090f61d4710d5cc8780062935deb22bd0aca9d6cd4dfe82893be6e2",
        "size_in_bytes": 6145
      },
      {
        "_path": "Lib/site-packages/asn1crypto/pkcs12.py",
        "path_type": "hardlink",
        "sha256": "abe2867ef68eef607c01fbe8970b2a8404298eeaa79047333dd75760b0455121",
        "sha256_in_prefix": "abe2867ef68eef607c01fbe8970b2a8404298eeaa79047333dd75760b0455121",
        "size_in_bytes": 4566
      },
      {
        "_path": "Lib/site-packages/asn1crypto/tsp.py",
        "path_type": "hardlink",
        "sha256": "8e98e9166581c17e06515ad8bbd1a793a617467cdbfae545bdf6894a8fa6ff64",
        "sha256_in_prefix": "8e98e9166581c17e06515ad8bbd1a793a617467cdbfae545bdf6894a8fa6ff64",
        "size_in_bytes": 7827
      },
      {
        "_path": "Lib/site-packages/asn1crypto/util.py",
        "path_type": "hardlink",
        "sha256": "9b775ced7b66422abffee0b41b68dcc876246893ec9e6eca1805a20978fec62a",
        "sha256_in_prefix": "9b775ced7b66422abffee0b41b68dcc876246893ec9e6eca1805a20978fec62a",
        "size_in_bytes": 18043
      },
      {
        "_path": "Lib/site-packages/asn1crypto/version.py",
        "path_type": "hardlink",
        "sha256": "4aa1a5119294a6a2ceb307082da8c3d5b2134ce7a3c0ddc9be59f0df6e611e34",
        "sha256_in_prefix": "4aa1a5119294a6a2ceb307082da8c3d5b2134ce7a3c0ddc9be59f0df6e611e34",
        "size_in_bytes": 154
      },
      {
        "_path": "Lib/site-packages/asn1crypto/x509.py",
        "path_type": "hardlink",
        "sha256": "20628e2935f719622c6614ed7296dc0e41568e9a13a3334f948b5867ca58f100",
        "sha256_in_prefix": "20628e2935f719622c6614ed7296dc0e41568e9a13a3334f948b5867ca58f100",
        "size_in_bytes": 92305
      }
    ],
    "paths_version": 1
  },
  "platform": "win32",
  "requested_spec": "asn1crypto==0.24.0=py37_0",
  "size": 158117,
  "subdir": "win-64",
  "timestamp": 1531569034102,
  "track_features": "",
  "url": "https://repo.anaconda.com/pkgs/main/win-64/asn1crypto-0.24.0-py37_0.tar.bz2",
  "version": "0.24.0"
}