{
  "arch": "x86_64",
  "build": "py37_1",
  "build_number": 1,
  "channel": "https://repo.anaconda.com/pkgs/main/win-64",
  "constrains": [],
  "depends": [
    "python >=3.7,<3.8.0a0"
  ],
  "extracted_package_dir": "C:\\Users\\NelsonRibeiro\\Desktop\\Miniconda3\\pkgs\\chardet-3.0.4-py37_1",
  "features": "",
  "files": [
    "Lib/site-packages/chardet-3.0.4-py3.7.egg-info/PKG-INFO",
    "Lib/site-packages/chardet-3.0.4-py3.7.egg-info/SOURCES.txt",
    "Lib/site-packages/chardet-3.0.4-py3.7.egg-info/dependency_links.txt",
    "Lib/site-packages/chardet-3.0.4-py3.7.egg-info/entry_points.txt",
    "Lib/site-packages/chardet-3.0.4-py3.7.egg-info/top_level.txt",
    "Lib/site-packages/chardet/__init__.py",
    "Lib/site-packages/chardet/__pycache__/__init__.cpython-37.pyc",
    "Lib/site-packages/chardet/__pycache__/big5freq.cpython-37.pyc",
    "Lib/site-packages/chardet/__pycache__/big5prober.cpython-37.pyc",
    "Lib/site-packages/chardet/__pycache__/chardistribution.cpython-37.pyc",
    "Lib/site-packages/chardet/__pycache__/charsetgroupprober.cpython-37.pyc",
    "Lib/site-packages/chardet/__pycache__/charsetprober.cpython-37.pyc",
    "Lib/site-packages/chardet/__pycache__/codingstatemachine.cpython-37.pyc",
    "Lib/site-packages/chardet/__pycache__/compat.cpython-37.pyc",
    "Lib/site-packages/chardet/__pycache__/cp949prober.cpython-37.pyc",
    "Lib/site-packages/chardet/__pycache__/enums.cpython-37.pyc",
    "Lib/site-packages/chardet/__pycache__/escprober.cpython-37.pyc",
    "Lib/site-packages/chardet/__pycache__/escsm.cpython-37.pyc",
    "Lib/site-packages/chardet/__pycache__/eucjpprober.cpython-37.pyc",
    "Lib/site-packages/chardet/__pycache__/euckrfreq.cpython-37.pyc",
    "Lib/site-packages/chardet/__pycache__/euckrprober.cpython-37.pyc",
    "Lib/site-packages/chardet/__pycache__/euctwfreq.cpython-37.pyc",
    "Lib/site-packages/chardet/__pycache__/euctwprober.cpython-37.pyc",
    "Lib/site-packages/chardet/__pycache__/gb2312freq.cpython-37.pyc",
    "Lib/site-packages/chardet/__pycache__/gb2312prober.cpython-37.pyc",
    "Lib/site-packages/chardet/__pycache__/hebrewprober.cpython-37.pyc",
    "Lib/site-packages/chardet/__pycache__/jisfreq.cpython-37.pyc",
    "Lib/site-packages/chardet/__pycache__/jpcntx.cpython-37.pyc",
    "Lib/site-packages/chardet/__pycache__/langbulgarianmodel.cpython-37.pyc",
    "Lib/site-packages/chardet/__pycache__/langcyrillicmodel.cpython-37.pyc",
    "Lib/site-packages/chardet/__pycache__/langgreekmodel.cpython-37.pyc",
    "Lib/site-packages/chardet/__pycache__/langhebrewmodel.cpython-37.pyc",
    "Lib/site-packages/chardet/__pycache__/langhungarianmodel.cpython-37.pyc",
    "Lib/site-packages/chardet/__pycache__/langthaimodel.cpython-37.pyc",
    "Lib/site-packages/chardet/__pycache__/langturkishmodel.cpython-37.pyc",
    "Lib/site-packages/chardet/__pycache__/latin1prober.cpython-37.pyc",
    "Lib/site-packages/chardet/__pycache__/mbcharsetprober.cpython-37.pyc",
    "Lib/site-packages/chardet/__pycache__/mbcsgroupprober.cpython-37.pyc",
    "Lib/site-packages/chardet/__pycache__/mbcssm.cpython-37.pyc",
    "Lib/site-packages/chardet/__pycache__/sbcharsetprober.cpython-37.pyc",
    "Lib/site-packages/chardet/__pycache__/sbcsgroupprober.cpython-37.pyc",
    "Lib/site-packages/chardet/__pycache__/sjisprober.cpython-37.pyc",
    "Lib/site-packages/chardet/__pycache__/universaldetector.cpython-37.pyc",
    "Lib/site-packages/chardet/__pycache__/utf8prober.cpython-37.pyc",
    "Lib/site-packages/chardet/__pycache__/version.cpython-37.pyc",
    "Lib/site-packages/chardet/big5freq.py",
    "Lib/site-packages/chardet/big5prober.py",
    "Lib/site-packages/chardet/chardistribution.py",
    "Lib/site-packages/chardet/charsetgroupprober.py",
    "Lib/site-packages/chardet/charsetprober.py",
    "Lib/site-packages/chardet/cli/__init__.py",
    "Lib/site-packages/chardet/cli/__pycache__/__init__.cpython-37.pyc",
    "Lib/site-packages/chardet/cli/__pycache__/chardetect.cpython-37.pyc",
    "Lib/site-packages/chardet/cli/chardetect.py",
    "Lib/site-packages/chardet/codingstatemachine.py",
    "Lib/site-packages/chardet/compat.py",
    "Lib/site-packages/chardet/cp949prober.py",
    "Lib/site-packages/chardet/enums.py",
    "Lib/site-packages/chardet/escprober.py",
    "Lib/site-packages/chardet/escsm.py",
    "Lib/site-packages/chardet/eucjpprober.py",
    "Lib/site-packages/chardet/euckrfreq.py",
    "Lib/site-packages/chardet/euckrprober.py",
    "Lib/site-packages/chardet/euctwfreq.py",
    "Lib/site-packages/chardet/euctwprober.py",
    "Lib/site-packages/chardet/gb2312freq.py",
    "Lib/site-packages/chardet/gb2312prober.py",
    "Lib/site-packages/chardet/hebrewprober.py",
    "Lib/site-packages/chardet/jisfreq.py",
    "Lib/site-packages/chardet/jpcntx.py",
    "Lib/site-packages/chardet/langbulgarianmodel.py",
    "Lib/site-packages/chardet/langcyrillicmodel.py",
    "Lib/site-packages/chardet/langgreekmodel.py",
    "Lib/site-packages/chardet/langhebrewmodel.py",
    "Lib/site-packages/chardet/langhungarianmodel.py",
    "Lib/site-packages/chardet/langthaimodel.py",
    "Lib/site-packages/chardet/langturkishmodel.py",
    "Lib/site-packages/chardet/latin1prober.py",
    "Lib/site-packages/chardet/mbcharsetprober.py",
    "Lib/site-packages/chardet/mbcsgroupprober.py",
    "Lib/site-packages/chardet/mbcssm.py",
    "Lib/site-packages/chardet/sbcharsetprober.py",
    "Lib/site-packages/chardet/sbcsgroupprober.py",
    "Lib/site-packages/chardet/sjisprober.py",
    "Lib/site-packages/chardet/universaldetector.py",
    "Lib/site-packages/chardet/utf8prober.py",
    "Lib/site-packages/chardet/version.py",
    "Scripts/chardetect-script.py",
    "Scripts/chardetect.exe"
  ],
  "fn": "chardet-3.0.4-py37_1.tar.bz2",
  "license": "LGPL2",
  "license_family": "GPL",
  "link": {
    "source": "C:\\Users\\NelsonRibeiro\\Desktop\\Miniconda3\\pkgs\\chardet-3.0.4-py37_1",
    "type": 1
  },
  "md5": "fa614ba863adbffcc5d5d449a8a19add",
  "name": "chardet",
  "package_tarball_full_path": "C:\\Users\\NelsonRibeiro\\Desktop\\Miniconda3\\pkgs\\chardet-3.0.4-py37_1.tar.bz2",
  "paths_data": {
    "paths": [
      {
        "_path": "Lib/site-packages/chardet-3.0.4-py3.7.egg-info/PKG-INFO",
        "path_type": "hardlink",
        "sha256": "9d2f9332ee701a536024eb852fc08ca3c7357b95b551d8e5a2b25995904bdd97",
        "sha256_in_prefix": "9d2f9332ee701a536024eb852fc08ca3c7357b95b551d8e5a2b25995904bdd97",
        "size_in_bytes": 3955
      },
      {
        "_path": "Lib/site-packages/chardet-3.0.4-py3.7.egg-info/SOURCES.txt",
        "path_type": "hardlink",
        "sha256": "99f6923646a7a30a3d8915ba419ed932a8f24572a7f757df05649137ae4a63ce",
        "sha256_in_prefix": "99f6923646a7a30a3d8915ba419ed932a8f24572a7f757df05649137ae4a63ce",
        "size_in_bytes": 16643
      },
      {
        "_path": "Lib/site-packages/chardet-3.0.4-py3.7.egg-info/dependency_links.txt",
        "path_type": "hardlink",
        "sha256": "01ba4719c80b6fe911b091a7c05124b64eeece964e09c058ef8f9805daca546b",
        "sha256_in_prefix": "01ba4719c80b6fe911b091a7c05124b64eeece964e09c058ef8f9805daca546b",
        "size_in_bytes": 1
      },
      {
        "_path": "Lib/site-packages/chardet-3.0.4-py3.7.egg-info/entry_points.txt",
        "path_type": "hardlink",
        "sha256": "7c032686ee5e27ecc027eb267ea430442950dfe9e8cce0a6bc9ebe13c960189a",
        "sha256_in_prefix": "7c032686ee5e27ecc027eb267ea430442950dfe9e8cce0a6bc9ebe13c960189a",
        "size_in_bytes": 60
      },
      {
        "_path": "Lib/site-packages/chardet-3.0.4-py3.7.egg-info/top_level.txt",
        "path_type": "hardlink",
        "sha256": "028c3305b672e31f048ab0010dd2522c964c909ff9de221a83cc5f291e83ee42",
        "sha256_in_prefix": "028c3305b672e31f048ab0010dd2522c964c909ff9de221a83cc5f291e83ee42",
        "size_in_bytes": 8
      },
      {
        "_path": "Lib/site-packages/chardet/__init__.py",
        "path_type": "hardlink",
        "sha256": "62c3f9c1096c1c9d9ab85d516497f2a624ab080eff6d08919b7112fcd23bebe6",
        "sha256_in_prefix": "62c3f9c1096c1c9d9ab85d516497f2a624ab080eff6d08919b7112fcd23bebe6",
        "size_in_bytes": 1559
      },
      {
        "_path": "Lib/site-packages/chardet/__pycache__/__init__.cpython-37.pyc",
        "path_type": "hardlink",
        "sha256": "74fc8d27830531b3acb60774aa4caca43bd469bf81efc9ed59605f96183d465c",
        "sha256_in_prefix": "74fc8d27830531b3acb60774aa4caca43bd469bf81efc9ed59605f96183d465c",
        "size_in_bytes": 776
      },
      {
        "_path": "Lib/site-packages/chardet/__pycache__/big5freq.cpython-37.pyc",
        "path_type": "hardlink",
        "sha256": "460b31c88f664f4f7117d0a89592d079a58ded17ba4bd0503c456184105496f3",
        "sha256_in_prefix": "460b31c88f664f4f7117d0a89592d079a58ded17ba4bd0503c456184105496f3",
        "size_in_bytes": 27111
      },
      {
        "_path": "Lib/site-packages/chardet/__pycache__/big5prober.cpython-37.pyc",
        "path_type": "hardlink",
        "sha256": "908202904cbe7a7e05e6a1f781e008ff8ef54b02265a2c51fc59fe2118ac9554",
        "sha256_in_prefix": "908202904cbe7a7e05e6a1f781e008ff8ef54b02265a2c51fc59fe2118ac9554",
        "size_in_bytes": 1052
      },
      {
        "_path": "Lib/site-packages/chardet/__pycache__/chardistribution.cpython-37.pyc",
        "path_type": "hardlink",
        "sha256": "512a033c698b9d143f619a3eba5f0e2f094e4ed69bf63b5f5884c1631e8e8aa6",
        "sha256_in_prefix": "512a033c698b9d143f619a3eba5f0e2f094e4ed69bf63b5f5884c1631e8e8aa6",
        "size_in_bytes": 6238
      },
      {
        "_path": "Lib/site-packages/chardet/__pycache__/charsetgroupprober.cpython-37.pyc",
        "path_type": "hardlink",
        "sha256": "bbf1cac343dfcb9969726579a6be3f827f06a6a95def83bf366880597e0cae09",
        "sha256_in_prefix": "bbf1cac343dfcb9969726579a6be3f827f06a6a95def83bf366880597e0cae09",
        "size_in_bytes": 2159
      },
      {
        "_path": "Lib/site-packages/chardet/__pycache__/charsetprober.cpython-37.pyc",
        "path_type": "hardlink",
        "sha256": "c02f1f7a39ab345a49bdcd21a5d314d96a63b9444076f03f0ab80d10eeb3ab32",
        "sha256_in_prefix": "c02f1f7a39ab345a49bdcd21a5d314d96a63b9444076f03f0ab80d10eeb3ab32",
        "size_in_bytes": 3369
      },
      {
        "_path": "Lib/site-packages/chardet/__pycache__/codingstatemachine.cpython-37.pyc",
        "path_type": "hardlink",
        "sha256": "57ddc2e720cc91a7c3c917547a1d26dd727573178d8fa15b3e84f251a097b51b",
        "sha256_in_prefix": "57ddc2e720cc91a7c3c917547a1d26dd727573178d8fa15b3e84f251a097b51b",
        "size_in_bytes": 2816
      },
      {
        "_path": "Lib/site-packages/chardet/__pycache__/compat.cpython-37.pyc",
        "path_type": "hardlink",
        "sha256": "38de6994753116db400e25485ae13f4cbc557ec6e706ea17e37da57d0f74f507",
        "sha256_in_prefix": "38de6994753116db400e25485ae13f4cbc557ec6e706ea17e37da57d0f74f507",
        "size_in_bytes": 287
      },
      {
        "_path": "Lib/site-packages/chardet/__pycache__/cp949prober.cpython-37.pyc",
        "path_type": "hardlink",
        "sha256": "b30c0ac1498bdbbe0f8127ef324adff7aff1ff651871845a651ce7ba25dd65f1",
        "sha256_in_prefix": "b30c0ac1498bdbbe0f8127ef324adff7aff1ff651871845a651ce7ba25dd65f1",
        "size_in_bytes": 1059
      },
      {
        "_path": "Lib/site-packages/chardet/__pycache__/enums.cpython-37.pyc",
        "path_type": "hardlink",
        "sha256": "a1f86780d8407727818ad091c30a9da6dd4f3a897d22411ce9bb743ebfce4f26",
        "sha256_in_prefix": "a1f86780d8407727818ad091c30a9da6dd4f3a897d22411ce9bb743ebfce4f26",
        "size_in_bytes": 2550
      },
      {
        "_path": "Lib/site-packages/chardet/__pycache__/escprober.cpython-37.pyc",
        "path_type": "hardlink",
        "sha256": "d9596340a2bc2ab000cc7d4e074db7b4db882852a7d45f81643bb519c37309d1",
        "sha256_in_prefix": "d9596340a2bc2ab000cc7d4e074db7b4db882852a7d45f81643bb519c37309d1",
        "size_in_bytes": 2537
      },
      {
        "_path": "Lib/site-packages/chardet/__pycache__/escsm.cpython-37.pyc",
        "path_type": "hardlink",
        "sha256": "d21ce9e9200ca4f7bec7839c834722dd3530ec90434a1d2766c1babdf6edf93c",
        "sha256_in_prefix": "d21ce9e9200ca4f7bec7839c834722dd3530ec90434a1d2766c1babdf6edf93c",
        "size_in_bytes": 6998
      },
      {
        "_path": "Lib/site-packages/chardet/__pycache__/eucjpprober.cpython-37.pyc",
        "path_type": "hardlink",
        "sha256": "041a4f13dcb7cd4b3da048ff0a15e394a3398ea488470c5d86d3c40b971c3fb7",
        "sha256_in_prefix": "041a4f13dcb7cd4b3da048ff0a15e394a3398ea488470c5d86d3c40b971c3fb7",
        "size_in_bytes": 2345
      },
      {
        "_path": "Lib/site-packages/chardet/__pycache__/euckrfreq.cpython-37.pyc",
        "path_type": "hardlink",
        "sha256": "d8ea8724b56d728da3ba93f6dfe21c4ce5f10fedddd32a12a1cd08cf170fdeeb",
        "sha256_in_prefix": "d8ea8724b56d728da3ba93f6dfe21c4ce5f10fedddd32a12a1cd08cf170fdeeb",
        "size_in_bytes": 11995
      },
      {
        "_path": "Lib/site-packages/chardet/__pycache__/euckrprober.cpython-37.pyc",
        "path_type": "hardlink",
        "sha256": "2b59c3f9c99f46d772ed7b5c8c9d2b6aa561756606ff1e6e511998ddefe5da9a",
        "sha256_in_prefix": "2b59c3f9c99f46d772ed7b5c8c9d2b6aa561756606ff1e6e511998ddefe5da9a",
        "size_in_bytes": 1060
      },
      {
        "_path": "Lib/site-packages/chardet/__pycache__/euctwfreq.cpython-37.pyc",
        "path_type": "hardlink",
        "sha256": "f023be6670c237fc5e872030d3dd2e6f561f35a04750240d1ac5f21225791da8",
        "sha256_in_prefix": "f023be6670c237fc5e872030d3dd2e6f561f35a04750240d1ac5f21225791da8",
        "size_in_bytes": 27115
      },
      {
        "_path": "Lib/site-packages/chardet/__pycache__/euctwprober.cpython-37.pyc",
        "path_type": "hardlink",
        "sha256": "ed98bce55ed02cf2188ee7c624421e7a1f0f4817dd3ad8e1a90e939282e8f6f3",
        "sha256_in_prefix": "ed98bce55ed02cf2188ee7c624421e7a1f0f4817dd3ad8e1a90e939282e8f6f3",
        "size_in_bytes": 1060
      },
      {
        "_path": "Lib/site-packages/chardet/__pycache__/gb2312freq.cpython-37.pyc",
        "path_type": "hardlink",
        "sha256": "3028fca40b1520910cfef1ccbf663c2f0c52fa52ce3bc30e4e437622713a8bf0",
        "sha256_in_prefix": "3028fca40b1520910cfef1ccbf663c2f0c52fa52ce3bc30e4e437622713a8bf0",
        "size_in_bytes": 19039
      },
      {
        "_path": "Lib/site-packages/chardet/__pycache__/gb2312prober.cpython-37.pyc",
        "path_type": "hardlink",
        "sha256": "aa48ddaf0c2495a102b259a026cf2c473a98848b6334fda5143a371540929c42",
        "sha256_in_prefix": "aa48ddaf0c2495a102b259a026cf2c473a98848b6334fda5143a371540929c42",
        "size_in_bytes": 1068
      },
      {
        "_path": "Lib/site-packages/chardet/__pycache__/hebrewprober.cpython-37.pyc",
        "path_type": "hardlink",
        "sha256": "516172258906a839ddb766beecd3cd3f7b4051fec34b8970353d1aa4630f93b4",
        "sha256_in_prefix": "516172258906a839ddb766beecd3cd3f7b4051fec34b8970353d1aa4630f93b4",
        "size_in_bytes": 2902
      },
      {
        "_path": "Lib/site-packages/chardet/__pycache__/jisfreq.cpython-37.pyc",
        "path_type": "hardlink",
        "sha256": "8092ba4b6a1ca829a668c05697322b795f13aca4a0d2a098e3ff0f1f80bc526b",
        "sha256_in_prefix": "8092ba4b6a1ca829a668c05697322b795f13aca4a0d2a098e3ff0f1f80bc526b",
        "size_in_bytes": 22067
      },
      {
        "_path": "Lib/site-packages/chardet/__pycache__/jpcntx.cpython-37.pyc",
        "path_type": "hardlink",
        "sha256": "16b5ec12793a20905da5c265e93ebe9000ac03ca47864b1dc6471feff51a51a8",
        "sha256_in_prefix": "16b5ec12793a20905da5c265e93ebe9000ac03ca47864b1dc6471feff51a51a8",
        "size_in_bytes": 37946
      },
      {
        "_path": "Lib/site-packages/chardet/__pycache__/langbulgarianmodel.cpython-37.pyc",
        "path_type": "hardlink",
        "sha256": "2a70fd16e50d58d8354cb65269512f7a516e5181230e848a1de38b2ec150e1db",
        "sha256_in_prefix": "2a70fd16e50d58d8354cb65269512f7a516e5181230e848a1de38b2ec150e1db",
        "size_in_bytes": 23560
      },
      {
        "_path": "Lib/site-packages/chardet/__pycache__/langcyrillicmodel.cpython-37.pyc",
        "path_type": "hardlink",
        "sha256": "a193a757e6036a990a92241060e9645df2bee0954c7f946c41f0256553738558",
        "sha256_in_prefix": "a193a757e6036a990a92241060e9645df2bee0954c7f946c41f0256553738558",
        "size_in_bytes": 29016
      },
      {
        "_path": "Lib/site-packages/chardet/__pycache__/langgreekmodel.cpython-37.pyc",
        "path_type": "hardlink",
        "sha256": "3a31dea1d63f53c8474efb7101d13cac0877656b6d9533b9bec0b86606954175",
        "sha256_in_prefix": "3a31dea1d63f53c8474efb7101d13cac0877656b6d9533b9bec0b86606954175",
        "size_in_bytes": 23518
      },
      {
        "_path": "Lib/site-packages/chardet/__pycache__/langhebrewmodel.cpython-37.pyc",
        "path_type": "hardlink",
        "sha256": "cb82876bd94c5dec2520ef84a220628ceddcccfa0f3075ebf0617463d5ca6ddf",
        "sha256_in_prefix": "cb82876bd94c5dec2520ef84a220628ceddcccfa0f3075ebf0617463d5ca6ddf",
        "size_in_bytes": 22147
      },
      {
        "_path": "Lib/site-packages/chardet/__pycache__/langhungarianmodel.cpython-37.pyc",
        "path_type": "hardlink",
        "sha256": "fa8fe0816d3968e288aac53d29d68851287807c96b87047c03f4b93ea43c0b08",
        "sha256_in_prefix": "fa8fe0816d3968e288aac53d29d68851287807c96b87047c03f4b93ea43c0b08",
        "size_in_bytes": 23549
      },
      {
        "_path": "Lib/site-packages/chardet/__pycache__/langthaimodel.cpython-37.pyc",
        "path_type": "hardlink",
        "sha256": "8a38e79c3f671add082de885ce7db606a43f8040c2d597d07b105a3143d05fa8",
        "sha256_in_prefix": "8a38e79c3f671add082de885ce7db606a43f8040c2d597d07b105a3143d05fa8",
        "size_in_bytes": 22126
      },
      {
        "_path": "Lib/site-packages/chardet/__pycache__/langturkishmodel.cpython-37.pyc",
        "path_type": "hardlink",
        "sha256": "5e714fb6c6592d31da8553232bca16f8a6cdce8a408a26ab4f3d89f68cd1f185",
        "sha256_in_prefix": "5e714fb6c6592d31da8553232bca16f8a6cdce8a408a26ab4f3d89f68cd1f185",
        "size_in_bytes": 22149
      },
      {
        "_path": "Lib/site-packages/chardet/__pycache__/latin1prober.cpython-37.pyc",
        "path_type": "hardlink",
        "sha256": "1319a8d47517b71d14fea21b6652ce455be47d7e191d4548ca3f04b8fc4db49d",
        "sha256_in_prefix": "1319a8d47517b71d14fea21b6652ce455be47d7e191d4548ca3f04b8fc4db49d",
        "size_in_bytes": 2859
      },
      {
        "_path": "Lib/site-packages/chardet/__pycache__/mbcharsetprober.cpython-37.pyc",
        "path_type": "hardlink",
        "sha256": "49a703f4ea817e52d181fdc2d085e0c743a08b23836eb565dc339148b49ead27",
        "sha256_in_prefix": "49a703f4ea817e52d181fdc2d085e0c743a08b23836eb565dc339148b49ead27",
        "size_in_bytes": 2164
      },
      {
        "_path": "Lib/site-packages/chardet/__pycache__/mbcsgroupprober.cpython-37.pyc",
        "path_type": "hardlink",
        "sha256": "a6af1c25b85d99a8cd0b38adf0f62da412fb73019c55f2aedb4731cdbd145885",
        "sha256_in_prefix": "a6af1c25b85d99a8cd0b38adf0f62da412fb73019c55f2aedb4731cdbd145885",
        "size_in_bytes": 1055
      },
      {
        "_path": "Lib/site-packages/chardet/__pycache__/mbcssm.cpython-37.pyc",
        "path_type": "hardlink",
        "sha256": "fa8bda150b3ed26088deea9985f0d8dee4d888cf736d6409e89073ee4427570f",
        "sha256_in_prefix": "fa8bda150b3ed26088deea9985f0d8dee4d888cf736d6409e89073ee4427570f",
        "size_in_bytes": 15610
      },
      {
        "_path": "Lib/site-packages/chardet/__pycache__/sbcharsetprober.cpython-37.pyc",
        "path_type": "hardlink",
        "sha256": "bdb81e0b5ffc09d3dcdbbdff48a57a2e6c9739c2679da09956aa3286fd22ee9b",
        "sha256_in_prefix": "bdb81e0b5ffc09d3dcdbbdff48a57a2e6c9739c2679da09956aa3286fd22ee9b",
        "size_in_bytes": 2917
      },
      {
        "_path": "Lib/site-packages/chardet/__pycache__/sbcsgroupprober.cpython-37.pyc",
        "path_type": "hardlink",
        "sha256": "b66ae3299d5150a2e8dbcc3601362d7007769739ec33abbab2174299114d3bd8",
        "sha256_in_prefix": "b66ae3299d5150a2e8dbcc3601362d7007769739ec33abbab2174299114d3bd8",
        "size_in_bytes": 1545
      },
      {
        "_path": "Lib/site-packages/chardet/__pycache__/sjisprober.cpython-37.pyc",
        "path_type": "hardlink",
        "sha256": "66cee227a659dbcdb30a9ea4f005c9f8305618ace400c3de562eaaec544c0578",
        "sha256_in_prefix": "66cee227a659dbcdb30a9ea4f005c9f8305618ace400c3de562eaaec544c0578",
        "size_in_bytes": 2371
      },
      {
        "_path": "Lib/site-packages/chardet/__pycache__/universaldetector.cpython-37.pyc",
        "path_type": "hardlink",
        "sha256": "9677c77b2a4a37849e292bc31f766c79af4981688d184a93f35505c370246a14",
        "sha256_in_prefix": "9677c77b2a4a37849e292bc31f766c79af4981688d184a93f35505c370246a14",
        "size_in_bytes": 5761
      },
      {
        "_path": "Lib/site-packages/chardet/__pycache__/utf8prober.cpython-37.pyc",
        "path_type": "hardlink",
        "sha256": "59b8ce56423186ff6f93f76a9248a7258287d236228912c7e2ce4c7f25bb838c",
        "sha256_in_prefix": "59b8ce56423186ff6f93f76a9248a7258287d236228912c7e2ce4c7f25bb838c",
        "size_in_bytes": 1902
      },
      {
        "_path": "Lib/site-packages/chardet/__pycache__/version.cpython-37.pyc",
        "path_type": "hardlink",
        "sha256": "1c80282dbb9d5f0faeabbc9ff486a7dd4829dcf3da7f243bebc30ac6d0ce52c1",
        "sha256_in_prefix": "1c80282dbb9d5f0faeabbc9ff486a7dd4829dcf3da7f243bebc30ac6d0ce52c1",
        "size_in_bytes": 371
      },
      {
        "_path": "Lib/site-packages/chardet/big5freq.py",
        "path_type": "hardlink",
        "sha256": "0ffccae46cb3a15b117acd0790b2738a5b45417d1b2822ceac57bdff10ef3bff",
        "sha256_in_prefix": "0ffccae46cb3a15b117acd0790b2738a5b45417d1b2822ceac57bdff10ef3bff",
        "size_in_bytes": 31254
      },
      {
        "_path": "Lib/site-packages/chardet/big5prober.py",
        "path_type": "hardlink",
        "sha256": "901c476dd7ad0693deef1ae56fe7bdf748a8b7ae20fde1922dddf6941eff8773",
        "sha256_in_prefix": "901c476dd7ad0693deef1ae56fe7bdf748a8b7ae20fde1922dddf6941eff8773",
        "size_in_bytes": 1757
      },
      {
        "_path": "Lib/site-packages/chardet/chardistribution.py",
        "path_type": "hardlink",
        "sha256": "df0a164bad8aac6a282b2ab3e334129e315b2696ba57b834d9d68089b4f0725f",
        "sha256_in_prefix": "df0a164bad8aac6a282b2ab3e334129e315b2696ba57b834d9d68089b4f0725f",
        "size_in_bytes": 9411
      },
      {
        "_path": "Lib/site-packages/chardet/charsetgroupprober.py",
        "path_type": "hardlink",
        "sha256": "e9b0eef1822246e49c5f871af4881bd14ebd4c0d8f1975c37a3e82738ffd90ee",
        "sha256_in_prefix": "e9b0eef1822246e49c5f871af4881bd14ebd4c0d8f1975c37a3e82738ffd90ee",
        "size_in_bytes": 3787
      },
      {
        "_path": "Lib/site-packages/chardet/charsetprober.py",
        "path_type": "hardlink",
        "sha256": "2929b0244ae3ca9ca3d1b459982e45e5e33b73c61080b6088d95e29ed64db2d8",
        "sha256_in_prefix": "2929b0244ae3ca9ca3d1b459982e45e5e33b73c61080b6088d95e29ed64db2d8",
        "size_in_bytes": 5110
      },
      {
        "_path": "Lib/site-packages/chardet/cli/__init__.py",
        "path_type": "hardlink",
        "sha256": "01ba4719c80b6fe911b091a7c05124b64eeece964e09c058ef8f9805daca546b",
        "sha256_in_prefix": "01ba4719c80b6fe911b091a7c05124b64eeece964e09c058ef8f9805daca546b",
        "size_in_bytes": 1
      },
      {
        "_path": "Lib/site-packages/chardet/cli/__pycache__/__init__.cpython-37.pyc",
        "path_type": "hardlink",
        "sha256": "fe663b1c3260eb249fc269039da1bec32dc79f5c6cd233edd2ec0894e5469f42",
        "sha256_in_prefix": "fe663b1c3260eb249fc269039da1bec32dc79f5c6cd233edd2ec0894e5469f42",
        "size_in_bytes": 128
      },
      {
        "_path": "Lib/site-packages/chardet/cli/__pycache__/chardetect.cpython-37.pyc",
        "path_type": "hardlink",
        "sha256": "4f026e276e513382519d1c0b150d8c41072bed4dcac7378c74e17e181068b298",
        "sha256_in_prefix": "4f026e276e513382519d1c0b150d8c41072bed4dcac7378c74e17e181068b298",
        "size_in_bytes": 2581
      },
      {
        "_path": "Lib/site-packages/chardet/cli/chardetect.py",
        "path_type": "hardlink",
        "sha256": "6013bc2f8997a34591ebff858e1ffc4313c1a0404da81f6837136b75ce78010b",
        "sha256_in_prefix": "6013bc2f8997a34591ebff858e1ffc4313c1a0404da81f6837136b75ce78010b",
        "size_in_bytes": 2738
      },
      {
        "_path": "Lib/site-packages/chardet/codingstatemachine.py",
        "path_type": "hardlink",
        "sha256": "558a7fe9ccb2922e6c1e05c34999d75b8ab5a1e94773772ef40c904d7eeeba0f",
        "sha256_in_prefix": "558a7fe9ccb2922e6c1e05c34999d75b8ab5a1e94773772ef40c904d7eeeba0f",
        "size_in_bytes": 3590
      },
      {
        "_path": "Lib/site-packages/chardet/compat.py",
        "path_type": "hardlink",
        "sha256": "3ca4f31e449bb5b1c3a92f4fcae8cc6d7ef8ab56bc98ca5e4130d5b10859311c",
        "sha256_in_prefix": "3ca4f31e449bb5b1c3a92f4fcae8cc6d7ef8ab56bc98ca5e4130d5b10859311c",
        "size_in_bytes": 1134
      },
      {
        "_path": "Lib/site-packages/chardet/cp949prober.py",
        "path_type": "hardlink",
        "sha256": "4d9e37e105fccf306c9d4bcbffcc26e004154d9d9992a10440bfe5370f5ff68c",
        "sha256_in_prefix": "4d9e37e105fccf306c9d4bcbffcc26e004154d9d9992a10440bfe5370f5ff68c",
        "size_in_bytes": 1855
      },
      {
        "_path": "Lib/site-packages/chardet/enums.py",
        "path_type": "hardlink",
        "sha256": "0229b075bf5ab357492996853541f63a158854155de9990927f58ae6c358f1c5",
        "sha256_in_prefix": "0229b075bf5ab357492996853541f63a158854155de9990927f58ae6c358f1c5",
        "size_in_bytes": 1661
      },
      {
        "_path": "Lib/site-packages/chardet/escprober.py",
        "path_type": "hardlink",
        "sha256": "924caa560d58c370c8380309d9b765c9081415086e1c05bc7541ac913a0d5927",
        "sha256_in_prefix": "924caa560d58c370c8380309d9b765c9081415086e1c05bc7541ac913a0d5927",
        "size_in_bytes": 3950
      },
      {
        "_path": "Lib/site-packages/chardet/escsm.py",
        "path_type": "hardlink",
        "sha256": "46e5e580dbd32036ab9ddbe594d0a4e56641229742c50d2471df4402ec5487ce",
        "sha256_in_prefix": "46e5e580dbd32036ab9ddbe594d0a4e56641229742c50d2471df4402ec5487ce",
        "size_in_bytes": 10510
      },
      {
        "_path": "Lib/site-packages/chardet/eucjpprober.py",
        "path_type": "hardlink",
        "sha256": "883f09769d084918e08e254dedfd1ef3119e409e46336a1e675740f276d2794c",
        "sha256_in_prefix": "883f09769d084918e08e254dedfd1ef3119e409e46336a1e675740f276d2794c",
        "size_in_bytes": 3749
      },
      {
        "_path": "Lib/site-packages/chardet/euckrfreq.py",
        "path_type": "hardlink",
        "sha256": "fbb19d9af8167b3e3e78ee12b97a5aeed0620e2e6f45743c5af74503355a49fa",
        "sha256_in_prefix": "fbb19d9af8167b3e3e78ee12b97a5aeed0620e2e6f45743c5af74503355a49fa",
        "size_in_bytes": 13546
      },
      {
        "_path": "Lib/site-packages/chardet/euckrprober.py",
        "path_type": "hardlink",
        "sha256": "32a14c4d05f15b81dbcc8a59f652831c1dc637c48fe328877a74e67fc83f3f16",
        "sha256_in_prefix": "32a14c4d05f15b81dbcc8a59f652831c1dc637c48fe328877a74e67fc83f3f16",
        "size_in_bytes": 1748
      },
      {
        "_path": "Lib/site-packages/chardet/euctwfreq.py",
        "path_type": "hardlink",
        "sha256": "368d56c9db853a00795484d403b3cbc82e6825137347231b07168a235975e8c0",
        "sha256_in_prefix": "368d56c9db853a00795484d403b3cbc82e6825137347231b07168a235975e8c0",
        "size_in_bytes": 31621
      },
      {
        "_path": "Lib/site-packages/chardet/euctwprober.py",
        "path_type": "hardlink",
        "sha256": "d77a7a10fe3245ac6a9cfe221edc47389e91db3c47ab5fe6f214d18f3559f797",
        "sha256_in_prefix": "d77a7a10fe3245ac6a9cfe221edc47389e91db3c47ab5fe6f214d18f3559f797",
        "size_in_bytes": 1747
      },
      {
        "_path": "Lib/site-packages/chardet/gb2312freq.py",
        "path_type": "hardlink",
        "sha256": "257f25b3078a2e69c2c2693c507110b0b824affacffe411bbe2bc2e2a3ceae57",
        "sha256_in_prefix": "257f25b3078a2e69c2c2693c507110b0b824affacffe411bbe2bc2e2a3ceae57",
        "size_in_bytes": 20715
      },
      {
        "_path": "Lib/site-packages/chardet/gb2312prober.py",
        "path_type": "hardlink",
        "sha256": "806bc85a2f568438c4fb14171ef348cab9cbbc46cc01883251267ae4751fca5c",
        "sha256_in_prefix": "806bc85a2f568438c4fb14171ef348cab9cbbc46cc01883251267ae4751fca5c",
        "size_in_bytes": 1754
      },
      {
        "_path": "Lib/site-packages/chardet/hebrewprober.py",
        "path_type": "hardlink",
        "sha256": "737499f8aee1bf2cc663a251019c4983027fb144bd93459892f318d34601605a",
        "sha256_in_prefix": "737499f8aee1bf2cc663a251019c4983027fb144bd93459892f318d34601605a",
        "size_in_bytes": 13838
      },
      {
        "_path": "Lib/site-packages/chardet/jisfreq.py",
        "path_type": "hardlink",
        "sha256": "be9989bf606ed09f209cc5513c730579f4d1be8fe16b59abc8b8a0f0207080e8",
        "sha256_in_prefix": "be9989bf606ed09f209cc5513c730579f4d1be8fe16b59abc8b8a0f0207080e8",
        "size_in_bytes": 25777
      },
      {
        "_path": "Lib/site-packages/chardet/jpcntx.py",
        "path_type": "hardlink",
        "sha256": "3d894da915104fc2ccddc4f91661c63f48a2b1c1654d6103f763002ef06e9e0a",
        "sha256_in_prefix": "3d894da915104fc2ccddc4f91661c63f48a2b1c1654d6103f763002ef06e9e0a",
        "size_in_bytes": 19643
      },
      {
        "_path": "Lib/site-packages/chardet/langbulgarianmodel.py",
        "path_type": "hardlink",
        "sha256": "d47a904bd3dbb678f5c508318ad24cbf0f17ea42abe4ea1c90d09959f110acf1",
        "sha256_in_prefix": "d47a904bd3dbb678f5c508318ad24cbf0f17ea42abe4ea1c90d09959f110acf1",
        "size_in_bytes": 12839
      },
      {
        "_path": "Lib/site-packages/chardet/langcyrillicmodel.py",
        "path_type": "hardlink",
        "sha256": "2ce0da8efb1eb47f3bc980c340a0360942d7507f3bb48db6ddd85f8e1f59c7d7",
        "sha256_in_prefix": "2ce0da8efb1eb47f3bc980c340a0360942d7507f3bb48db6ddd85f8e1f59c7d7",
        "size_in_bytes": 17948
      },
      {
        "_path": "Lib/site-packages/chardet/langgreekmodel.py",
        "path_type": "hardlink",
        "sha256": "f18016edb53c6304896a9d2420949b3ccc35044ab31a35b3a9ca9fd168142800",
        "sha256_in_prefix": "f18016edb53c6304896a9d2420949b3ccc35044ab31a35b3a9ca9fd168142800",
        "size_in_bytes": 12688
      },
      {
        "_path": "Lib/site-packages/chardet/langhebrewmodel.py",
        "path_type": "hardlink",
        "sha256": "2529ea984e44eb6b432d33d3bcba50b20e6038c3b83db75646f57b02f91cd070",
        "sha256_in_prefix": "2529ea984e44eb6b432d33d3bcba50b20e6038c3b83db75646f57b02f91cd070",
        "size_in_bytes": 11345
      },
      {
        "_path": "Lib/site-packages/chardet/langhungarianmodel.py",
        "path_type": "hardlink",
        "sha256": "4616a96121b997465a3be555e056a7e6c5b4591190aa1c0133ad72c77cb1c8e0",
        "sha256_in_prefix": "4616a96121b997465a3be555e056a7e6c5b4591190aa1c0133ad72c77cb1c8e0",
        "size_in_bytes": 12592
      },
      {
        "_path": "Lib/site-packages/chardet/langthaimodel.py",
        "path_type": "hardlink",
        "sha256": "f25d35ef71aefd6e86f26c6640e4c417896cd98744ec5c567f74244b11065c94",
        "sha256_in_prefix": "f25d35ef71aefd6e86f26c6640e4c417896cd98744ec5c567f74244b11065c94",
        "size_in_bytes": 11290
      },
      {
        "_path": "Lib/site-packages/chardet/langturkishmodel.py",
        "path_type": "hardlink",
        "sha256": "5b6d9e44d26ca88eae5807f05d22955969c27ab62aac8f1d6504e6fccd254459",
        "sha256_in_prefix": "5b6d9e44d26ca88eae5807f05d22955969c27ab62aac8f1d6504e6fccd254459",
        "size_in_bytes": 11102
      },
      {
        "_path": "Lib/site-packages/chardet/latin1prober.py",
        "path_type": "hardlink",
        "sha256": "4b6228391845937f451053a54855ad815c9b4623fa87b0652e574755c94d914f",
        "sha256_in_prefix": "4b6228391845937f451053a54855ad815c9b4623fa87b0652e574755c94d914f",
        "size_in_bytes": 5370
      },
      {
        "_path": "Lib/site-packages/chardet/mbcharsetprober.py",
        "path_type": "hardlink",
        "sha256": "011f797851fdbeea927ef2d064df8be628de6b6e4d3810a85eac3cb393bdc4b4",
        "sha256_in_prefix": "011f797851fdbeea927ef2d064df8be628de6b6e4d3810a85eac3cb393bdc4b4",
        "size_in_bytes": 3413
      },
      {
        "_path": "Lib/site-packages/chardet/mbcsgroupprober.py",
        "path_type": "hardlink",
        "sha256": "87a4d19e762ad8ec46d56743e493b2c5c755a67edd1b4abebc1f275abe666e1e",
        "sha256_in_prefix": "87a4d19e762ad8ec46d56743e493b2c5c755a67edd1b4abebc1f275abe666e1e",
        "size_in_bytes": 2012
      },
      {
        "_path": "Lib/site-packages/chardet/mbcssm.py",
        "path_type": "hardlink",
        "sha256": "498df6c15205dc7cdc8d8dc1684b29cbd99eb5b3522b120807444a3e7eed8e92",
        "sha256_in_prefix": "498df6c15205dc7cdc8d8dc1684b29cbd99eb5b3522b120807444a3e7eed8e92",
        "size_in_bytes": 25481
      },
      {
        "_path": "Lib/site-packages/chardet/sbcharsetprober.py",
        "path_type": "hardlink",
        "sha256": "2c34a90a5743085958c149069300f6a05c4b94f5885974f4f5a907ff63e263be",
        "sha256_in_prefix": "2c34a90a5743085958c149069300f6a05c4b94f5885974f4f5a907ff63e263be",
        "size_in_bytes": 5657
      },
      {
        "_path": "Lib/site-packages/chardet/sbcsgroupprober.py",
        "path_type": "hardlink",
        "sha256": "d48a6b70207f935a9f9a7c460ba3016f110b94aa83dec716e92f1823075ec970",
        "sha256_in_prefix": "d48a6b70207f935a9f9a7c460ba3016f110b94aa83dec716e92f1823075ec970",
        "size_in_bytes": 3546
      },
      {
        "_path": "Lib/site-packages/chardet/sjisprober.py",
        "path_type": "hardlink",
        "sha256": "208b7e9598f4589a8ae2b9946732993f8189944f0a504b45615b98f7a7a4e4c4",
        "sha256_in_prefix": "208b7e9598f4589a8ae2b9946732993f8189944f0a504b45615b98f7a7a4e4c4",
        "size_in_bytes": 3774
      },
      {
        "_path": "Lib/site-packages/chardet/universaldetector.py",
        "path_type": "hardlink",
        "sha256": "a8bd35ef8952644e38d9e076d679e4b53f7f55c0327b4ee5685594794ae3b6d6",
        "sha256_in_prefix": "a8bd35ef8952644e38d9e076d679e4b53f7f55c0327b4ee5685594794ae3b6d6",
        "size_in_bytes": 12485
      },
      {
        "_path": "Lib/site-packages/chardet/utf8prober.py",
        "path_type": "hardlink",
        "sha256": "21d0fcbf7cd63ac07c38b8b23e2fb2fdfab08a9445c55f4d73578a04b4ae204c",
        "sha256_in_prefix": "21d0fcbf7cd63ac07c38b8b23e2fb2fdfab08a9445c55f4d73578a04b4ae204c",
        "size_in_bytes": 2766
      },
      {
        "_path": "Lib/site-packages/chardet/version.py",
        "path_type": "hardlink",
        "sha256": "b29dc1d3c9ab0d707ea5fdcaf5fa89ff37831ce08b0bc46b9e04320c56a9ffb8",
        "sha256_in_prefix": "b29dc1d3c9ab0d707ea5fdcaf5fa89ff37831ce08b0bc46b9e04320c56a9ffb8",
        "size_in_bytes": 242
      },
      {
        "_path": "Scripts/chardetect-script.py",
        "path_type": "hardlink",
        "sha256": "e13d3a6d1961d155807d442201869b6c52ab1ae8a56b15facdc053c5dd8f93ae",
        "sha256_in_prefix": "e13d3a6d1961d155807d442201869b6c52ab1ae8a56b15facdc053c5dd8f93ae",
        "size_in_bytes": 216
      },
      {
        "_path": "Scripts/chardetect.exe",
        "path_type": "hardlink",
        "sha256": "993203a406e04936a07829b1f482fd27d739b640482e213f4c49ea1ee78a5fcf",
        "sha256_in_prefix": "993203a406e04936a07829b1f482fd27d739b640482e213f4c49ea1ee78a5fcf",
        "size_in_bytes": 40960
      }
    ],
    "paths_version": 1
  },
  "platform": "win32",
  "requested_spec": "chardet==3.0.4=py37_1",
  "size": 188224,
  "subdir": "win-64",
  "timestamp": 1531666257280,
  "track_features": "",
  "url": "https://repo.anaconda.com/pkgs/main/win-64/chardet-3.0.4-py37_1.tar.bz2",
  "version": "3.0.4"
}