{
  "arch": "x86_64",
  "build": "1",
  "build_number": 1,
  "channel": "https://repo.anaconda.com/pkgs/main/win-64",
  "constrains": [],
  "depends": [],
  "extracted_package_dir": "C:\\Users\\NelsonRibeiro\\Desktop\\Miniconda3\\pkgs\\conda-env-2.6.0-1",
  "features": "",
  "files": [],
  "fn": "conda-env-2.6.0-1.tar.bz2",
  "license": "BSD 3-Clause",
  "link": {
    "source": "C:\\Users\\NelsonRibeiro\\Desktop\\Miniconda3\\pkgs\\conda-env-2.6.0-1",
    "type": 1
  },
  "md5": "0f615892c0a17b46e5619deeb0103b5b",
  "name": "conda-env",
  "package_tarball_full_path": "C:\\Users\\NelsonRibeiro\\Desktop\\Miniconda3\\pkgs\\conda-env-2.6.0-1.tar.bz2",
  "paths_data": {
    "paths": [],
    "paths_version": 1
  },
  "platform": "win32",
  "requested_spec": "conda-env==2.6.0=1",
  "size": 2817,
  "subdir": "win-64",
  "timestamp": 1533165258262,
  "track_features": "",
  "url": "https://repo.anaconda.com/pkgs/main/win-64/conda-env-2.6.0-1.tar.bz2",
  "version": "2.6.0"
}