{
  "arch": "x86_64",
  "build": "py37h74b6da3_0",
  "build_number": 0,
  "channel": "https://repo.anaconda.com/pkgs/main/win-64",
  "constrains": [],
  "depends": [
    "asn1crypto >=0.21.0",
    "cffi >=1.7",
    "idna >=2.1",
    "openssl >=1.0.2p,<1.0.3a",
    "python >=3.7,<3.8.0a0",
    "six >=1.4.1",
    "vc 14.*"
  ],
  "extracted_package_dir": "C:\\Users\\NelsonRibeiro\\Desktop\\Miniconda3\\pkgs\\cryptography-2.3.1-py37h74b6da3_0",
  "features": "",
  "files": [
    "Lib/site-packages/cryptography-2.3.1.dist-info/INSTALLER",
    "Lib/site-packages/cryptography-2.3.1.dist-info/METADATA",
    "Lib/site-packages/cryptography-2.3.1.dist-info/RECORD",
    "Lib/site-packages/cryptography-2.3.1.dist-info/WHEEL",
    "Lib/site-packages/cryptography-2.3.1.dist-info/top_level.txt",
    "Lib/site-packages/cryptography/__about__.py",
    "Lib/site-packages/cryptography/__init__.py",
    "Lib/site-packages/cryptography/__pycache__/__about__.cpython-37.pyc",
    "Lib/site-packages/cryptography/__pycache__/__init__.cpython-37.pyc",
    "Lib/site-packages/cryptography/__pycache__/exceptions.cpython-37.pyc",
    "Lib/site-packages/cryptography/__pycache__/fernet.cpython-37.pyc",
    "Lib/site-packages/cryptography/__pycache__/utils.cpython-37.pyc",
    "Lib/site-packages/cryptography/exceptions.py",
    "Lib/site-packages/cryptography/fernet.py",
    "Lib/site-packages/cryptography/hazmat/__init__.py",
    "Lib/site-packages/cryptography/hazmat/__pycache__/__init__.cpython-37.pyc",
    "Lib/site-packages/cryptography/hazmat/backends/__init__.py",
    "Lib/site-packages/cryptography/hazmat/backends/__pycache__/__init__.cpython-37.pyc",
    "Lib/site-packages/cryptography/hazmat/backends/__pycache__/interfaces.cpython-37.pyc",
    "Lib/site-packages/cryptography/hazmat/backends/interfaces.py",
    "Lib/site-packages/cryptography/hazmat/backends/openssl/__init__.py",
    "Lib/site-packages/cryptography/hazmat/backends/openssl/__pycache__/__init__.cpython-37.pyc",
    "Lib/site-packages/cryptography/hazmat/backends/openssl/__pycache__/aead.cpython-37.pyc",
    "Lib/site-packages/cryptography/hazmat/backends/openssl/__pycache__/backend.cpython-37.pyc",
    "Lib/site-packages/cryptography/hazmat/backends/openssl/__pycache__/ciphers.cpython-37.pyc",
    "Lib/site-packages/cryptography/hazmat/backends/openssl/__pycache__/cmac.cpython-37.pyc",
    "Lib/site-packages/cryptography/hazmat/backends/openssl/__pycache__/decode_asn1.cpython-37.pyc",
    "Lib/site-packages/cryptography/hazmat/backends/openssl/__pycache__/dh.cpython-37.pyc",
    "Lib/site-packages/cryptography/hazmat/backends/openssl/__pycache__/dsa.cpython-37.pyc",
    "Lib/site-packages/cryptography/hazmat/backends/openssl/__pycache__/ec.cpython-37.pyc",
    "Lib/site-packages/cryptography/hazmat/backends/openssl/__pycache__/encode_asn1.cpython-37.pyc",
    "Lib/site-packages/cryptography/hazmat/backends/openssl/__pycache__/hashes.cpython-37.pyc",
    "Lib/site-packages/cryptography/hazmat/backends/openssl/__pycache__/hmac.cpython-37.pyc",
    "Lib/site-packages/cryptography/hazmat/backends/openssl/__pycache__/rsa.cpython-37.pyc",
    "Lib/site-packages/cryptography/hazmat/backends/openssl/__pycache__/utils.cpython-37.pyc",
    "Lib/site-packages/cryptography/hazmat/backends/openssl/__pycache__/x25519.cpython-37.pyc",
    "Lib/site-packages/cryptography/hazmat/backends/openssl/__pycache__/x509.cpython-37.pyc",
    "Lib/site-packages/cryptography/hazmat/backends/openssl/aead.py",
    "Lib/site-packages/cryptography/hazmat/backends/openssl/backend.py",
    "Lib/site-packages/cryptography/hazmat/backends/openssl/ciphers.py",
    "Lib/site-packages/cryptography/hazmat/backends/openssl/cmac.py",
    "Lib/site-packages/cryptography/hazmat/backends/openssl/decode_asn1.py",
    "Lib/site-packages/cryptography/hazmat/backends/openssl/dh.py",
    "Lib/site-packages/cryptography/hazmat/backends/openssl/dsa.py",
    "Lib/site-packages/cryptography/hazmat/backends/openssl/ec.py",
    "Lib/site-packages/cryptography/hazmat/backends/openssl/encode_asn1.py",
    "Lib/site-packages/cryptography/hazmat/backends/openssl/hashes.py",
    "Lib/site-packages/cryptography/hazmat/backends/openssl/hmac.py",
    "Lib/site-packages/cryptography/hazmat/backends/openssl/rsa.py",
    "Lib/site-packages/cryptography/hazmat/backends/openssl/utils.py",
    "Lib/site-packages/cryptography/hazmat/backends/openssl/x25519.py",
    "Lib/site-packages/cryptography/hazmat/backends/openssl/x509.py",
    "Lib/site-packages/cryptography/hazmat/bindings/__init__.py",
    "Lib/site-packages/cryptography/hazmat/bindings/__pycache__/__init__.cpython-37.pyc",
    "Lib/site-packages/cryptography/hazmat/bindings/_constant_time.cp37-win_amd64.pyd",
    "Lib/site-packages/cryptography/hazmat/bindings/_openssl.cp37-win_amd64.pyd",
    "Lib/site-packages/cryptography/hazmat/bindings/_padding.cp37-win_amd64.pyd",
    "Lib/site-packages/cryptography/hazmat/bindings/openssl/__init__.py",
    "Lib/site-packages/cryptography/hazmat/bindings/openssl/__pycache__/__init__.cpython-37.pyc",
    "Lib/site-packages/cryptography/hazmat/bindings/openssl/__pycache__/_conditional.cpython-37.pyc",
    "Lib/site-packages/cryptography/hazmat/bindings/openssl/__pycache__/binding.cpython-37.pyc",
    "Lib/site-packages/cryptography/hazmat/bindings/openssl/_conditional.py",
    "Lib/site-packages/cryptography/hazmat/bindings/openssl/binding.py",
    "Lib/site-packages/cryptography/hazmat/primitives/__init__.py",
    "Lib/site-packages/cryptography/hazmat/primitives/__pycache__/__init__.cpython-37.pyc",
    "Lib/site-packages/cryptography/hazmat/primitives/__pycache__/cmac.cpython-37.pyc",
    "Lib/site-packages/cryptography/hazmat/primitives/__pycache__/constant_time.cpython-37.pyc",
    "Lib/site-packages/cryptography/hazmat/primitives/__pycache__/hashes.cpython-37.pyc",
    "Lib/site-packages/cryptography/hazmat/primitives/__pycache__/hmac.cpython-37.pyc",
    "Lib/site-packages/cryptography/hazmat/primitives/__pycache__/keywrap.cpython-37.pyc",
    "Lib/site-packages/cryptography/hazmat/primitives/__pycache__/mac.cpython-37.pyc",
    "Lib/site-packages/cryptography/hazmat/primitives/__pycache__/padding.cpython-37.pyc",
    "Lib/site-packages/cryptography/hazmat/primitives/__pycache__/serialization.cpython-37.pyc",
    "Lib/site-packages/cryptography/hazmat/primitives/asymmetric/__init__.py",
    "Lib/site-packages/cryptography/hazmat/primitives/asymmetric/__pycache__/__init__.cpython-37.pyc",
    "Lib/site-packages/cryptography/hazmat/primitives/asymmetric/__pycache__/dh.cpython-37.pyc",
    "Lib/site-packages/cryptography/hazmat/primitives/asymmetric/__pycache__/dsa.cpython-37.pyc",
    "Lib/site-packages/cryptography/hazmat/primitives/asymmetric/__pycache__/ec.cpython-37.pyc",
    "Lib/site-packages/cryptography/hazmat/primitives/asymmetric/__pycache__/padding.cpython-37.pyc",
    "Lib/site-packages/cryptography/hazmat/primitives/asymmetric/__pycache__/rsa.cpython-37.pyc",
    "Lib/site-packages/cryptography/hazmat/primitives/asymmetric/__pycache__/utils.cpython-37.pyc",
    "Lib/site-packages/cryptography/hazmat/primitives/asymmetric/__pycache__/x25519.cpython-37.pyc",
    "Lib/site-packages/cryptography/hazmat/primitives/asymmetric/dh.py",
    "Lib/site-packages/cryptography/hazmat/primitives/asymmetric/dsa.py",
    "Lib/site-packages/cryptography/hazmat/primitives/asymmetric/ec.py",
    "Lib/site-packages/cryptography/hazmat/primitives/asymmetric/padding.py",
    "Lib/site-packages/cryptography/hazmat/primitives/asymmetric/rsa.py",
    "Lib/site-packages/cryptography/hazmat/primitives/asymmetric/utils.py",
    "Lib/site-packages/cryptography/hazmat/primitives/asymmetric/x25519.py",
    "Lib/site-packages/cryptography/hazmat/primitives/ciphers/__init__.py",
    "Lib/site-packages/cryptography/hazmat/primitives/ciphers/__pycache__/__init__.cpython-37.pyc",
    "Lib/site-packages/cryptography/hazmat/primitives/ciphers/__pycache__/aead.cpython-37.pyc",
    "Lib/site-packages/cryptography/hazmat/primitives/ciphers/__pycache__/algorithms.cpython-37.pyc",
    "Lib/site-packages/cryptography/hazmat/primitives/ciphers/__pycache__/base.cpython-37.pyc",
    "Lib/site-packages/cryptography/hazmat/primitives/ciphers/__pycache__/modes.cpython-37.pyc",
    "Lib/site-packages/cryptography/hazmat/primitives/ciphers/aead.py",
    "Lib/site-packages/cryptography/hazmat/primitives/ciphers/algorithms.py",
    "Lib/site-packages/cryptography/hazmat/primitives/ciphers/base.py",
    "Lib/site-packages/cryptography/hazmat/primitives/ciphers/modes.py",
    "Lib/site-packages/cryptography/hazmat/primitives/cmac.py",
    "Lib/site-packages/cryptography/hazmat/primitives/constant_time.py",
    "Lib/site-packages/cryptography/hazmat/primitives/hashes.py",
    "Lib/site-packages/cryptography/hazmat/primitives/hmac.py",
    "Lib/site-packages/cryptography/hazmat/primitives/kdf/__init__.py",
    "Lib/site-packages/cryptography/hazmat/primitives/kdf/__pycache__/__init__.cpython-37.pyc",
    "Lib/site-packages/cryptography/hazmat/primitives/kdf/__pycache__/concatkdf.cpython-37.pyc",
    "Lib/site-packages/cryptography/hazmat/primitives/kdf/__pycache__/hkdf.cpython-37.pyc",
    "Lib/site-packages/cryptography/hazmat/primitives/kdf/__pycache__/kbkdf.cpython-37.pyc",
    "Lib/site-packages/cryptography/hazmat/primitives/kdf/__pycache__/pbkdf2.cpython-37.pyc",
    "Lib/site-packages/cryptography/hazmat/primitives/kdf/__pycache__/scrypt.cpython-37.pyc",
    "Lib/site-packages/cryptography/hazmat/primitives/kdf/__pycache__/x963kdf.cpython-37.pyc",
    "Lib/site-packages/cryptography/hazmat/primitives/kdf/concatkdf.py",
    "Lib/site-packages/cryptography/hazmat/primitives/kdf/hkdf.py",
    "Lib/site-packages/cryptography/hazmat/primitives/kdf/kbkdf.py",
    "Lib/site-packages/cryptography/hazmat/primitives/kdf/pbkdf2.py",
    "Lib/site-packages/cryptography/hazmat/primitives/kdf/scrypt.py",
    "Lib/site-packages/cryptography/hazmat/primitives/kdf/x963kdf.py",
    "Lib/site-packages/cryptography/hazmat/primitives/keywrap.py",
    "Lib/site-packages/cryptography/hazmat/primitives/mac.py",
    "Lib/site-packages/cryptography/hazmat/primitives/padding.py",
    "Lib/site-packages/cryptography/hazmat/primitives/serialization.py",
    "Lib/site-packages/cryptography/hazmat/primitives/twofactor/__init__.py",
    "Lib/site-packages/cryptography/hazmat/primitives/twofactor/__pycache__/__init__.cpython-37.pyc",
    "Lib/site-packages/cryptography/hazmat/primitives/twofactor/__pycache__/hotp.cpython-37.pyc",
    "Lib/site-packages/cryptography/hazmat/primitives/twofactor/__pycache__/totp.cpython-37.pyc",
    "Lib/site-packages/cryptography/hazmat/primitives/twofactor/__pycache__/utils.cpython-37.pyc",
    "Lib/site-packages/cryptography/hazmat/primitives/twofactor/hotp.py",
    "Lib/site-packages/cryptography/hazmat/primitives/twofactor/totp.py",
    "Lib/site-packages/cryptography/hazmat/primitives/twofactor/utils.py",
    "Lib/site-packages/cryptography/utils.py",
    "Lib/site-packages/cryptography/x509/__init__.py",
    "Lib/site-packages/cryptography/x509/__pycache__/__init__.cpython-37.pyc",
    "Lib/site-packages/cryptography/x509/__pycache__/base.cpython-37.pyc",
    "Lib/site-packages/cryptography/x509/__pycache__/certificate_transparency.cpython-37.pyc",
    "Lib/site-packages/cryptography/x509/__pycache__/extensions.cpython-37.pyc",
    "Lib/site-packages/cryptography/x509/__pycache__/general_name.cpython-37.pyc",
    "Lib/site-packages/cryptography/x509/__pycache__/name.cpython-37.pyc",
    "Lib/site-packages/cryptography/x509/__pycache__/oid.cpython-37.pyc",
    "Lib/site-packages/cryptography/x509/base.py",
    "Lib/site-packages/cryptography/x509/certificate_transparency.py",
    "Lib/site-packages/cryptography/x509/extensions.py",
    "Lib/site-packages/cryptography/x509/general_name.py",
    "Lib/site-packages/cryptography/x509/name.py",
    "Lib/site-packages/cryptography/x509/oid.py"
  ],
  "fn": "cryptography-2.3.1-py37h74b6da3_0.tar.bz2",
  "license": "Apache 2.0 or BSD 3-Clause, PSF 2",
  "license_family": "BSD",
  "link": {
    "source": "C:\\Users\\NelsonRibeiro\\Desktop\\Miniconda3\\pkgs\\cryptography-2.3.1-py37h74b6da3_0",
    "type": 1
  },
  "md5": "ee9f68380a21d76c3727768ecbdd6f8c",
  "name": "cryptography",
  "package_tarball_full_path": "C:\\Users\\NelsonRibeiro\\Desktop\\Miniconda3\\pkgs\\cryptography-2.3.1-py37h74b6da3_0.tar.bz2",
  "paths_data": {
    "paths": [
      {
        "_path": "Lib/site-packages/cryptography-2.3.1.dist-info/INSTALLER",
        "path_type": "hardlink",
        "sha256": "ceebae7b8927a3227e5303cf5e0f1f7b34bb542ad7250ac03fbcde36ec2f1508",
        "sha256_in_prefix": "ceebae7b8927a3227e5303cf5e0f1f7b34bb542ad7250ac03fbcde36ec2f1508",
        "size_in_bytes": 4
      },
      {
        "_path": "Lib/site-packages/cryptography-2.3.1.dist-info/METADATA",
        "path_type": "hardlink",
        "sha256": "9e3843fcba10e99d3bc4d20341db1d9b24316fdb15be798a5ba1e988d7bb2449",
        "sha256_in_prefix": "9e3843fcba10e99d3bc4d20341db1d9b24316fdb15be798a5ba1e988d7bb2449",
        "size_in_bytes": 5002
      },
      {
        "_path": "Lib/site-packages/cryptography-2.3.1.dist-info/RECORD",
        "path_type": "hardlink",
        "sha256": "c091b9df589e553f81d0fa4193d419d1c4f4570f7f6ee8247d87447d4ab962e0",
        "sha256_in_prefix": "c091b9df589e553f81d0fa4193d419d1c4f4570f7f6ee8247d87447d4ab962e0",
        "size_in_bytes": 12363
      },
      {
        "_path": "Lib/site-packages/cryptography-2.3.1.dist-info/WHEEL",
        "path_type": "hardlink",
        "sha256": "8e61584b0476a22e4380c1a09a7b81f84271a8b3245288c619d989d30cf7e5a2",
        "sha256_in_prefix": "8e61584b0476a22e4380c1a09a7b81f84271a8b3245288c619d989d30cf7e5a2",
        "size_in_bytes": 106
      },
      {
        "_path": "Lib/site-packages/cryptography-2.3.1.dist-info/top_level.txt",
        "path_type": "hardlink",
        "sha256": "402918404e07241a6a22bf9a06a6ce67bd0d95f6de8ca9c313a3836cd814c308",
        "sha256_in_prefix": "402918404e07241a6a22bf9a06a6ce67bd0d95f6de8ca9c313a3836cd814c308",
        "size_in_bytes": 46
      },
      {
        "_path": "Lib/site-packages/cryptography/__about__.py",
        "path_type": "hardlink",
        "sha256": "a1ffb21de5e8916ff9df2cae20676ca4c8adefbee721b81e1c4e80900e7dcbd6",
        "sha256_in_prefix": "a1ffb21de5e8916ff9df2cae20676ca4c8adefbee721b81e1c4e80900e7dcbd6",
        "size_in_bytes": 817
      },
      {
        "_path": "Lib/site-packages/cryptography/__init__.py",
        "path_type": "hardlink",
        "sha256": "33b990adf08762e93b4e910fa5f63192173de5ca26ab13ade35c588cb6b9c220",
        "sha256_in_prefix": "33b990adf08762e93b4e910fa5f63192173de5ca26ab13ade35c588cb6b9c220",
        "size_in_bytes": 527
      },
      {
        "_path": "Lib/site-packages/cryptography/__pycache__/__about__.cpython-37.pyc",
        "path_type": "hardlink",
        "sha256": "e4453aabe6cb7a0856d68efa2cdaa03deaadcacde178d5ca922bf14504a9b20a",
        "sha256_in_prefix": "e4453aabe6cb7a0856d68efa2cdaa03deaadcacde178d5ca922bf14504a9b20a",
        "size_in_bytes": 735
      },
      {
        "_path": "Lib/site-packages/cryptography/__pycache__/__init__.cpython-37.pyc",
        "path_type": "hardlink",
        "sha256": "5a649e86215935f163166ea96650e61da479476beeaad5c7707f4367fc5dc621",
        "sha256_in_prefix": "5a649e86215935f163166ea96650e61da479476beeaad5c7707f4367fc5dc621",
        "size_in_bytes": 501
      },
      {
        "_path": "Lib/site-packages/cryptography/__pycache__/exceptions.cpython-37.pyc",
        "path_type": "hardlink",
        "sha256": "94b3e3d8906c45619d0cc5556b58d655681165c693e6eb25cb948a969a4e71b2",
        "sha256_in_prefix": "94b3e3d8906c45619d0cc5556b58d655681165c693e6eb25cb948a969a4e71b2",
        "size_in_bytes": 2330
      },
      {
        "_path": "Lib/site-packages/cryptography/__pycache__/fernet.cpython-37.pyc",
        "path_type": "hardlink",
        "sha256": "e8a220c984330f322b0d6d218c47960d9e5331df10bb21a2eb21cf6f359d6e5e",
        "sha256_in_prefix": "e8a220c984330f322b0d6d218c47960d9e5331df10bb21a2eb21cf6f359d6e5e",
        "size_in_bytes": 5155
      },
      {
        "_path": "Lib/site-packages/cryptography/__pycache__/utils.cpython-37.pyc",
        "path_type": "hardlink",
        "sha256": "332eb94061367bb908352af0f6b189afd125323f01e08637add81e5779a13923",
        "sha256_in_prefix": "332eb94061367bb908352af0f6b189afd125323f01e08637add81e5779a13923",
        "size_in_bytes": 5227
      },
      {
        "_path": "Lib/site-packages/cryptography/exceptions.py",
        "path_type": "hardlink",
        "sha256": "dc3252bba193e65e7256abbc48728e0c6669fecebab3f9d9a24c4080fcb0b3ed",
        "sha256_in_prefix": "dc3252bba193e65e7256abbc48728e0c6669fecebab3f9d9a24c4080fcb0b3ed",
        "size_in_bytes": 1234
      },
      {
        "_path": "Lib/site-packages/cryptography/fernet.py",
        "path_type": "hardlink",
        "sha256": "0666391c14de210db81e64fd6f5d02d3163ff81641329845571e92d503fa8322",
        "sha256_in_prefix": "0666391c14de210db81e64fd6f5d02d3163ff81641329845571e92d503fa8322",
        "size_in_bytes": 5290
      },
      {
        "_path": "Lib/site-packages/cryptography/hazmat/__init__.py",
        "path_type": "hardlink",
        "sha256": "8443cd430f1d82320f227e36a9a2f05cd44b0b24c6359792be441be7b0cf85bb",
        "sha256_in_prefix": "8443cd430f1d82320f227e36a9a2f05cd44b0b24c6359792be441be7b0cf85bb",
        "size_in_bytes": 483
      },
      {
        "_path": "Lib/site-packages/cryptography/hazmat/__pycache__/__init__.cpython-37.pyc",
        "path_type": "hardlink",
        "sha256": "3246ee8c4b2d99c70b35b92e7301d83b6d4ec6563315e91ecfda3f3b66411af8",
        "sha256_in_prefix": "3246ee8c4b2d99c70b35b92e7301d83b6d4ec6563315e91ecfda3f3b66411af8",
        "size_in_bytes": 478
      },
      {
        "_path": "Lib/site-packages/cryptography/hazmat/backends/__init__.py",
        "path_type": "hardlink",
        "sha256": "f76519766a93c903ce600dae8b5eed92cca3c419d39a3d570ecc4308284bbf11",
        "sha256_in_prefix": "f76519766a93c903ce600dae8b5eed92cca3c419d39a3d570ecc4308284bbf11",
        "size_in_bytes": 496
      },
      {
        "_path": "Lib/site-packages/cryptography/hazmat/backends/__pycache__/__init__.cpython-37.pyc",
        "path_type": "hardlink",
        "sha256": "e033f9bda4b45559f036e5c4b123ea86718782cb6f133f820a56f60897f9c0bd",
        "sha256_in_prefix": "e033f9bda4b45559f036e5c4b123ea86718782cb6f133f820a56f60897f9c0bd",
        "size_in_bytes": 470
      },
      {
        "_path": "Lib/site-packages/cryptography/hazmat/backends/__pycache__/interfaces.cpython-37.pyc",
        "path_type": "hardlink",
        "sha256": "76d9b0fc616bb82c070f97b7c02dbedbdcb7518a4a4407c36f499f3740eafddb",
        "sha256_in_prefix": "76d9b0fc616bb82c070f97b7c02dbedbdcb7518a4a4407c36f499f3740eafddb",
        "size_in_bytes": 16259
      },
      {
        "_path": "Lib/site-packages/cryptography/hazmat/backends/interfaces.py",
        "path_type": "hardlink",
        "sha256": "6fccd9f767a15498dee926efb08e0cc27e4ea5426e8e1224e0c1489a6c0c96be",
        "sha256_in_prefix": "6fccd9f767a15498dee926efb08e0cc27e4ea5426e8e1224e0c1489a6c0c96be",
        "size_in_bytes": 10789
      },
      {
        "_path": "Lib/site-packages/cryptography/hazmat/backends/openssl/__init__.py",
        "path_type": "hardlink",
        "sha256": "9380cc7b6dbcfe14ee076918dcbc24eb625d23712609ded5915d35cc99b9ee9b",
        "sha256_in_prefix": "9380cc7b6dbcfe14ee076918dcbc24eb625d23712609ded5915d35cc99b9ee9b",
        "size_in_bytes": 336
      },
      {
        "_path": "Lib/site-packages/cryptography/hazmat/backends/openssl/__pycache__/__init__.cpython-37.pyc",
        "path_type": "hardlink",
        "sha256": "7f0a168eb8de45a1383c6a96fa0d98cb171675b5a969097e490d3deca5884285",
        "sha256_in_prefix": "7f0a168eb8de45a1383c6a96fa0d98cb171675b5a969097e490d3deca5884285",
        "size_in_bytes": 345
      },
      {
        "_path": "Lib/site-packages/cryptography/hazmat/backends/openssl/__pycache__/aead.cpython-37.pyc",
        "path_type": "hardlink",
        "sha256": "da51679c6f5439b2100f1e634faac042de3bf5719040511149badff44d54c4c3",
        "sha256_in_prefix": "da51679c6f5439b2100f1e634faac042de3bf5719040511149badff44d54c4c3",
        "size_in_bytes": 3679
      },
      {
        "_path": "Lib/site-packages/cryptography/hazmat/backends/openssl/__pycache__/backend.cpython-37.pyc",
        "path_type": "hardlink",
        "sha256": "39c5813d0b052e5d5bb3d735bf2743fafdc925ed4667af237eb4cb88a48f6aa9",
        "sha256_in_prefix": "39c5813d0b052e5d5bb3d735bf2743fafdc925ed4667af237eb4cb88a48f6aa9",
        "size_in_bytes": 51652
      },
      {
        "_path": "Lib/site-packages/cryptography/hazmat/backends/openssl/__pycache__/ciphers.cpython-37.pyc",
        "path_type": "hardlink",
        "sha256": "f3f337420957baeb7b72fa12aa0259abb508b3be86e7cb230609c928f8e9628d",
        "sha256_in_prefix": "f3f337420957baeb7b72fa12aa0259abb508b3be86e7cb230609c928f8e9628d",
        "size_in_bytes": 5355
      },
      {
        "_path": "Lib/site-packages/cryptography/hazmat/backends/openssl/__pycache__/cmac.cpython-37.pyc",
        "path_type": "hardlink",
        "sha256": "516d9420e6f31812a1b269082a6460590b5edd79340714e8f250aaf96b21a91b",
        "sha256_in_prefix": "516d9420e6f31812a1b269082a6460590b5edd79340714e8f250aaf96b21a91b",
        "size_in_bytes": 2580
      },
      {
        "_path": "Lib/site-packages/cryptography/hazmat/backends/openssl/__pycache__/decode_asn1.cpython-37.pyc",
        "path_type": "hardlink",
        "sha256": "ab9bda636ab64d7241a012180765fa4131214c614d089a3d35985ef8120671df",
        "sha256_in_prefix": "ab9bda636ab64d7241a012180765fa4131214c614d089a3d35985ef8120671df",
        "size_in_bytes": 20801
      },
      {
        "_path": "Lib/site-packages/cryptography/hazmat/backends/openssl/__pycache__/dh.cpython-37.pyc",
        "path_type": "hardlink",
        "sha256": "9949dd46463e9c712887d4af0dbed99c36b581a200d3a1568837f8b2b6ed3f01",
        "sha256_in_prefix": "9949dd46463e9c712887d4af0dbed99c36b581a200d3a1568837f8b2b6ed3f01",
        "size_in_bytes": 8057
      },
      {
        "_path": "Lib/site-packages/cryptography/hazmat/backends/openssl/__pycache__/dsa.cpython-37.pyc",
        "path_type": "hardlink",
        "sha256": "9c487a3d4ca598465ba52308e99b028f4347160c2f61b9cdba6b56a1dabd67b4",
        "sha256_in_prefix": "9c487a3d4ca598465ba52308e99b028f4347160c2f61b9cdba6b56a1dabd67b4",
        "size_in_bytes": 8629
      },
      {
        "_path": "Lib/site-packages/cryptography/hazmat/backends/openssl/__pycache__/ec.cpython-37.pyc",
        "path_type": "hardlink",
        "sha256": "f4091f53871ce61ce3a30792ddd17531ebcd8ef98f7945eb9f46c4a265dd6a2f",
        "sha256_in_prefix": "f4091f53871ce61ce3a30792ddd17531ebcd8ef98f7945eb9f46c4a265dd6a2f",
        "size_in_bytes": 9289
      },
      {
        "_path": "Lib/site-packages/cryptography/hazmat/backends/openssl/__pycache__/encode_asn1.cpython-37.pyc",
        "path_type": "hardlink",
        "sha256": "1176ef04401821c72fcd1427b58f2b96d34bdb7dbcdf1e8f014571e337b8c3f8",
        "sha256_in_prefix": "1176ef04401821c72fcd1427b58f2b96d34bdb7dbcdf1e8f014571e337b8c3f8",
        "size_in_bytes": 15294
      },
      {
        "_path": "Lib/site-packages/cryptography/hazmat/backends/openssl/__pycache__/hashes.cpython-37.pyc",
        "path_type": "hardlink",
        "sha256": "ba683511b5346d70337634a6c13d81a7b14a7e6ab07f27642233b3be0db20281",
        "sha256_in_prefix": "ba683511b5346d70337634a6c13d81a7b14a7e6ab07f27642233b3be0db20281",
        "size_in_bytes": 2236
      },
      {
        "_path": "Lib/site-packages/cryptography/hazmat/backends/openssl/__pycache__/hmac.cpython-37.pyc",
        "path_type": "hardlink",
        "sha256": "0664215b5eafa9383c6443e899d9a65277af0e0c3b648d7a0e1e289882d19dc2",
        "sha256_in_prefix": "0664215b5eafa9383c6443e899d9a65277af0e0c3b648d7a0e1e289882d19dc2",
        "size_in_bytes": 2612
      },
      {
        "_path": "Lib/site-packages/cryptography/hazmat/backends/openssl/__pycache__/rsa.cpython-37.pyc",
        "path_type": "hardlink",
        "sha256": "8b92f2507828001794542780b868dbb01920caf5e610db6b4389717c29c1607e",
        "sha256_in_prefix": "8b92f2507828001794542780b868dbb01920caf5e610db6b4389717c29c1607e",
        "size_in_bytes": 12680
      },
      {
        "_path": "Lib/site-packages/cryptography/hazmat/backends/openssl/__pycache__/utils.cpython-37.pyc",
        "path_type": "hardlink",
        "sha256": "f7571eee5d98945950e11af1ebdffdd80f74604f6e0c1b807d875140f6de9d81",
        "sha256_in_prefix": "f7571eee5d98945950e11af1ebdffdd80f74604f6e0c1b807d875140f6de9d81",
        "size_in_bytes": 1409
      },
      {
        "_path": "Lib/site-packages/cryptography/hazmat/backends/openssl/__pycache__/x25519.cpython-37.pyc",
        "path_type": "hardlink",
        "sha256": "f26467db7a3d4540ea95373b4d047bdc2088352d816c4dc6938c212daefaaeac",
        "sha256_in_prefix": "f26467db7a3d4540ea95373b4d047bdc2088352d816c4dc6938c212daefaaeac",
        "size_in_bytes": 2704
      },
      {
        "_path": "Lib/site-packages/cryptography/hazmat/backends/openssl/__pycache__/x509.cpython-37.pyc",
        "path_type": "hardlink",
        "sha256": "306ae02d3fe973a16fa941b6175bde9dc5f5d1c134120d48ba82dffffee2e6a2",
        "sha256_in_prefix": "306ae02d3fe973a16fa941b6175bde9dc5f5d1c134120d48ba82dffffee2e6a2",
        "size_in_bytes": 19174
      },
      {
        "_path": "Lib/site-packages/cryptography/hazmat/backends/openssl/aead.py",
        "path_type": "hardlink",
        "sha256": "3649a66008028c6755328448cc52d5d9191b859d966d5b4d6f90aa2b54e59ca3",
        "sha256_in_prefix": "3649a66008028c6755328448cc52d5d9191b859d966d5b4d6f90aa2b54e59ca3",
        "size_in_bytes": 5581
      },
      {
        "_path": "Lib/site-packages/cryptography/hazmat/backends/openssl/backend.py",
        "path_type": "hardlink",
        "sha256": "838c48732e8e8796873bf50360b236d3a568f2b82134cb0202314d589282a8f6",
        "sha256_in_prefix": "838c48732e8e8796873bf50360b236d3a568f2b82134cb0202314d589282a8f6",
        "size_in_bytes": 75732
      },
      {
        "_path": "Lib/site-packages/cryptography/hazmat/backends/openssl/ciphers.py",
        "path_type": "hardlink",
        "sha256": "c28d40e79542a92ecf47b02a4c8d4bcf785bdb5d10a03a2c8226e980d45cd48f",
        "sha256_in_prefix": "c28d40e79542a92ecf47b02a4c8d4bcf785bdb5d10a03a2c8226e980d45cd48f",
        "size_in_bytes": 8904
      },
      {
        "_path": "Lib/site-packages/cryptography/hazmat/backends/openssl/cmac.py",
        "path_type": "hardlink",
        "sha256": "0322974a1537b4c1c47869479bfb3f48087227092571b5ae162923f483fe6769",
        "sha256_in_prefix": "0322974a1537b4c1c47869479bfb3f48087227092571b5ae162923f483fe6769",
        "size_in_bytes": 2840
      },
      {
        "_path": "Lib/site-packages/cryptography/hazmat/backends/openssl/decode_asn1.py",
        "path_type": "hardlink",
        "sha256": "d95cf525e3ed87eef626757ba2cd95723c6ba97edcc0d8bb585073b2ac7f0ccf",
        "sha256_in_prefix": "d95cf525e3ed87eef626757ba2cd95723c6ba97edcc0d8bb585073b2ac7f0ccf",
        "size_in_bytes": 30975
      },
      {
        "_path": "Lib/site-packages/cryptography/hazmat/backends/openssl/dh.py",
        "path_type": "hardlink",
        "sha256": "9171f42d72ec828ec52cd6a7e95e418a2752df4cd5916370696b9567e9fa5288",
        "sha256_in_prefix": "9171f42d72ec828ec52cd6a7e95e418a2752df4cd5916370696b9567e9fa5288",
        "size_in_bytes": 10814
      },
      {
        "_path": "Lib/site-packages/cryptography/hazmat/backends/openssl/dsa.py",
        "path_type": "hardlink",
        "sha256": "24670d7e8001c8b3ca85f429d10f9e5b63f884e291a2cf3e309de72032b16d61",
        "sha256_in_prefix": "24670d7e8001c8b3ca85f429d10f9e5b63f884e291a2cf3e309de72032b16d61",
        "size_in_bytes": 10278
      },
      {
        "_path": "Lib/site-packages/cryptography/hazmat/backends/openssl/ec.py",
        "path_type": "hardlink",
        "sha256": "8ff0c77cd4c704f4f825c9cfa558d3d521cf33015f71fc217ac7fbf6e411d59f",
        "sha256_in_prefix": "8ff0c77cd4c704f4f825c9cfa558d3d521cf33015f71fc217ac7fbf6e411d59f",
        "size_in_bytes": 10286
      },
      {
        "_path": "Lib/site-packages/cryptography/hazmat/backends/openssl/encode_asn1.py",
        "path_type": "hardlink",
        "sha256": "7dc33933d6e414b394afec2056307cd9ce54f2c95733981bf02e44f6aed96500",
        "sha256_in_prefix": "7dc33933d6e414b394afec2056307cd9ce54f2c95733981bf02e44f6aed96500",
        "size_in_bytes": 22450
      },
      {
        "_path": "Lib/site-packages/cryptography/hazmat/backends/openssl/hashes.py",
        "path_type": "hardlink",
        "sha256": "dfb9f65f25c23be58af4cbecf33927709741787ad1cd32ac5bc10c04211b5a8f",
        "sha256_in_prefix": "dfb9f65f25c23be58af4cbecf33927709741787ad1cd32ac5bc10c04211b5a8f",
        "size_in_bytes": 2532
      },
      {
        "_path": "Lib/site-packages/cryptography/hazmat/backends/openssl/hmac.py",
        "path_type": "hardlink",
        "sha256": "fa25a0755759d55b3af6836f7db04029892f10731440284de3ce2b45a9e18f7c",
        "sha256_in_prefix": "fa25a0755759d55b3af6836f7db04029892f10731440284de3ce2b45a9e18f7c",
        "size_in_bytes": 2958
      },
      {
        "_path": "Lib/site-packages/cryptography/hazmat/backends/openssl/rsa.py",
        "path_type": "hardlink",
        "sha256": "fad2061e80462f4566c5eed9679f06e77a0e0269ee71db48954b0155d0355b02",
        "sha256_in_prefix": "fad2061e80462f4566c5eed9679f06e77a0e0269ee71db48954b0155d0355b02",
        "size_in_bytes": 18099
      },
      {
        "_path": "Lib/site-packages/cryptography/hazmat/backends/openssl/utils.py",
        "path_type": "hardlink",
        "sha256": "59097d497427cae8a08e162c80f5f8a903e5a400154b9bcecc8ac3617f44f844",
        "sha256_in_prefix": "59097d497427cae8a08e162c80f5f8a903e5a400154b9bcecc8ac3617f44f844",
        "size_in_bytes": 1399
      },
      {
        "_path": "Lib/site-packages/cryptography/hazmat/backends/openssl/x25519.py",
        "path_type": "hardlink",
        "sha256": "5d840e1b7e80c56d72d62cb96a7153c568999c88e4e078e402ac35f0864cdaeb",
        "sha256_in_prefix": "5d840e1b7e80c56d72d62cb96a7153c568999c88e4e078e402ac35f0864cdaeb",
        "size_in_bytes": 3064
      },
      {
        "_path": "Lib/site-packages/cryptography/hazmat/backends/openssl/x509.py",
        "path_type": "hardlink",
        "sha256": "d04d2b6f3bfad035c16ee10dece3f7b02a0b27f50c7acad77cae5f216eedfbc8",
        "sha256_in_prefix": "d04d2b6f3bfad035c16ee10dece3f7b02a0b27f50c7acad77cae5f216eedfbc8",
        "size_in_bytes": 18923
      },
      {
        "_path": "Lib/site-packages/cryptography/hazmat/bindings/__init__.py",
        "path_type": "hardlink",
        "sha256": "d301b0d8e17d47b7c75fb35610d0a6aec62281b5c7536a23827f8de11923b3d5",
        "sha256_in_prefix": "d301b0d8e17d47b7c75fb35610d0a6aec62281b5c7536a23827f8de11923b3d5",
        "size_in_bytes": 246
      },
      {
        "_path": "Lib/site-packages/cryptography/hazmat/bindings/__pycache__/__init__.cpython-37.pyc",
        "path_type": "hardlink",
        "sha256": "6938780b28819722fbc70a858c1c65cd9befaff33ee2d76565275933ad88bf03",
        "sha256_in_prefix": "6938780b28819722fbc70a858c1c65cd9befaff33ee2d76565275933ad88bf03",
        "size_in_bytes": 239
      },
      {
        "_path": "Lib/site-packages/cryptography/hazmat/bindings/_constant_time.cp37-win_amd64.pyd",
        "path_type": "hardlink",
        "sha256": "132e77cf36184afd334a7a1ba141107b98767d161bbe636b37996adcc0f0f17d",
        "sha256_in_prefix": "132e77cf36184afd334a7a1ba141107b98767d161bbe636b37996adcc0f0f17d",
        "size_in_bytes": 13312
      },
      {
        "_path": "Lib/site-packages/cryptography/hazmat/bindings/_openssl.cp37-win_amd64.pyd",
        "path_type": "hardlink",
        "sha256": "b0f5678441f935ca85f868da829c4c9665e1a9a2eade3c08a53489a6deab4785",
        "sha256_in_prefix": "b0f5678441f935ca85f868da829c4c9665e1a9a2eade3c08a53489a6deab4785",
        "size_in_bytes": 647680
      },
      {
        "_path": "Lib/site-packages/cryptography/hazmat/bindings/_padding.cp37-win_amd64.pyd",
        "path_type": "hardlink",
        "sha256": "df9f748f7ef8c84f1dc41addc6be61952d60e333854c91721951dd3a8eb113d8",
        "sha256_in_prefix": "df9f748f7ef8c84f1dc41addc6be61952d60e333854c91721951dd3a8eb113d8",
        "size_in_bytes": 13312
      },
      {
        "_path": "Lib/site-packages/cryptography/hazmat/bindings/openssl/__init__.py",
        "path_type": "hardlink",
        "sha256": "d301b0d8e17d47b7c75fb35610d0a6aec62281b5c7536a23827f8de11923b3d5",
        "sha256_in_prefix": "d301b0d8e17d47b7c75fb35610d0a6aec62281b5c7536a23827f8de11923b3d5",
        "size_in_bytes": 246
      },
      {
        "_path": "Lib/site-packages/cryptography/hazmat/bindings/openssl/__pycache__/__init__.cpython-37.pyc",
        "path_type": "hardlink",
        "sha256": "d932d7d6bad8eba718b3a27b313577a4d3f43fea51ce2946af912c98453d9ebe",
        "sha256_in_prefix": "d932d7d6bad8eba718b3a27b313577a4d3f43fea51ce2946af912c98453d9ebe",
        "size_in_bytes": 247
      },
      {
        "_path": "Lib/site-packages/cryptography/hazmat/bindings/openssl/__pycache__/_conditional.cpython-37.pyc",
        "path_type": "hardlink",
        "sha256": "77c0a7865f58bdd0bc20713671ecf14e031f0826bbb35d1b4ce398a09369ff3d",
        "sha256_in_prefix": "77c0a7865f58bdd0bc20713671ecf14e031f0826bbb35d1b4ce398a09369ff3d",
        "size_in_bytes": 7532
      },
      {
        "_path": "Lib/site-packages/cryptography/hazmat/bindings/openssl/__pycache__/binding.cpython-37.pyc",
        "path_type": "hardlink",
        "sha256": "28e714603adb4639d72b283dbd64e702597c85e4880b981392eaa15ca8ebe60f",
        "sha256_in_prefix": "28e714603adb4639d72b283dbd64e702597c85e4880b981392eaa15ca8ebe60f",
        "size_in_bytes": 4341
      },
      {
        "_path": "Lib/site-packages/cryptography/hazmat/bindings/openssl/_conditional.py",
        "path_type": "hardlink",
        "sha256": "a3b713f291a3fb6ac1ed837e114189361b3b0de148af9f0037787d30ae6e5a8d",
        "sha256_in_prefix": "a3b713f291a3fb6ac1ed837e114189361b3b0de148af9f0037787d30ae6e5a8d",
        "size_in_bytes": 7692
      },
      {
        "_path": "Lib/site-packages/cryptography/hazmat/bindings/openssl/binding.py",
        "path_type": "hardlink",
        "sha256": "a6064d143971de02c7a2bcf86471d4b40f8b1101a2d5d6d8506ed643af2d9e9d",
        "sha256_in_prefix": "a6064d143971de02c7a2bcf86471d4b40f8b1101a2d5d6d8506ed643af2d9e9d",
        "size_in_bytes": 5496
      },
      {
        "_path": "Lib/site-packages/cryptography/hazmat/primitives/__init__.py",
        "path_type": "hardlink",
        "sha256": "d301b0d8e17d47b7c75fb35610d0a6aec62281b5c7536a23827f8de11923b3d5",
        "sha256_in_prefix": "d301b0d8e17d47b7c75fb35610d0a6aec62281b5c7536a23827f8de11923b3d5",
        "size_in_bytes": 246
      },
      {
        "_path": "Lib/site-packages/cryptography/hazmat/primitives/__pycache__/__init__.cpython-37.pyc",
        "path_type": "hardlink",
        "sha256": "230c622b59a2c127a44df029979e308b57e43295675fab094bde9a6c9bffb77a",
        "sha256_in_prefix": "230c622b59a2c127a44df029979e308b57e43295675fab094bde9a6c9bffb77a",
        "size_in_bytes": 241
      },
      {
        "_path": "Lib/site-packages/cryptography/hazmat/primitives/__pycache__/cmac.cpython-37.pyc",
        "path_type": "hardlink",
        "sha256": "707b4bb5086639418d5bb5832d4209ec91a4efbed462b368e28b06a0757537bf",
        "sha256_in_prefix": "707b4bb5086639418d5bb5832d4209ec91a4efbed462b368e28b06a0757537bf",
        "size_in_bytes": 2177
      },
      {
        "_path": "Lib/site-packages/cryptography/hazmat/primitives/__pycache__/constant_time.cpython-37.pyc",
        "path_type": "hardlink",
        "sha256": "45521d0f74a287716b5bfd197bfd355c037eee91efca1308dacea83550f5ad35",
        "sha256_in_prefix": "45521d0f74a287716b5bfd197bfd355c037eee91efca1308dacea83550f5ad35",
        "size_in_bytes": 1109
      },
      {
        "_path": "Lib/site-packages/cryptography/hazmat/primitives/__pycache__/hashes.cpython-37.pyc",
        "path_type": "hardlink",
        "sha256": "09f33a90bfdcb6625dc857dcaeb10769b552f28cffb14817edc4fe8b91569009",
        "sha256_in_prefix": "09f33a90bfdcb6625dc857dcaeb10769b552f28cffb14817edc4fe8b91569009",
        "size_in_bytes": 5501
      },
      {
        "_path": "Lib/site-packages/cryptography/hazmat/primitives/__pycache__/hmac.cpython-37.pyc",
        "path_type": "hardlink",
        "sha256": "7bb09ef297b822da71bd8b35af2f239d6980f049d8087b8b8748c3351fc46365",
        "sha256_in_prefix": "7bb09ef297b822da71bd8b35af2f239d6980f049d8087b8b8748c3351fc46365",
        "size_in_bytes": 2278
      },
      {
        "_path": "Lib/site-packages/cryptography/hazmat/primitives/__pycache__/keywrap.cpython-37.pyc",
        "path_type": "hardlink",
        "sha256": "37937b7fa7ea96662e9bdb831c401eb459d847ae0aca1d2f7b489150e38071a8",
        "sha256_in_prefix": "37937b7fa7ea96662e9bdb831c401eb459d847ae0aca1d2f7b489150e38071a8",
        "size_in_bytes": 4599
      },
      {
        "_path": "Lib/site-packages/cryptography/hazmat/primitives/__pycache__/mac.cpython-37.pyc",
        "path_type": "hardlink",
        "sha256": "8d1f7a04bda3ed70c1c37eabe56e1fbe8501b937ab5e65f80903d67d0cf904e4",
        "sha256_in_prefix": "8d1f7a04bda3ed70c1c37eabe56e1fbe8501b937ab5e65f80903d67d0cf904e4",
        "size_in_bytes": 1278
      },
      {
        "_path": "Lib/site-packages/cryptography/hazmat/primitives/__pycache__/padding.cpython-37.pyc",
        "path_type": "hardlink",
        "sha256": "3517139f115d70ec2bdb302044aca8af673dddc531886025a967e9197d758763",
        "sha256_in_prefix": "3517139f115d70ec2bdb302044aca8af673dddc531886025a967e9197d758763",
        "size_in_bytes": 6711
      },
      {
        "_path": "Lib/site-packages/cryptography/hazmat/primitives/__pycache__/serialization.cpython-37.pyc",
        "path_type": "hardlink",
        "sha256": "bf1130bae3c104976b1180bf622087d4c8b209d8cfbcfe7293c73728d0d31919",
        "sha256_in_prefix": "bf1130bae3c104976b1180bf622087d4c8b209d8cfbcfe7293c73728d0d31919",
        "size_in_bytes": 6082
      },
      {
        "_path": "Lib/site-packages/cryptography/hazmat/primitives/asymmetric/__init__.py",
        "path_type": "hardlink",
        "sha256": "5a1527ded1b1a0b031180b191c4949d9a3882d74a1e790198b4e0c06e7589900",
        "sha256_in_prefix": "5a1527ded1b1a0b031180b191c4949d9a3882d74a1e790198b4e0c06e7589900",
        "size_in_bytes": 1020
      },
      {
        "_path": "Lib/site-packages/cryptography/hazmat/primitives/asymmetric/__pycache__/__init__.cpython-37.pyc",
        "path_type": "hardlink",
        "sha256": "618588c76ff64f9885b81a4e7abc84ca419b59785966e982347b11ecdc2a97e3",
        "sha256_in_prefix": "618588c76ff64f9885b81a4e7abc84ca419b59785966e982347b11ecdc2a97e3",
        "size_in_bytes": 1595
      },
      {
        "_path": "Lib/site-packages/cryptography/hazmat/primitives/asymmetric/__pycache__/dh.cpython-37.pyc",
        "path_type": "hardlink",
        "sha256": "bed637217b6e4b67dce5be0639eb1f03d7c2cd255d9e23f2031ef3b3475e2227",
        "sha256_in_prefix": "bed637217b6e4b67dce5be0639eb1f03d7c2cd255d9e23f2031ef3b3475e2227",
        "size_in_bytes": 7021
      },
      {
        "_path": "Lib/site-packages/cryptography/hazmat/primitives/asymmetric/__pycache__/dsa.cpython-37.pyc",
        "path_type": "hardlink",
        "sha256": "f7cca9fe976a990251364eb85986d3cca2476700a561d61024f60657db87ea50",
        "sha256_in_prefix": "f7cca9fe976a990251364eb85986d3cca2476700a561d61024f60657db87ea50",
        "size_in_bytes": 8794
      },
      {
        "_path": "Lib/site-packages/cryptography/hazmat/primitives/asymmetric/__pycache__/ec.cpython-37.pyc",
        "path_type": "hardlink",
        "sha256": "9bbfccfb4ab12265b065f56de7e03c01dc08469e69dcf3e5d533ffac14cdfb32",
        "sha256_in_prefix": "9bbfccfb4ab12265b065f56de7e03c01dc08469e69dcf3e5d533ffac14cdfb32",
        "size_in_bytes": 13218
      },
      {
        "_path": "Lib/site-packages/cryptography/hazmat/primitives/asymmetric/__pycache__/padding.cpython-37.pyc",
        "path_type": "hardlink",
        "sha256": "463e925a5641aa2b605534d775ef906ba06a4f72e5fc1242c1596adc7938a056",
        "sha256_in_prefix": "463e925a5641aa2b605534d775ef906ba06a4f72e5fc1242c1596adc7938a056",
        "size_in_bytes": 2805
      },
      {
        "_path": "Lib/site-packages/cryptography/hazmat/primitives/asymmetric/__pycache__/rsa.cpython-37.pyc",
        "path_type": "hardlink",
        "sha256": "6811cfcd057dc798608b5f15c7dd6bb7c2562f9bb9816fdaaa82264404015750",
        "sha256_in_prefix": "6811cfcd057dc798608b5f15c7dd6bb7c2562f9bb9816fdaaa82264404015750",
        "size_in_bytes": 10155
      },
      {
        "_path": "Lib/site-packages/cryptography/hazmat/primitives/asymmetric/__pycache__/utils.cpython-37.pyc",
        "path_type": "hardlink",
        "sha256": "b955133c5926f8aff54f2b7b5fba75a9ef54773eaac71b06359d4e3d5c1b3c7d",
        "sha256_in_prefix": "b955133c5926f8aff54f2b7b5fba75a9ef54773eaac71b06359d4e3d5c1b3c7d",
        "size_in_bytes": 2003
      },
      {
        "_path": "Lib/site-packages/cryptography/hazmat/primitives/asymmetric/__pycache__/x25519.cpython-37.pyc",
        "path_type": "hardlink",
        "sha256": "252f84544682e08092ecd883111f9d1d0c1bdcc6df5db1804593cc0482bd454b",
        "sha256_in_prefix": "252f84544682e08092ecd883111f9d1d0c1bdcc6df5db1804593cc0482bd454b",
        "size_in_bytes": 2110
      },
      {
        "_path": "Lib/site-packages/cryptography/hazmat/primitives/asymmetric/dh.py",
        "path_type": "hardlink",
        "sha256": "e97974d5b8d354714271d26bdcf876710ee1c6461879daa6f927a4669c679ed6",
        "sha256_in_prefix": "e97974d5b8d354714271d26bdcf876710ee1c6461879daa6f927a4669c679ed6",
        "size_in_bytes": 5454
      },
      {
        "_path": "Lib/site-packages/cryptography/hazmat/primitives/asymmetric/dsa.py",
        "path_type": "hardlink",
        "sha256": "bb32bbaa97b406da8792054b4ab346b6c91ad70dc949437fb99a7a5c00392cc6",
        "sha256_in_prefix": "bb32bbaa97b406da8792054b4ab346b6c91ad70dc949437fb99a7a5c00392cc6",
        "size_in_bytes": 6891
      },
      {
        "_path": "Lib/site-packages/cryptography/hazmat/primitives/asymmetric/ec.py",
        "path_type": "hardlink",
        "sha256": "f5dda556c6229c4fefed73c7a1f365e43779e6e0a0a6ce1839c80e13cfdb6db3",
        "sha256_in_prefix": "f5dda556c6229c4fefed73c7a1f365e43779e6e0a0a6ce1839c80e13cfdb6db3",
        "size_in_bytes": 10305
      },
      {
        "_path": "Lib/site-packages/cryptography/hazmat/primitives/asymmetric/padding.py",
        "path_type": "hardlink",
        "sha256": "68265ab54e7eabf596e6f6b305678a3c5f1965ad0023c856cdb25a5513774562",
        "sha256_in_prefix": "68265ab54e7eabf596e6f6b305678a3c5f1965ad0023c856cdb25a5513774562",
        "size_in_bytes": 2261
      },
      {
        "_path": "Lib/site-packages/cryptography/hazmat/primitives/asymmetric/rsa.py",
        "path_type": "hardlink",
        "sha256": "57b30a2b6f41a4d185d9fdee584b371cf61b1ae2f762d0c5ba3be3150ae57b44",
        "sha256_in_prefix": "57b30a2b6f41a4d185d9fdee584b371cf61b1ae2f762d0c5ba3be3150ae57b44",
        "size_in_bytes": 10317
      },
      {
        "_path": "Lib/site-packages/cryptography/hazmat/primitives/asymmetric/utils.py",
        "path_type": "hardlink",
        "sha256": "c7b6dc5f72ffc0b919a9d70e7d474323bd1276f512acfa252efffa911b456a39",
        "sha256_in_prefix": "c7b6dc5f72ffc0b919a9d70e7d474323bd1276f512acfa252efffa911b456a39",
        "size_in_bytes": 1720
      },
      {
        "_path": "Lib/site-packages/cryptography/hazmat/primitives/asymmetric/x25519.py",
        "path_type": "hardlink",
        "sha256": "7f84e27f5fecaa64d10bdb81c99d9e89b8a32396871591944358e0406e5baa6a",
        "sha256_in_prefix": "7f84e27f5fecaa64d10bdb81c99d9e89b8a32396871591944358e0406e5baa6a",
        "size_in_bytes": 1652
      },
      {
        "_path": "Lib/site-packages/cryptography/hazmat/primitives/ciphers/__init__.py",
        "path_type": "hardlink",
        "sha256": "4316b17a37857f3e823e123573888dabfec3b22078d58fd0fae2dfccec7b7eff",
        "sha256_in_prefix": "4316b17a37857f3e823e123573888dabfec3b22078d58fd0fae2dfccec7b7eff",
        "size_in_bytes": 626
      },
      {
        "_path": "Lib/site-packages/cryptography/hazmat/primitives/ciphers/__pycache__/__init__.cpython-37.pyc",
        "path_type": "hardlink",
        "sha256": "fd49473ea42bd6180d80999ebc7b6d281d70f7948d1f740e73a202481bf3edd2",
        "sha256_in_prefix": "fd49473ea42bd6180d80999ebc7b6d281d70f7948d1f740e73a202481bf3edd2",
        "size_in_bytes": 572
      },
      {
        "_path": "Lib/site-packages/cryptography/hazmat/primitives/ciphers/__pycache__/aead.cpython-37.pyc",
        "path_type": "hardlink",
        "sha256": "fb608befbf33ca110d32306e0eb7de7759967dad93fcb5cbdefc6b92608ff91c",
        "sha256_in_prefix": "fb608befbf33ca110d32306e0eb7de7759967dad93fcb5cbdefc6b92608ff91c",
        "size_in_bytes": 5639
      },
      {
        "_path": "Lib/site-packages/cryptography/hazmat/primitives/ciphers/__pycache__/algorithms.cpython-37.pyc",
        "path_type": "hardlink",
        "sha256": "8b9ff50e0d4af1ff3ad126970840f8b75bf58c52c6a885b4103e2c7bc8eb94a2",
        "sha256_in_prefix": "8b9ff50e0d4af1ff3ad126970840f8b75bf58c52c6a885b4103e2c7bc8eb94a2",
        "size_in_bytes": 5518
      },
      {
        "_path": "Lib/site-packages/cryptography/hazmat/primitives/ciphers/__pycache__/base.cpython-37.pyc",
        "path_type": "hardlink",
        "sha256": "f71244627192a6cc233cd8b9f35620e38bcd1672f826ae37db929cb873178374",
        "sha256_in_prefix": "f71244627192a6cc233cd8b9f35620e38bcd1672f826ae37db929cb873178374",
        "size_in_bytes": 8477
      },
      {
        "_path": "Lib/site-packages/cryptography/hazmat/primitives/ciphers/__pycache__/modes.cpython-37.pyc",
        "path_type": "hardlink",
        "sha256": "61b507141e232cddf43ebfa5aff773012e8cce8b79422ee1aa578ab44b7b27e9",
        "sha256_in_prefix": "61b507141e232cddf43ebfa5aff773012e8cce8b79422ee1aa578ab44b7b27e9",
        "size_in_bytes": 7289
      },
      {
        "_path": "Lib/site-packages/cryptography/hazmat/primitives/ciphers/aead.py",
        "path_type": "hardlink",
        "sha256": "61bbb93d977ee383a0732255b3ad7ecc9ff31fd3d429172411800f71d52a5fbc",
        "sha256_in_prefix": "61bbb93d977ee383a0732255b3ad7ecc9ff31fd3d429172411800f71d52a5fbc",
        "size_in_bytes": 6409
      },
      {
        "_path": "Lib/site-packages/cryptography/hazmat/primitives/ciphers/algorithms.py",
        "path_type": "hardlink",
        "sha256": "6a424588f7700d3d4e308ca194c59b095aacd24b5a073139978753da21be2c97",
        "sha256_in_prefix": "6a424588f7700d3d4e308ca194c59b095aacd24b5a073139978753da21be2c97",
        "size_in_bytes": 4233
      },
      {
        "_path": "Lib/site-packages/cryptography/hazmat/primitives/ciphers/base.py",
        "path_type": "hardlink",
        "sha256": "28e313888efe4cf7fd10db3fd081ee67f901907cf5c2299d0c6ff191f6dd9c06",
        "sha256_in_prefix": "28e313888efe4cf7fd10db3fd081ee67f901907cf5c2299d0c6ff191f6dd9c06",
        "size_in_bytes": 7148
      },
      {
        "_path": "Lib/site-packages/cryptography/hazmat/primitives/ciphers/modes.py",
        "path_type": "hardlink",
        "sha256": "5a2a4fec9b48a2055aaee82ec71363d05522ec6223815d5cad6ff26e296c4c5f",
        "sha256_in_prefix": "5a2a4fec9b48a2055aaee82ec71363d05522ec6223815d5cad6ff26e296c4c5f",
        "size_in_bytes": 7027
      },
      {
        "_path": "Lib/site-packages/cryptography/hazmat/primitives/cmac.py",
        "path_type": "hardlink",
        "sha256": "8d7bffeca99a09e9362cd3806d75e9d1bcc0dccb6ce9f7ffa160459c555796ea",
        "sha256_in_prefix": "8d7bffeca99a09e9362cd3806d75e9d1bcc0dccb6ce9f7ffa160459c555796ea",
        "size_in_bytes": 2221
      },
      {
        "_path": "Lib/site-packages/cryptography/hazmat/primitives/constant_time.py",
        "path_type": "hardlink",
        "sha256": "dbe3af76f1b4aef6914f44a9b79be2e6b9aa054258cfcf55b8adf67264b618d0",
        "sha256_in_prefix": "dbe3af76f1b4aef6914f44a9b79be2e6b9aa054258cfcf55b8adf67264b618d0",
        "size_in_bytes": 1124
      },
      {
        "_path": "Lib/site-packages/cryptography/hazmat/primitives/hashes.py",
        "path_type": "hardlink",
        "sha256": "34a842b4da526d230b623a3b9908db40b4c1450174c0bdc74d8f81a894aa412f",
        "sha256_in_prefix": "34a842b4da526d230b623a3b9908db40b4c1450174c0bdc74d8f81a894aa412f",
        "size_in_bytes": 4676
      },
      {
        "_path": "Lib/site-packages/cryptography/hazmat/primitives/hmac.py",
        "path_type": "hardlink",
        "sha256": "f3cb0d807dfeb7a90a54020bb31d52be31c1958bb3ebf8b7e212dfd99e54f38b",
        "sha256_in_prefix": "f3cb0d807dfeb7a90a54020bb31d52be31c1958bb3ebf8b7e212dfd99e54f38b",
        "size_in_bytes": 2339
      },
      {
        "_path": "Lib/site-packages/cryptography/hazmat/primitives/kdf/__init__.py",
        "path_type": "hardlink",
        "sha256": "9e87791e33ecc2366bf30169e93b2ee9e9fd6e51d8177921817239474cc87273",
        "sha256_in_prefix": "9e87791e33ecc2366bf30169e93b2ee9e9fd6e51d8177921817239474cc87273",
        "size_in_bytes": 771
      },
      {
        "_path": "Lib/site-packages/cryptography/hazmat/primitives/kdf/__pycache__/__init__.cpython-37.pyc",
        "path_type": "hardlink",
        "sha256": "4f6a566bb741ba4f4bb97d1c09284e880c78b5880e804991007edb25d562cf6f",
        "sha256_in_prefix": "4f6a566bb741ba4f4bb97d1c09284e880c78b5880e804991007edb25d562cf6f",
        "size_in_bytes": 1069
      },
      {
        "_path": "Lib/site-packages/cryptography/hazmat/primitives/kdf/__pycache__/concatkdf.cpython-37.pyc",
        "path_type": "hardlink",
        "sha256": "b18d1ff92f47d78bdc21e4f7c2a4438495b99aa0f0cd1da607a494a98cf4f66e",
        "sha256_in_prefix": "b18d1ff92f47d78bdc21e4f7c2a4438495b99aa0f0cd1da607a494a98cf4f66e",
        "size_in_bytes": 3869
      },
      {
        "_path": "Lib/site-packages/cryptography/hazmat/primitives/kdf/__pycache__/hkdf.cpython-37.pyc",
        "path_type": "hardlink",
        "sha256": "2c66b319242504c6d1baf5cc042c985d7edafa6872461c306758343f6d2d5a5c",
        "sha256_in_prefix": "2c66b319242504c6d1baf5cc042c985d7edafa6872461c306758343f6d2d5a5c",
        "size_in_bytes": 3375
      },
      {
        "_path": "Lib/site-packages/cryptography/hazmat/primitives/kdf/__pycache__/kbkdf.cpython-37.pyc",
        "path_type": "hardlink",
        "sha256": "082c58eb400c4f2fc63365649a10a2d400311ceb37b68ce0a29124509f6e8fb4",
        "sha256_in_prefix": "082c58eb400c4f2fc63365649a10a2d400311ceb37b68ce0a29124509f6e8fb4",
        "size_in_bytes": 4004
      },
      {
        "_path": "Lib/site-packages/cryptography/hazmat/primitives/kdf/__pycache__/pbkdf2.cpython-37.pyc",
        "path_type": "hardlink",
        "sha256": "e151c18fda1ec87123041426fa63ec1410915607939e4725ec8c36228c24a817",
        "sha256_in_prefix": "e151c18fda1ec87123041426fa63ec1410915607939e4725ec8c36228c24a817",
        "size_in_bytes": 2020
      },
      {
        "_path": "Lib/site-packages/cryptography/hazmat/primitives/kdf/__pycache__/scrypt.cpython-37.pyc",
        "path_type": "hardlink",
        "sha256": "d038c3f4ceff460dadbf2f32f5a6084a596fd49e49676c3c97f46c09851a8e59",
        "sha256_in_prefix": "d038c3f4ceff460dadbf2f32f5a6084a596fd49e49676c3c97f46c09851a8e59",
        "size_in_bytes": 2109
      },
      {
        "_path": "Lib/site-packages/cryptography/hazmat/primitives/kdf/__pycache__/x963kdf.cpython-37.pyc",
        "path_type": "hardlink",
        "sha256": "7594a15132790fa5365a34464864cee3f6915b25bd7025c7b01cdb82555f686f",
        "sha256_in_prefix": "7594a15132790fa5365a34464864cee3f6915b25bd7025c7b01cdb82555f686f",
        "size_in_bytes": 2264
      },
      {
        "_path": "Lib/site-packages/cryptography/hazmat/primitives/kdf/concatkdf.py",
        "path_type": "hardlink",
        "sha256": "593a285930241d40ad68c014a2e025b8d6e0ef5a97c4f8ff0072f2b919cf0d1f",
        "sha256_in_prefix": "593a285930241d40ad68c014a2e025b8d6e0ef5a97c4f8ff0072f2b919cf0d1f",
        "size_in_bytes": 4109
      },
      {
        "_path": "Lib/site-packages/cryptography/hazmat/primitives/kdf/hkdf.py",
        "path_type": "hardlink",
        "sha256": "4a500a14a152ea3a3091f3bcc0cbb6ef06b6ebc44f7a461542979dab66f78899",
        "sha256_in_prefix": "4a500a14a152ea3a3091f3bcc0cbb6ef06b6ebc44f7a461542979dab66f78899",
        "size_in_bytes": 3660
      },
      {
        "_path": "Lib/site-packages/cryptography/hazmat/primitives/kdf/kbkdf.py",
        "path_type": "hardlink",
        "sha256": "4afb80aabbf56594fe006fa98a64d7647e13b4fe36e77e6d5da41ba1c905abfd",
        "sha256_in_prefix": "4afb80aabbf56594fe006fa98a64d7647e13b4fe36e77e6d5da41ba1c905abfd",
        "size_in_bytes": 5025
      },
      {
        "_path": "Lib/site-packages/cryptography/hazmat/primitives/kdf/pbkdf2.py",
        "path_type": "hardlink",
        "sha256": "62214d0c8e026c6447d0e4170cc5c6f037d86a9df6bed8ef03e668fa7fe8004e",
        "sha256_in_prefix": "62214d0c8e026c6447d0e4170cc5c6f037d86a9df6bed8ef03e668fa7fe8004e",
        "size_in_bytes": 2185
      },
      {
        "_path": "Lib/site-packages/cryptography/hazmat/primitives/kdf/scrypt.py",
        "path_type": "hardlink",
        "sha256": "699564605c3d5ea3c22278c069d9f39587cfc377e2d823860deeee6ee62345e8",
        "sha256_in_prefix": "699564605c3d5ea3c22278c069d9f39587cfc377e2d823860deeee6ee62345e8",
        "size_in_bytes": 2252
      },
      {
        "_path": "Lib/site-packages/cryptography/hazmat/primitives/kdf/x963kdf.py",
        "path_type": "hardlink",
        "sha256": "c8e2b6a809564c7001548bf04f9e6397f07a511e442f22c595c56d1f5e87c467",
        "sha256_in_prefix": "c8e2b6a809564c7001548bf04f9e6397f07a511e442f22c595c56d1f5e87c467",
        "size_in_bytes": 2363
      },
      {
        "_path": "Lib/site-packages/cryptography/hazmat/primitives/keywrap.py",
        "path_type": "hardlink",
        "sha256": "2ea8e4548b3bb9be48e60c266126fd21ad1575732a5961e69ca49d43b1ce1840",
        "sha256_in_prefix": "2ea8e4548b3bb9be48e60c266126fd21ad1575732a5961e69ca49d43b1ce1840",
        "size_in_bytes": 5462
      },
      {
        "_path": "Lib/site-packages/cryptography/hazmat/primitives/mac.py",
        "path_type": "hardlink",
        "sha256": "7602e837a3dd03f42aa30c01fd1cd2784a898c83e702a4d44f18a8fbc0853fef",
        "sha256_in_prefix": "7602e837a3dd03f42aa30c01fd1cd2784a898c83e702a4d44f18a8fbc0853fef",
        "size_in_bytes": 884
      },
      {
        "_path": "Lib/site-packages/cryptography/hazmat/primitives/padding.py",
        "path_type": "hardlink",
        "sha256": "8e8085330548f0c9c74fbe467146889e8c75ad878baa37780ed64b1018580656",
        "sha256_in_prefix": "8e8085330548f0c9c74fbe467146889e8c75ad878baa37780ed64b1018580656",
        "size_in_bytes": 5736
      },
      {
        "_path": "Lib/site-packages/cryptography/hazmat/primitives/serialization.py",
        "path_type": "hardlink",
        "sha256": "ab403ad6a7a96357028c0ac29991dd11d7ada069684784b3cd0f8869a747f310",
        "sha256_in_prefix": "ab403ad6a7a96357028c0ac29991dd11d7ada069684784b3cd0f8869a747f310",
        "size_in_bytes": 5513
      },
      {
        "_path": "Lib/site-packages/cryptography/hazmat/primitives/twofactor/__init__.py",
        "path_type": "hardlink",
        "sha256": "056ae6dc3283a006b6f3513b53f9f3cfcbf8e0e9808979a523270572c7a1c1f1",
        "sha256_in_prefix": "056ae6dc3283a006b6f3513b53f9f3cfcbf8e0e9808979a523270572c7a1c1f1",
        "size_in_bytes": 288
      },
      {
        "_path": "Lib/site-packages/cryptography/hazmat/primitives/twofactor/__pycache__/__init__.cpython-37.pyc",
        "path_type": "hardlink",
        "sha256": "f51f047d28b86c43e60c97079327717d0375e684fb8b0ef8274dea0c48445e7b",
        "sha256_in_prefix": "f51f047d28b86c43e60c97079327717d0375e684fb8b0ef8274dea0c48445e7b",
        "size_in_bytes": 419
      },
      {
        "_path": "Lib/site-packages/cryptography/hazmat/primitives/twofactor/__pycache__/hotp.cpython-37.pyc",
        "path_type": "hardlink",
        "sha256": "8bd7d0e6b9b89afa52f4b95fd6fdf407503b9142da729eacab7bf8d66e52ee89",
        "sha256_in_prefix": "8bd7d0e6b9b89afa52f4b95fd6fdf407503b9142da729eacab7bf8d66e52ee89",
        "size_in_bytes": 2687
      },
      {
        "_path": "Lib/site-packages/cryptography/hazmat/primitives/twofactor/__pycache__/totp.cpython-37.pyc",
        "path_type": "hardlink",
        "sha256": "a95e64942c48e45f510cd8c8d77e67d5386ffd30026c989ff6881be22e46fe64",
        "sha256_in_prefix": "a95e64942c48e45f510cd8c8d77e67d5386ffd30026c989ff6881be22e46fe64",
        "size_in_bytes": 1815
      },
      {
        "_path": "Lib/site-packages/cryptography/hazmat/primitives/twofactor/__pycache__/utils.cpython-37.pyc",
        "path_type": "hardlink",
        "sha256": "9bea6468e6d26ca133d21d51714c92015ee58df97cdd30cd9df28191b436c75f",
        "sha256_in_prefix": "9bea6468e6d26ca133d21d51714c92015ee58df97cdd30cd9df28191b436c75f",
        "size_in_bytes": 847
      },
      {
        "_path": "Lib/site-packages/cryptography/hazmat/primitives/twofactor/hotp.py",
        "path_type": "hardlink",
        "sha256": "ebf1272a5fb346cd32097b87c5086cd931241daa6b5b16677c91ab423b394488",
        "sha256_in_prefix": "ebf1272a5fb346cd32097b87c5086cd931241daa6b5b16677c91ab423b394488",
        "size_in_bytes": 2589
      },
      {
        "_path": "Lib/site-packages/cryptography/hazmat/primitives/twofactor/totp.py",
        "path_type": "hardlink",
        "sha256": "28bdc0e1b8e9a9aab29d061df617cf564bece6f615a9fd49569b9c117eff75d3",
        "sha256_in_prefix": "28bdc0e1b8e9a9aab29d061df617cf564bece6f615a9fd49569b9c117eff75d3",
        "size_in_bytes": 1594
      },
      {
        "_path": "Lib/site-packages/cryptography/hazmat/primitives/twofactor/utils.py",
        "path_type": "hardlink",
        "sha256": "ef5817d5b25e3fd4d06be1db48fcde514270558efc00b61036fbaeb249d43b85",
        "sha256_in_prefix": "ef5817d5b25e3fd4d06be1db48fcde514270558efc00b61036fbaeb249d43b85",
        "size_in_bytes": 954
      },
      {
        "_path": "Lib/site-packages/cryptography/utils.py",
        "path_type": "hardlink",
        "sha256": "52ec928fda0ea1308ce0d2948d291e2c22adf695721bc0b18bf6606943791eb9",
        "sha256_in_prefix": "52ec928fda0ea1308ce0d2948d291e2c22adf695721bc0b18bf6606943791eb9",
        "size_in_bytes": 4798
      },
      {
        "_path": "Lib/site-packages/cryptography/x509/__init__.py",
        "path_type": "hardlink",
        "sha256": "28030a09174c5c3a211cab3d1a80ed010acebe23995d7c1dfe5b774ef7198824",
        "sha256_in_prefix": "28030a09174c5c3a211cab3d1a80ed010acebe23995d7c1dfe5b774ef7198824",
        "size_in_bytes": 7179
      },
      {
        "_path": "Lib/site-packages/cryptography/x509/__pycache__/__init__.cpython-37.pyc",
        "path_type": "hardlink",
        "sha256": "0d50a9681889458fcf40e4b5a508f95f8abc6d0b9b6a04ff5a8d016b6bf7f5d8",
        "sha256_in_prefix": "0d50a9681889458fcf40e4b5a508f95f8abc6d0b9b6a04ff5a8d016b6bf7f5d8",
        "size_in_bytes": 6119
      },
      {
        "_path": "Lib/site-packages/cryptography/x509/__pycache__/base.cpython-37.pyc",
        "path_type": "hardlink",
        "sha256": "bfc3e742f6614eeca8d7f72f449e193ce8253eab95bb8509d96d0b63dcb674c8",
        "sha256_in_prefix": "bfc3e742f6614eeca8d7f72f449e193ce8253eab95bb8509d96d0b63dcb674c8",
        "size_in_bytes": 23916
      },
      {
        "_path": "Lib/site-packages/cryptography/x509/__pycache__/certificate_transparency.cpython-37.pyc",
        "path_type": "hardlink",
        "sha256": "348c36a310a8e315158422235a5bdd1bc49be9badd00dadfb3f6dcc9cd1cd9f7",
        "sha256_in_prefix": "348c36a310a8e315158422235a5bdd1bc49be9badd00dadfb3f6dcc9cd1cd9f7",
        "size_in_bytes": 1703
      },
      {
        "_path": "Lib/site-packages/cryptography/x509/__pycache__/extensions.cpython-37.pyc",
        "path_type": "hardlink",
        "sha256": "88d62c681bd878cf177f64aceb1bda198c6347a0b72169a1013dbaddcb227769",
        "sha256_in_prefix": "88d62c681bd878cf177f64aceb1bda198c6347a0b72169a1013dbaddcb227769",
        "size_in_bytes": 48995
      },
      {
        "_path": "Lib/site-packages/cryptography/x509/__pycache__/general_name.cpython-37.pyc",
        "path_type": "hardlink",
        "sha256": "043243bd53848c60dfd4a0441e9a8474f64949fba44e9f67d33dd7afd2e5504a",
        "sha256_in_prefix": "043243bd53848c60dfd4a0441e9a8474f64949fba44e9f67d33dd7afd2e5504a",
        "size_in_bytes": 11133
      },
      {
        "_path": "Lib/site-packages/cryptography/x509/__pycache__/name.cpython-37.pyc",
        "path_type": "hardlink",
        "sha256": "df04a46e080a8d64d30d378e1bf0b290b47a48a8c2e5d20a128e16b48ce3ad16",
        "sha256_in_prefix": "df04a46e080a8d64d30d378e1bf0b290b47a48a8c2e5d20a128e16b48ce3ad16",
        "size_in_bytes": 7095
      },
      {
        "_path": "Lib/site-packages/cryptography/x509/__pycache__/oid.cpython-37.pyc",
        "path_type": "hardlink",
        "sha256": "01d910d1e8b688834e8681d0e0aa78fbd915bab0a9711e71d1f90bb7070af4b9",
        "sha256_in_prefix": "01d910d1e8b688834e8681d0e0aa78fbd915bab0a9711e71d1f90bb7070af4b9",
        "size_in_bytes": 8891
      },
      {
        "_path": "Lib/site-packages/cryptography/x509/base.py",
        "path_type": "hardlink",
        "sha256": "278e32675e47836a805cc2bd540125bc4b20d39919d8e674a77237ccbcc6c58d",
        "sha256_in_prefix": "278e32675e47836a805cc2bd540125bc4b20d39919d8e674a77237ccbcc6c58d",
        "size_in_bytes": 23698
      },
      {
        "_path": "Lib/site-packages/cryptography/x509/certificate_transparency.py",
        "path_type": "hardlink",
        "sha256": "789f65ac84ddc8c9f85ecadc55dad3685548fd147b997fd5ccc67289a1296e9b",
        "sha256_in_prefix": "789f65ac84ddc8c9f85ecadc55dad3685548fd147b997fd5ccc67289a1296e9b",
        "size_in_bytes": 1000
      },
      {
        "_path": "Lib/site-packages/cryptography/x509/extensions.py",
        "path_type": "hardlink",
        "sha256": "3da5942b02de95a384a2e8e0dea2a24e87693c716e92ce05fe427dc32ecf6aa4",
        "sha256_in_prefix": "3da5942b02de95a384a2e8e0dea2a24e87693c716e92ce05fe427dc32ecf6aa4",
        "size_in_bytes": 43668
      },
      {
        "_path": "Lib/site-packages/cryptography/x509/general_name.py",
        "path_type": "hardlink",
        "sha256": "b9702dec8fb9651dd4b7c1049780955533f1f4e8e439c629de6e84634f8b35ee",
        "sha256_in_prefix": "b9702dec8fb9651dd4b7c1049780955533f1f4e8e439c629de6e84634f8b35ee",
        "size_in_bytes": 9887
      },
      {
        "_path": "Lib/site-packages/cryptography/x509/name.py",
        "path_type": "hardlink",
        "sha256": "412654c1fc462242aaa8a2a0466687c8b47fb81f4cd242778d169059bea2fb0f",
        "sha256_in_prefix": "412654c1fc462242aaa8a2a0466687c8b47fb81f4cd242778d169059bea2fb0f",
        "size_in_bytes": 5878
      },
      {
        "_path": "Lib/site-packages/cryptography/x509/oid.py",
        "path_type": "hardlink",
        "sha256": "7142e3751412516eef49394794f9754f90a7955c6b57c4c658a3c1f82edbea5c",
        "sha256_in_prefix": "7142e3751412516eef49394794f9754f90a7955c6b57c4c658a3c1f82edbea5c",
        "size_in_bytes": 12050
      }
    ],
    "paths_version": 1
  },
  "platform": "win32",
  "requested_spec": "cryptography==2.3.1=py37h74b6da3_0",
  "size": 521822,
  "subdir": "win-64",
  "timestamp": 1535132798756,
  "track_features": "",
  "url": "https://repo.anaconda.com/pkgs/main/win-64/cryptography-2.3.1-py37h74b6da3_0.tar.bz2",
  "version": "2.3.1"
}