{
  "arch": "x86_64",
  "build": "py37_0",
  "build_number": 0,
  "channel": "https://repo.anaconda.com/pkgs/main/win-64",
  "constrains": [],
  "depends": [
    "python >=3.7,<3.8.0a0"
  ],
  "extracted_package_dir": "C:\\Users\\NelsonRibeiro\\Desktop\\Miniconda3\\pkgs\\idna-2.7-py37_0",
  "features": "",
  "files": [
    "Lib/site-packages/idna-2.7-py3.7.egg-info/PKG-INFO",
    "Lib/site-packages/idna-2.7-py3.7.egg-info/SOURCES.txt",
    "Lib/site-packages/idna-2.7-py3.7.egg-info/dependency_links.txt",
    "Lib/site-packages/idna-2.7-py3.7.egg-info/top_level.txt",
    "Lib/site-packages/idna/__init__.py",
    "Lib/site-packages/idna/__pycache__/__init__.cpython-37.pyc",
    "Lib/site-packages/idna/__pycache__/codec.cpython-37.pyc",
    "Lib/site-packages/idna/__pycache__/compat.cpython-37.pyc",
    "Lib/site-packages/idna/__pycache__/core.cpython-37.pyc",
    "Lib/site-packages/idna/__pycache__/idnadata.cpython-37.pyc",
    "Lib/site-packages/idna/__pycache__/intranges.cpython-37.pyc",
    "Lib/site-packages/idna/__pycache__/package_data.cpython-37.pyc",
    "Lib/site-packages/idna/__pycache__/uts46data.cpython-37.pyc",
    "Lib/site-packages/idna/codec.py",
    "Lib/site-packages/idna/compat.py",
    "Lib/site-packages/idna/core.py",
    "Lib/site-packages/idna/idnadata.py",
    "Lib/site-packages/idna/intranges.py",
    "Lib/site-packages/idna/package_data.py",
    "Lib/site-packages/idna/uts46data.py"
  ],
  "fn": "idna-2.7-py37_0.tar.bz2",
  "license": "BSD Like",
  "link": {
    "source": "C:\\Users\\NelsonRibeiro\\Desktop\\Miniconda3\\pkgs\\idna-2.7-py37_0",
    "type": 1
  },
  "md5": "081c44c8c49ff7b0600712ce3ff61213",
  "name": "idna",
  "package_tarball_full_path": "C:\\Users\\NelsonRibeiro\\Desktop\\Miniconda3\\pkgs\\idna-2.7-py37_0.tar.bz2",
  "paths_data": {
    "paths": [
      {
        "_path": "Lib/site-packages/idna-2.7-py3.7.egg-info/PKG-INFO",
        "path_type": "hardlink",
        "sha256": "7192de18145dd21c32377df75b198e86521e12b167d8d04881991f078b618f78",
        "sha256_in_prefix": "7192de18145dd21c32377df75b198e86521e12b167d8d04881991f078b618f78",
        "size_in_bytes": 10802
      },
      {
        "_path": "Lib/site-packages/idna-2.7-py3.7.egg-info/SOURCES.txt",
        "path_type": "hardlink",
        "sha256": "389d6d514fe1d47cfeb3857897c916d8a3dbb39b98308ea4b5570459edff9b59",
        "sha256_in_prefix": "389d6d514fe1d47cfeb3857897c916d8a3dbb39b98308ea4b5570459edff9b59",
        "size_in_bytes": 529
      },
      {
        "_path": "Lib/site-packages/idna-2.7-py3.7.egg-info/dependency_links.txt",
        "path_type": "hardlink",
        "sha256": "01ba4719c80b6fe911b091a7c05124b64eeece964e09c058ef8f9805daca546b",
        "sha256_in_prefix": "01ba4719c80b6fe911b091a7c05124b64eeece964e09c058ef8f9805daca546b",
        "size_in_bytes": 1
      },
      {
        "_path": "Lib/site-packages/idna-2.7-py3.7.egg-info/top_level.txt",
        "path_type": "hardlink",
        "sha256": "8d26a0f6c103aaf48f7edc4e432f8005f195fd14b2ee8161e33649a4e0d5f24d",
        "sha256_in_prefix": "8d26a0f6c103aaf48f7edc4e432f8005f195fd14b2ee8161e33649a4e0d5f24d",
        "size_in_bytes": 5
      },
      {
        "_path": "Lib/site-packages/idna/__init__.py",
        "path_type": "hardlink",
        "sha256": "f4db7bc69c9eb770e63ab3d41a8a03740c261d966ed6a500cb611a27dde41a24",
        "sha256_in_prefix": "f4db7bc69c9eb770e63ab3d41a8a03740c261d966ed6a500cb611a27dde41a24",
        "size_in_bytes": 58
      },
      {
        "_path": "Lib/site-packages/idna/__pycache__/__init__.cpython-37.pyc",
        "path_type": "hardlink",
        "sha256": "e47204c52ae1aee66aa8e161af23bf5581242524027e0e6a18553e5373311bd9",
        "sha256_in_prefix": "e47204c52ae1aee66aa8e161af23bf5581242524027e0e6a18553e5373311bd9",
        "size_in_bytes": 190
      },
      {
        "_path": "Lib/site-packages/idna/__pycache__/codec.cpython-37.pyc",
        "path_type": "hardlink",
        "sha256": "3154ea2ed1adee8f64413d4ff83131990b8cced1f6f549d9a315951da73a38c3",
        "sha256_in_prefix": "3154ea2ed1adee8f64413d4ff83131990b8cced1f6f549d9a315951da73a38c3",
        "size_in_bytes": 2997
      },
      {
        "_path": "Lib/site-packages/idna/__pycache__/compat.cpython-37.pyc",
        "path_type": "hardlink",
        "sha256": "df5a0e5efcd82ecbd26ea513bcf439b2a69304bb89b56d26a7491f74dd6aa234",
        "sha256_in_prefix": "df5a0e5efcd82ecbd26ea513bcf439b2a69304bb89b56d26a7491f74dd6aa234",
        "size_in_bytes": 550
      },
      {
        "_path": "Lib/site-packages/idna/__pycache__/core.cpython-37.pyc",
        "path_type": "hardlink",
        "sha256": "ef9c1854f1b5687334fcf03ba31d2d4d8caccae51bef05850be0587d6565c4a9",
        "sha256_in_prefix": "ef9c1854f1b5687334fcf03ba31d2d4d8caccae51bef05850be0587d6565c4a9",
        "size_in_bytes": 9082
      },
      {
        "_path": "Lib/site-packages/idna/__pycache__/idnadata.cpython-37.pyc",
        "path_type": "hardlink",
        "sha256": "a688a4586a9207bbce528ae8a1ca272fd1e008c3ad602256503b7197e3c0a512",
        "sha256_in_prefix": "a688a4586a9207bbce528ae8a1ca272fd1e008c3ad602256503b7197e3c0a512",
        "size_in_bytes": 20514
      },
      {
        "_path": "Lib/site-packages/idna/__pycache__/intranges.cpython-37.pyc",
        "path_type": "hardlink",
        "sha256": "54ce7f50ad94d828886460a1f2dd38a81d14fbaa423b378f1eefa4ecb0c260de",
        "sha256_in_prefix": "54ce7f50ad94d828886460a1f2dd38a81d14fbaa423b378f1eefa4ecb0c260de",
        "size_in_bytes": 1730
      },
      {
        "_path": "Lib/site-packages/idna/__pycache__/package_data.cpython-37.pyc",
        "path_type": "hardlink",
        "sha256": "491c60fb6aefa2df9357a10b492a5650545e2148017c0ebcea107fdc829d620f",
        "sha256_in_prefix": "491c60fb6aefa2df9357a10b492a5650545e2148017c0ebcea107fdc829d620f",
        "size_in_bytes": 144
      },
      {
        "_path": "Lib/site-packages/idna/__pycache__/uts46data.cpython-37.pyc",
        "path_type": "hardlink",
        "sha256": "ecfc6a8c3716bb55cc600e901f5007a5dc7b40f26bbe06dfce42ef4cd2dba1a1",
        "sha256_in_prefix": "ecfc6a8c3716bb55cc600e901f5007a5dc7b40f26bbe06dfce42ef4cd2dba1a1",
        "size_in_bytes": 175586
      },
      {
        "_path": "Lib/site-packages/idna/codec.py",
        "path_type": "hardlink",
        "sha256": "96f61bef2bbb3e102a15a00801d59cc2069623652682c794b9afb573402c1b40",
        "sha256_in_prefix": "96f61bef2bbb3e102a15a00801d59cc2069623652682c794b9afb573402c1b40",
        "size_in_bytes": 3299
      },
      {
        "_path": "Lib/site-packages/idna/compat.py",
        "path_type": "hardlink",
        "sha256": "47e876f43fba9ab9c9cdb5f1ca6ad6516ee2654bf2fb6e934306748a3e7b8b85",
        "sha256_in_prefix": "47e876f43fba9ab9c9cdb5f1ca6ad6516ee2654bf2fb6e934306748a3e7b8b85",
        "size_in_bytes": 232
      },
      {
        "_path": "Lib/site-packages/idna/core.py",
        "path_type": "hardlink",
        "sha256": "3b023947fbae5d4e0f94e4a81bc72368c3c0d6185d1868e367c2363198523f1a",
        "sha256_in_prefix": "3b023947fbae5d4e0f94e4a81bc72368c3c0d6185d1868e367c2363198523f1a",
        "size_in_bytes": 11858
      },
      {
        "_path": "Lib/site-packages/idna/idnadata.py",
        "path_type": "hardlink",
        "sha256": "cf0c6fa12b18a8f1cd6bac735d61e2cd7a430b6f0924c1974629e12781a4733d",
        "sha256_in_prefix": "cf0c6fa12b18a8f1cd6bac735d61e2cd7a430b6f0924c1974629e12781a4733d",
        "size_in_bytes": 39285
      },
      {
        "_path": "Lib/site-packages/idna/intranges.py",
        "path_type": "hardlink",
        "sha256": "4d8d65a7164841610fead36a8d9905039860a0c58e8f53819a7506f22853f3b1",
        "sha256_in_prefix": "4d8d65a7164841610fead36a8d9905039860a0c58e8f53819a7506f22853f3b1",
        "size_in_bytes": 1749
      },
      {
        "_path": "Lib/site-packages/idna/package_data.py",
        "path_type": "hardlink",
        "sha256": "56df6bb6bdf60733bb3b6e6bca9a3c9f302cdecc932611b5a2353727eb36445a",
        "sha256_in_prefix": "56df6bb6bdf60733bb3b6e6bca9a3c9f302cdecc932611b5a2353727eb36445a",
        "size_in_bytes": 21
      },
      {
        "_path": "Lib/site-packages/idna/uts46data.py",
        "path_type": "hardlink",
        "sha256": "73350bcd83792ebf4ae4c98e1fed60dc2258ed03e319e1e36260b7b1a27f0479",
        "sha256_in_prefix": "73350bcd83792ebf4ae4c98e1fed60dc2258ed03e319e1e36260b7b1a27f0479",
        "size_in_bytes": 197803
      }
    ],
    "paths_version": 1
  },
  "platform": "win32",
  "requested_spec": "idna==2.7=py37_0",
  "size": 101630,
  "subdir": "win-64",
  "timestamp": 1531603981597,
  "track_features": "",
  "url": "https://repo.anaconda.com/pkgs/main/win-64/idna-2.7-py37_0.tar.bz2",
  "version": "2.7"
}