{
  "arch": "x86_64",
  "build": "py37hfa6e2cd_0",
  "build_number": 0,
  "channel": "https://repo.anaconda.com/pkgs/main/win-64",
  "constrains": [],
  "depends": [
    "python >=3.7,<3.8.0a0",
    "vc 14.*",
    "yaml >=0.1.7,<0.2.0a0"
  ],
  "extracted_package_dir": "C:\\Users\\NelsonRibeiro\\Desktop\\Miniconda3\\pkgs\\ruamel_yaml-0.15.46-py37hfa6e2cd_0",
  "features": "",
  "files": [
    "Lib/site-packages/ruamel_yaml-0.15.46-py3.7.egg-info",
    "Lib/site-packages/ruamel_yaml/__init__.py",
    "Lib/site-packages/ruamel_yaml/__pycache__/__init__.cpython-37.pyc",
    "Lib/site-packages/ruamel_yaml/__pycache__/comments.cpython-37.pyc",
    "Lib/site-packages/ruamel_yaml/__pycache__/compat.cpython-37.pyc",
    "Lib/site-packages/ruamel_yaml/__pycache__/composer.cpython-37.pyc",
    "Lib/site-packages/ruamel_yaml/__pycache__/configobjwalker.cpython-37.pyc",
    "Lib/site-packages/ruamel_yaml/__pycache__/constructor.cpython-37.pyc",
    "Lib/site-packages/ruamel_yaml/__pycache__/cyaml.cpython-37.pyc",
    "Lib/site-packages/ruamel_yaml/__pycache__/dumper.cpython-37.pyc",
    "Lib/site-packages/ruamel_yaml/__pycache__/emitter.cpython-37.pyc",
    "Lib/site-packages/ruamel_yaml/__pycache__/error.cpython-37.pyc",
    "Lib/site-packages/ruamel_yaml/__pycache__/events.cpython-37.pyc",
    "Lib/site-packages/ruamel_yaml/__pycache__/loader.cpython-37.pyc",
    "Lib/site-packages/ruamel_yaml/__pycache__/main.cpython-37.pyc",
    "Lib/site-packages/ruamel_yaml/__pycache__/nodes.cpython-37.pyc",
    "Lib/site-packages/ruamel_yaml/__pycache__/parser.cpython-37.pyc",
    "Lib/site-packages/ruamel_yaml/__pycache__/reader.cpython-37.pyc",
    "Lib/site-packages/ruamel_yaml/__pycache__/representer.cpython-37.pyc",
    "Lib/site-packages/ruamel_yaml/__pycache__/resolver.cpython-37.pyc",
    "Lib/site-packages/ruamel_yaml/__pycache__/scalarfloat.cpython-37.pyc",
    "Lib/site-packages/ruamel_yaml/__pycache__/scalarint.cpython-37.pyc",
    "Lib/site-packages/ruamel_yaml/__pycache__/scalarstring.cpython-37.pyc",
    "Lib/site-packages/ruamel_yaml/__pycache__/scanner.cpython-37.pyc",
    "Lib/site-packages/ruamel_yaml/__pycache__/serializer.cpython-37.pyc",
    "Lib/site-packages/ruamel_yaml/__pycache__/timestamp.cpython-37.pyc",
    "Lib/site-packages/ruamel_yaml/__pycache__/tokens.cpython-37.pyc",
    "Lib/site-packages/ruamel_yaml/__pycache__/util.cpython-37.pyc",
    "Lib/site-packages/ruamel_yaml/comments.py",
    "Lib/site-packages/ruamel_yaml/compat.py",
    "Lib/site-packages/ruamel_yaml/composer.py",
    "Lib/site-packages/ruamel_yaml/configobjwalker.py",
    "Lib/site-packages/ruamel_yaml/constructor.py",
    "Lib/site-packages/ruamel_yaml/cyaml.py",
    "Lib/site-packages/ruamel_yaml/dumper.py",
    "Lib/site-packages/ruamel_yaml/emitter.py",
    "Lib/site-packages/ruamel_yaml/error.py",
    "Lib/site-packages/ruamel_yaml/events.py",
    "Lib/site-packages/ruamel_yaml/ext/__init__.py",
    "Lib/site-packages/ruamel_yaml/ext/__pycache__/__init__.cpython-37.pyc",
    "Lib/site-packages/ruamel_yaml/ext/_ruamel_yaml.cp37-win_amd64.pyd",
    "Lib/site-packages/ruamel_yaml/ext/yaml.dll",
    "Lib/site-packages/ruamel_yaml/loader.py",
    "Lib/site-packages/ruamel_yaml/main.py",
    "Lib/site-packages/ruamel_yaml/nodes.py",
    "Lib/site-packages/ruamel_yaml/parser.py",
    "Lib/site-packages/ruamel_yaml/reader.py",
    "Lib/site-packages/ruamel_yaml/representer.py",
    "Lib/site-packages/ruamel_yaml/resolver.py",
    "Lib/site-packages/ruamel_yaml/scalarfloat.py",
    "Lib/site-packages/ruamel_yaml/scalarint.py",
    "Lib/site-packages/ruamel_yaml/scalarstring.py",
    "Lib/site-packages/ruamel_yaml/scanner.py",
    "Lib/site-packages/ruamel_yaml/serializer.py",
    "Lib/site-packages/ruamel_yaml/timestamp.py",
    "Lib/site-packages/ruamel_yaml/tokens.py",
    "Lib/site-packages/ruamel_yaml/util.py"
  ],
  "fn": "ruamel_yaml-0.15.46-py37hfa6e2cd_0.tar.bz2",
  "license": "MIT",
  "license_family": "MIT",
  "link": {
    "source": "C:\\Users\\NelsonRibeiro\\Desktop\\Miniconda3\\pkgs\\ruamel_yaml-0.15.46-py37hfa6e2cd_0",
    "type": 1
  },
  "md5": "163e6e1230812be0d46c0b8a0e1734ff",
  "name": "ruamel_yaml",
  "package_tarball_full_path": "C:\\Users\\NelsonRibeiro\\Desktop\\Miniconda3\\pkgs\\ruamel_yaml-0.15.46-py37hfa6e2cd_0.tar.bz2",
  "paths_data": {
    "paths": [
      {
        "_path": "Lib/site-packages/ruamel_yaml-0.15.46-py3.7.egg-info",
        "path_type": "hardlink",
        "sha256": "f1337ed4a734f29605df5c9b622dd13f6e06ccef502e865ea6b65420f4aa183c",
        "sha256_in_prefix": "f1337ed4a734f29605df5c9b622dd13f6e06ccef502e865ea6b65420f4aa183c",
        "size_in_bytes": 935
      },
      {
        "_path": "Lib/site-packages/ruamel_yaml/__init__.py",
        "path_type": "hardlink",
        "sha256": "fadcb3ab6b0df507da0dcdd5e55174ce8d242ee7e638725138a9d619a8112889",
        "sha256_in_prefix": "fadcb3ab6b0df507da0dcdd5e55174ce8d242ee7e638725138a9d619a8112889",
        "size_in_bytes": 756
      },
      {
        "_path": "Lib/site-packages/ruamel_yaml/__pycache__/__init__.cpython-37.pyc",
        "path_type": "hardlink",
        "sha256": "8e3bcd9fdeeb5702aae1f70f82f609ba1e6d6c525f5a4eca53e653d1f28968ce",
        "sha256_in_prefix": "8e3bcd9fdeeb5702aae1f70f82f609ba1e6d6c525f5a4eca53e653d1f28968ce",
        "size_in_bytes": 727
      },
      {
        "_path": "Lib/site-packages/ruamel_yaml/__pycache__/comments.cpython-37.pyc",
        "path_type": "hardlink",
        "sha256": "d4afb1a76850de9abc865b8cea7f38ea14d3f0306e06a876b61f28fa67da056a",
        "sha256_in_prefix": "d4afb1a76850de9abc865b8cea7f38ea14d3f0306e06a876b61f28fa67da056a",
        "size_in_bytes": 27293
      },
      {
        "_path": "Lib/site-packages/ruamel_yaml/__pycache__/compat.cpython-37.pyc",
        "path_type": "hardlink",
        "sha256": "ed466907293e2448d4027beefb5ef8376fde5ed5fe740f79df88fbab61c41907",
        "sha256_in_prefix": "ed466907293e2448d4027beefb5ef8376fde5ed5fe740f79df88fbab61c41907",
        "size_in_bytes": 4164
      },
      {
        "_path": "Lib/site-packages/ruamel_yaml/__pycache__/composer.cpython-37.pyc",
        "path_type": "hardlink",
        "sha256": "37e0aed5ec838d9849aecc98df6bcc61d0c0c2a214b9122e8bb8dfe9ea1afe88",
        "sha256_in_prefix": "37e0aed5ec838d9849aecc98df6bcc61d0c0c2a214b9122e8bb8dfe9ea1afe88",
        "size_in_bytes": 5060
      },
      {
        "_path": "Lib/site-packages/ruamel_yaml/__pycache__/configobjwalker.cpython-37.pyc",
        "path_type": "hardlink",
        "sha256": "d25af678ff8040d459c6bda62413719ea49ba61894b005f0c029dd5b3192abed",
        "sha256_in_prefix": "d25af678ff8040d459c6bda62413719ea49ba61894b005f0c029dd5b3192abed",
        "size_in_bytes": 427
      },
      {
        "_path": "Lib/site-packages/ruamel_yaml/__pycache__/constructor.cpython-37.pyc",
        "path_type": "hardlink",
        "sha256": "9c2b450358da81d8ab7a44ad227047d3cdf88271593616b79cb219eb0fcadf9c",
        "sha256_in_prefix": "9c2b450358da81d8ab7a44ad227047d3cdf88271593616b79cb219eb0fcadf9c",
        "size_in_bytes": 36835
      },
      {
        "_path": "Lib/site-packages/ruamel_yaml/__pycache__/cyaml.cpython-37.pyc",
        "path_type": "hardlink",
        "sha256": "26745b4954d63df335fa405fb0006ea059e2bc8bf5ca087eed08f44b44c0bc40",
        "sha256_in_prefix": "26745b4954d63df335fa405fb0006ea059e2bc8bf5ca087eed08f44b44c0bc40",
        "size_in_bytes": 3575
      },
      {
        "_path": "Lib/site-packages/ruamel_yaml/__pycache__/dumper.cpython-37.pyc",
        "path_type": "hardlink",
        "sha256": "dba1e6ff1a09a9a0848f9b22989982e499a9ec1d5d12e4557185d198c4eb8674",
        "sha256_in_prefix": "dba1e6ff1a09a9a0848f9b22989982e499a9ec1d5d12e4557185d198c4eb8674",
        "size_in_bytes": 3074
      },
      {
        "_path": "Lib/site-packages/ruamel_yaml/__pycache__/emitter.cpython-37.pyc",
        "path_type": "hardlink",
        "sha256": "11f0c2ed811e8c514694d0820128d0e7b6fece4bff7dca3cc1f298671e578fd0",
        "sha256_in_prefix": "11f0c2ed811e8c514694d0820128d0e7b6fece4bff7dca3cc1f298671e578fd0",
        "size_in_bytes": 30940
      },
      {
        "_path": "Lib/site-packages/ruamel_yaml/__pycache__/error.cpython-37.pyc",
        "path_type": "hardlink",
        "sha256": "2a4e8ff60cdbc70d86c84199d6f4e1fe7925ac57569df5e0012785d08d9f55ba",
        "sha256_in_prefix": "2a4e8ff60cdbc70d86c84199d6f4e1fe7925ac57569df5e0012785d08d9f55ba",
        "size_in_bytes": 7408
      },
      {
        "_path": "Lib/site-packages/ruamel_yaml/__pycache__/events.cpython-37.pyc",
        "path_type": "hardlink",
        "sha256": "cc9cab6c9fa4ab53c65a76999ec93c45060f89c3c59872fbdede86537f6a3871",
        "sha256_in_prefix": "cc9cab6c9fa4ab53c65a76999ec93c45060f89c3c59872fbdede86537f6a3871",
        "size_in_bytes": 4542
      },
      {
        "_path": "Lib/site-packages/ruamel_yaml/__pycache__/loader.cpython-37.pyc",
        "path_type": "hardlink",
        "sha256": "d08f23478ea8ea3f51cb438cc5b7b7fe3c34052b56063991aae476eb56e44198",
        "sha256_in_prefix": "d08f23478ea8ea3f51cb438cc5b7b7fe3c34052b56063991aae476eb56e44198",
        "size_in_bytes": 2373
      },
      {
        "_path": "Lib/site-packages/ruamel_yaml/__pycache__/main.cpython-37.pyc",
        "path_type": "hardlink",
        "sha256": "309eaf7d32665c49b0bb81f79b1c244d1b79e2eccbb3c4af9b5c3d7595160519",
        "sha256_in_prefix": "309eaf7d32665c49b0bb81f79b1c244d1b79e2eccbb3c4af9b5c3d7595160519",
        "size_in_bytes": 27176
      },
      {
        "_path": "Lib/site-packages/ruamel_yaml/__pycache__/nodes.cpython-37.pyc",
        "path_type": "hardlink",
        "sha256": "1698b58160ac9aef51050bb6ac271c23dec11ffe6baa975499e5186c4f6d2e37",
        "sha256_in_prefix": "1698b58160ac9aef51050bb6ac271c23dec11ffe6baa975499e5186c4f6d2e37",
        "size_in_bytes": 2906
      },
      {
        "_path": "Lib/site-packages/ruamel_yaml/__pycache__/parser.cpython-37.pyc",
        "path_type": "hardlink",
        "sha256": "887bff8c8e6f594f5399f51ca20b113ad9578895544ff02e2a98923d60ceda08",
        "sha256_in_prefix": "887bff8c8e6f594f5399f51ca20b113ad9578895544ff02e2a98923d60ceda08",
        "size_in_bytes": 14355
      },
      {
        "_path": "Lib/site-packages/ruamel_yaml/__pycache__/reader.cpython-37.pyc",
        "path_type": "hardlink",
        "sha256": "275f671295a830a35551900614920c6f9e00f17bf6fc71f139492f33137383a7",
        "sha256_in_prefix": "275f671295a830a35551900614920c6f9e00f17bf6fc71f139492f33137383a7",
        "size_in_bytes": 6417
      },
      {
        "_path": "Lib/site-packages/ruamel_yaml/__pycache__/representer.cpython-37.pyc",
        "path_type": "hardlink",
        "sha256": "d72f7cbc369364fb6732445d3d7ea5983682cbc3b7dc6fa2bf711025f4a7160d",
        "sha256_in_prefix": "d72f7cbc369364fb6732445d3d7ea5983682cbc3b7dc6fa2bf711025f4a7160d",
        "size_in_bytes": 25491
      },
      {
        "_path": "Lib/site-packages/ruamel_yaml/__pycache__/resolver.cpython-37.pyc",
        "path_type": "hardlink",
        "sha256": "409339e1b577888924f9d890698962fc9b27224cddf2c1631bf6f001555dd246",
        "sha256_in_prefix": "409339e1b577888924f9d890698962fc9b27224cddf2c1631bf6f001555dd246",
        "size_in_bytes": 10529
      },
      {
        "_path": "Lib/site-packages/ruamel_yaml/__pycache__/scalarfloat.cpython-37.pyc",
        "path_type": "hardlink",
        "sha256": "4dc7a3961e47bec990e7eba5d7798aaad1634c93e985d9d36c1554f6dd07bc3a",
        "sha256_in_prefix": "4dc7a3961e47bec990e7eba5d7798aaad1634c93e985d9d36c1554f6dd07bc3a",
        "size_in_bytes": 2817
      },
      {
        "_path": "Lib/site-packages/ruamel_yaml/__pycache__/scalarint.cpython-37.pyc",
        "path_type": "hardlink",
        "sha256": "5875bc6bd693fc309f51be2b3e87a40069671125e4f433cd17744c6b26738bc4",
        "sha256_in_prefix": "5875bc6bd693fc309f51be2b3e87a40069671125e4f433cd17744c6b26738bc4",
        "size_in_bytes": 2974
      },
      {
        "_path": "Lib/site-packages/ruamel_yaml/__pycache__/scalarstring.cpython-37.pyc",
        "path_type": "hardlink",
        "sha256": "4c13f6aedf63bb4eda8acfd6b88dac2950618dd2e60c7eb2aae52cef9f82feab",
        "sha256_in_prefix": "4c13f6aedf63bb4eda8acfd6b88dac2950618dd2e60c7eb2aae52cef9f82feab",
        "size_in_bytes": 2503
      },
      {
        "_path": "Lib/site-packages/ruamel_yaml/__pycache__/scanner.cpython-37.pyc",
        "path_type": "hardlink",
        "sha256": "7ed4c8baa640f197fb72ccba5ad9507b5c44f6fc8c3d84e7fb76d610ed142ec3",
        "sha256_in_prefix": "7ed4c8baa640f197fb72ccba5ad9507b5c44f6fc8c3d84e7fb76d610ed142ec3",
        "size_in_bytes": 31893
      },
      {
        "_path": "Lib/site-packages/ruamel_yaml/__pycache__/serializer.cpython-37.pyc",
        "path_type": "hardlink",
        "sha256": "26013b65b2a57a1c61301ef339d2f32779cd93cb42b2f9ef1ea15a843c7aa0b4",
        "sha256_in_prefix": "26013b65b2a57a1c61301ef339d2f32779cd93cb42b2f9ef1ea15a843c7aa0b4",
        "size_in_bytes": 5041
      },
      {
        "_path": "Lib/site-packages/ruamel_yaml/__pycache__/timestamp.cpython-37.pyc",
        "path_type": "hardlink",
        "sha256": "2560b59a63660d488a0549ea9514c23141178dc3e058776ad666b284302b4f79",
        "sha256_in_prefix": "2560b59a63660d488a0549ea9514c23141178dc3e058776ad666b284302b4f79",
        "size_in_bytes": 1008
      },
      {
        "_path": "Lib/site-packages/ruamel_yaml/__pycache__/tokens.cpython-37.pyc",
        "path_type": "hardlink",
        "sha256": "11e94856894fb8a497857f21726362209bda21090567ab0c8c3e8c57fa144db3",
        "sha256_in_prefix": "11e94856894fb8a497857f21726362209bda21090567ab0c8c3e8c57fa144db3",
        "size_in_bytes": 8267
      },
      {
        "_path": "Lib/site-packages/ruamel_yaml/__pycache__/util.cpython-37.pyc",
        "path_type": "hardlink",
        "sha256": "c4a477c25237413e32003e257c102bda89b83361d5c95657fa31cfa8e795f86d",
        "sha256_in_prefix": "c4a477c25237413e32003e257c102bda89b83361d5c95657fa31cfa8e795f86d",
        "size_in_bytes": 4577
      },
      {
        "_path": "Lib/site-packages/ruamel_yaml/comments.py",
        "path_type": "hardlink",
        "sha256": "c91aeadd4ef8a671ea30e09a61048bbf53e4aa933071f4e8d2e807bf439ade09",
        "sha256_in_prefix": "c91aeadd4ef8a671ea30e09a61048bbf53e4aa933071f4e8d2e807bf439ade09",
        "size_in_bytes": 30101
      },
      {
        "_path": "Lib/site-packages/ruamel_yaml/compat.py",
        "path_type": "hardlink",
        "sha256": "b8d2f81af9b6ffe62bb0323a23ae799a8d329e4f92923701d1f2c2bd5720a6e5",
        "sha256_in_prefix": "b8d2f81af9b6ffe62bb0323a23ae799a8d329e4f92923701d1f2c2bd5720a6e5",
        "size_in_bytes": 5014
      },
      {
        "_path": "Lib/site-packages/ruamel_yaml/composer.py",
        "path_type": "hardlink",
        "sha256": "176de68757b9d2ab06f0e00974150a1331f672bb4a9dc01bffacacd3fe2d1cb6",
        "sha256_in_prefix": "176de68757b9d2ab06f0e00974150a1331f672bb4a9dc01bffacacd3fe2d1cb6",
        "size_in_bytes": 8179
      },
      {
        "_path": "Lib/site-packages/ruamel_yaml/configobjwalker.py",
        "path_type": "hardlink",
        "sha256": "37283128a321539d08be8fe36ace71caa93079d3a039574f06558aa7ed29e70d",
        "sha256_in_prefix": "37283128a321539d08be8fe36ace71caa93079d3a039574f06558aa7ed29e70d",
        "size_in_bytes": 342
      },
      {
        "_path": "Lib/site-packages/ruamel_yaml/constructor.py",
        "path_type": "hardlink",
        "sha256": "f7e10abe7a5966fa96c573babf41ae931ee97310c8ba104e3950049f91c07469",
        "sha256_in_prefix": "f7e10abe7a5966fa96c573babf41ae931ee97310c8ba104e3950049f91c07469",
        "size_in_bytes": 61173
      },
      {
        "_path": "Lib/site-packages/ruamel_yaml/cyaml.py",
        "path_type": "hardlink",
        "sha256": "e4113ff5b6e7a70f5dfb4694c4863a0aa731363a76e37663e2ace109869df23e",
        "sha256_in_prefix": "e4113ff5b6e7a70f5dfb4694c4863a0aa731363a76e37663e2ace109869df23e",
        "size_in_bytes": 6327
      },
      {
        "_path": "Lib/site-packages/ruamel_yaml/dumper.py",
        "path_type": "hardlink",
        "sha256": "6e965036b77c3b3709c1b00947e4b79747cec12226790684c59384d97b6fb4c5",
        "sha256_in_prefix": "6e965036b77c3b3709c1b00947e4b79747cec12226790684c59384d97b6fb4c5",
        "size_in_bytes": 6465
      },
      {
        "_path": "Lib/site-packages/ruamel_yaml/emitter.py",
        "path_type": "hardlink",
        "sha256": "6ca139d964dd0f5151ebce89a6c2afd41a5ae1a1f4ca60fffc47287b75cd04dd",
        "sha256_in_prefix": "6ca139d964dd0f5151ebce89a6c2afd41a5ae1a1f4ca60fffc47287b75cd04dd",
        "size_in_bytes": 57524
      },
      {
        "_path": "Lib/site-packages/ruamel_yaml/error.py",
        "path_type": "hardlink",
        "sha256": "8d33d7a9a3744c12bd2a0aed5bfff1a245a280661ab9d97769a47264b947f49c",
        "sha256_in_prefix": "8d33d7a9a3744c12bd2a0aed5bfff1a245a280661ab9d97769a47264b947f49c",
        "size_in_bytes": 8490
      },
      {
        "_path": "Lib/site-packages/ruamel_yaml/events.py",
        "path_type": "hardlink",
        "sha256": "5dd4c76814c8dfd808cadaa70ac046c9dcd3ceecf6828ee8d38fa54b00b200c7",
        "sha256_in_prefix": "5dd4c76814c8dfd808cadaa70ac046c9dcd3ceecf6828ee8d38fa54b00b200c7",
        "size_in_bytes": 3733
      },
      {
        "_path": "Lib/site-packages/ruamel_yaml/ext/__init__.py",
        "path_type": "hardlink",
        "sha256": "e3b0c44298fc1c149afbf4c8996fb92427ae41e4649b934ca495991b7852b855",
        "sha256_in_prefix": "e3b0c44298fc1c149afbf4c8996fb92427ae41e4649b934ca495991b7852b855",
        "size_in_bytes": 0
      },
      {
        "_path": "Lib/site-packages/ruamel_yaml/ext/__pycache__/__init__.cpython-37.pyc",
        "path_type": "hardlink",
        "sha256": "a7ce5cbc7670f9d6a55d04a23ce0d83124e0e4704c0980a492385ddbbe5e8899",
        "sha256_in_prefix": "a7ce5cbc7670f9d6a55d04a23ce0d83124e0e4704c0980a492385ddbbe5e8899",
        "size_in_bytes": 132
      },
      {
        "_path": "Lib/site-packages/ruamel_yaml/ext/_ruamel_yaml.cp37-win_amd64.pyd",
        "path_type": "hardlink",
        "sha256": "5fbad13bf673765626e2bd36315a6d9c81496ba31b64a2c869706ca3af745ef6",
        "sha256_in_prefix": "5fbad13bf673765626e2bd36315a6d9c81496ba31b64a2c869706ca3af745ef6",
        "size_in_bytes": 181248
      },
      {
        "_path": "Lib/site-packages/ruamel_yaml/ext/yaml.dll",
        "path_type": "hardlink",
        "sha256": "4b914c0af3014469d9e10e4baeccf97ef736226440a7ccdb415a331146dceb6e",
        "sha256_in_prefix": "4b914c0af3014469d9e10e4baeccf97ef736226440a7ccdb415a331146dceb6e",
        "size_in_bytes": 109568
      },
      {
        "_path": "Lib/site-packages/ruamel_yaml/loader.py",
        "path_type": "hardlink",
        "sha256": "a7e527083facbc57a45ace62d7cb2d7176c8390c8846e42e6024343ed830e4d6",
        "sha256_in_prefix": "a7e527083facbc57a45ace62d7cb2d7176c8390c8846e42e6024343ed830e4d6",
        "size_in_bytes": 2858
      },
      {
        "_path": "Lib/site-packages/ruamel_yaml/main.py",
        "path_type": "hardlink",
        "sha256": "3302063291d6d87295cb9dd4780843c51b98d29420c1026522ed1f35fb896efd",
        "sha256_in_prefix": "3302063291d6d87295cb9dd4780843c51b98d29420c1026522ed1f35fb896efd",
        "size_in_bytes": 44669
      },
      {
        "_path": "Lib/site-packages/ruamel_yaml/nodes.py",
        "path_type": "hardlink",
        "sha256": "9c288b85e46b8cd36cb61979cfcc2fa4df835912d2fcdc5336cb98bfed291b29",
        "sha256_in_prefix": "9c288b85e46b8cd36cb61979cfcc2fa4df835912d2fcdc5336cb98bfed291b29",
        "size_in_bytes": 3509
      },
      {
        "_path": "Lib/site-packages/ruamel_yaml/parser.py",
        "path_type": "hardlink",
        "sha256": "cb4a43cac09d91b71a65817cef8e43d186a318e5ed1c08e15692aa933d7f20e0",
        "sha256_in_prefix": "cb4a43cac09d91b71a65817cef8e43d186a318e5ed1c08e15692aa933d7f20e0",
        "size_in_bytes": 32291
      },
      {
        "_path": "Lib/site-packages/ruamel_yaml/reader.py",
        "path_type": "hardlink",
        "sha256": "78dc8ab403f77ad08cc7e3ed6ced1c078b18c5cc57f558b43183dc2e148f5308",
        "sha256_in_prefix": "78dc8ab403f77ad08cc7e3ed6ced1c078b18c5cc57f558b43183dc2e148f5308",
        "size_in_bytes": 10406
      },
      {
        "_path": "Lib/site-packages/ruamel_yaml/representer.py",
        "path_type": "hardlink",
        "sha256": "149f4a9e4fa2e59f626cb804d255f16687d6e06a0fd3ad0c701abc7696de5a9c",
        "sha256_in_prefix": "149f4a9e4fa2e59f626cb804d255f16687d6e06a0fd3ad0c701abc7696de5a9c",
        "size_in_bytes": 44984
      },
      {
        "_path": "Lib/site-packages/ruamel_yaml/resolver.py",
        "path_type": "hardlink",
        "sha256": "ff94ef7ae17ec36eeb9bb0287066b05619a243dc9d5c948c98638a98eb080de9",
        "sha256_in_prefix": "ff94ef7ae17ec36eeb9bb0287066b05619a243dc9d5c948c98638a98eb080de9",
        "size_in_bytes": 17211
      },
      {
        "_path": "Lib/site-packages/ruamel_yaml/scalarfloat.py",
        "path_type": "hardlink",
        "sha256": "a2b90d3a77f6980546ca8b640abd9dd4ecb9edbf0a568574c4f63bff9c90d91a",
        "sha256_in_prefix": "a2b90d3a77f6980546ca8b640abd9dd4ecb9edbf0a568574c4f63bff9c90d91a",
        "size_in_bytes": 3585
      },
      {
        "_path": "Lib/site-packages/ruamel_yaml/scalarint.py",
        "path_type": "hardlink",
        "sha256": "f73941496d3d12ed6aa3082216fe0000054efa11e3d3b7fd5e4ab54965841078",
        "sha256_in_prefix": "f73941496d3d12ed6aa3082216fe0000054efa11e3d3b7fd5e4ab54965841078",
        "size_in_bytes": 3069
      },
      {
        "_path": "Lib/site-packages/ruamel_yaml/scalarstring.py",
        "path_type": "hardlink",
        "sha256": "e513ba908306f781b283645f0bfa2e5fc468605f783f54c95641f698daa44f68",
        "sha256_in_prefix": "e513ba908306f781b283645f0bfa2e5fc468605f783f54c95641f698daa44f68",
        "size_in_bytes": 2186
      },
      {
        "_path": "Lib/site-packages/ruamel_yaml/scanner.py",
        "path_type": "hardlink",
        "sha256": "b25eb32687549c8e14a79ae4287c14d3ab2cd816cf803218db121f73588c2c35",
        "sha256_in_prefix": "b25eb32687549c8e14a79ae4287c14d3ab2cd816cf803218db121f73588c2c35",
        "size_in_bytes": 68774
      },
      {
        "_path": "Lib/site-packages/ruamel_yaml/serializer.py",
        "path_type": "hardlink",
        "sha256": "92b982cf1c2e075d25c8e9c254e269046447c60fff47c9455c4abc3a0a7171f6",
        "sha256_in_prefix": "92b982cf1c2e075d25c8e9c254e269046447c60fff47c9455c4abc3a0a7171f6",
        "size_in_bytes": 7979
      },
      {
        "_path": "Lib/site-packages/ruamel_yaml/timestamp.py",
        "path_type": "hardlink",
        "sha256": "80f982f050334296c8ba412ee712ec0632907f25bbba97e46ebccb6828b80118",
        "sha256_in_prefix": "80f982f050334296c8ba412ee712ec0632907f25bbba97e46ebccb6828b80118",
        "size_in_bytes": 805
      },
      {
        "_path": "Lib/site-packages/ruamel_yaml/tokens.py",
        "path_type": "hardlink",
        "sha256": "12a5b44466b0d834208f26c3932557ced24b687882f3f91e878972d86eee681f",
        "sha256_in_prefix": "12a5b44466b0d834208f26c3932557ced24b687882f3f91e878972d86eee681f",
        "size_in_bytes": 6818
      },
      {
        "_path": "Lib/site-packages/ruamel_yaml/util.py",
        "path_type": "hardlink",
        "sha256": "408757bc51669f69bc1237d54f8ee085a36498acd64448b20f0d7183bd114a51",
        "sha256_in_prefix": "408757bc51669f69bc1237d54f8ee085a36498acd64448b20f0d7183bd114a51",
        "size_in_bytes": 5942
      }
    ],
    "paths_version": 1
  },
  "platform": "win32",
  "requested_spec": "ruamel_yaml==0.15.46=py37hfa6e2cd_0",
  "size": 267846,
  "subdir": "win-64",
  "timestamp": 1532969036543,
  "track_features": "",
  "url": "https://repo.anaconda.com/pkgs/main/win-64/ruamel_yaml-0.15.46-py37hfa6e2cd_0.tar.bz2",
  "version": "0.15.46"
}