{
  "arch": "x86_64",
  "build": "py37_0",
  "build_number": 0,
  "channel": "https://repo.anaconda.com/pkgs/main/win-64",
  "constrains": [],
  "depends": [
    "certifi >=2016.09",
    "python >=3.7,<3.8.0a0",
    "wincertstore >=0.2"
  ],
  "extracted_package_dir": "C:\\Users\\NelsonRibeiro\\Desktop\\Miniconda3\\pkgs\\setuptools-40.2.0-py37_0",
  "features": "",
  "files": [
    "Lib/site-packages/__pycache__/easy_install.cpython-37.pyc",
    "Lib/site-packages/easy_install.py",
    "Lib/site-packages/pkg_resources/__init__.py",
    "Lib/site-packages/pkg_resources/__pycache__/__init__.cpython-37.pyc",
    "Lib/site-packages/pkg_resources/__pycache__/py31compat.cpython-37.pyc",
    "Lib/site-packages/pkg_resources/_vendor/__init__.py",
    "Lib/site-packages/pkg_resources/_vendor/__pycache__/__init__.cpython-37.pyc",
    "Lib/site-packages/pkg_resources/_vendor/__pycache__/appdirs.cpython-37.pyc",
    "Lib/site-packages/pkg_resources/_vendor/__pycache__/pyparsing.cpython-37.pyc",
    "Lib/site-packages/pkg_resources/_vendor/__pycache__/six.cpython-37.pyc",
    "Lib/site-packages/pkg_resources/_vendor/appdirs.py",
    "Lib/site-packages/pkg_resources/_vendor/packaging/__about__.py",
    "Lib/site-packages/pkg_resources/_vendor/packaging/__init__.py",
    "Lib/site-packages/pkg_resources/_vendor/packaging/__pycache__/__about__.cpython-37.pyc",
    "Lib/site-packages/pkg_resources/_vendor/packaging/__pycache__/__init__.cpython-37.pyc",
    "Lib/site-packages/pkg_resources/_vendor/packaging/__pycache__/_compat.cpython-37.pyc",
    "Lib/site-packages/pkg_resources/_vendor/packaging/__pycache__/_structures.cpython-37.pyc",
    "Lib/site-packages/pkg_resources/_vendor/packaging/__pycache__/markers.cpython-37.pyc",
    "Lib/site-packages/pkg_resources/_vendor/packaging/__pycache__/requirements.cpython-37.pyc",
    "Lib/site-packages/pkg_resources/_vendor/packaging/__pycache__/specifiers.cpython-37.pyc",
    "Lib/site-packages/pkg_resources/_vendor/packaging/__pycache__/utils.cpython-37.pyc",
    "Lib/site-packages/pkg_resources/_vendor/packaging/__pycache__/version.cpython-37.pyc",
    "Lib/site-packages/pkg_resources/_vendor/packaging/_compat.py",
    "Lib/site-packages/pkg_resources/_vendor/packaging/_structures.py",
    "Lib/site-packages/pkg_resources/_vendor/packaging/markers.py",
    "Lib/site-packages/pkg_resources/_vendor/packaging/requirements.py",
    "Lib/site-packages/pkg_resources/_vendor/packaging/specifiers.py",
    "Lib/site-packages/pkg_resources/_vendor/packaging/utils.py",
    "Lib/site-packages/pkg_resources/_vendor/packaging/version.py",
    "Lib/site-packages/pkg_resources/_vendor/pyparsing.py",
    "Lib/site-packages/pkg_resources/_vendor/six.py",
    "Lib/site-packages/pkg_resources/extern/__init__.py",
    "Lib/site-packages/pkg_resources/extern/__pycache__/__init__.cpython-37.pyc",
    "Lib/site-packages/pkg_resources/py31compat.py",
    "Lib/site-packages/setuptools-40.2.0-py3.7.egg-info/PKG-INFO",
    "Lib/site-packages/setuptools-40.2.0-py3.7.egg-info/SOURCES.txt",
    "Lib/site-packages/setuptools-40.2.0-py3.7.egg-info/dependency_links.txt",
    "Lib/site-packages/setuptools-40.2.0-py3.7.egg-info/entry_points.txt",
    "Lib/site-packages/setuptools-40.2.0-py3.7.egg-info/top_level.txt",
    "Lib/site-packages/setuptools-40.2.0-py3.7.egg-info/zip-safe",
    "Lib/site-packages/setuptools/__init__.py",
    "Lib/site-packages/setuptools/__pycache__/__init__.cpython-37.pyc",
    "Lib/site-packages/setuptools/__pycache__/archive_util.cpython-37.pyc",
    "Lib/site-packages/setuptools/__pycache__/build_meta.cpython-37.pyc",
    "Lib/site-packages/setuptools/__pycache__/config.cpython-37.pyc",
    "Lib/site-packages/setuptools/__pycache__/dep_util.cpython-37.pyc",
    "Lib/site-packages/setuptools/__pycache__/depends.cpython-37.pyc",
    "Lib/site-packages/setuptools/__pycache__/dist.cpython-37.pyc",
    "Lib/site-packages/setuptools/__pycache__/extension.cpython-37.pyc",
    "Lib/site-packages/setuptools/__pycache__/glibc.cpython-37.pyc",
    "Lib/site-packages/setuptools/__pycache__/glob.cpython-37.pyc",
    "Lib/site-packages/setuptools/__pycache__/launch.cpython-37.pyc",
    "Lib/site-packages/setuptools/__pycache__/lib2to3_ex.cpython-37.pyc",
    "Lib/site-packages/setuptools/__pycache__/monkey.cpython-37.pyc",
    "Lib/site-packages/setuptools/__pycache__/msvc.cpython-37.pyc",
    "Lib/site-packages/setuptools/__pycache__/namespaces.cpython-37.pyc",
    "Lib/site-packages/setuptools/__pycache__/package_index.cpython-37.pyc",
    "Lib/site-packages/setuptools/__pycache__/pep425tags.cpython-37.pyc",
    "Lib/site-packages/setuptools/__pycache__/py27compat.cpython-37.pyc",
    "Lib/site-packages/setuptools/__pycache__/py31compat.cpython-37.pyc",
    "Lib/site-packages/setuptools/__pycache__/py33compat.cpython-37.pyc",
    "Lib/site-packages/setuptools/__pycache__/py36compat.cpython-37.pyc",
    "Lib/site-packages/setuptools/__pycache__/sandbox.cpython-37.pyc",
    "Lib/site-packages/setuptools/__pycache__/site-patch.cpython-37.pyc",
    "Lib/site-packages/setuptools/__pycache__/ssl_support.cpython-37.pyc",
    "Lib/site-packages/setuptools/__pycache__/unicode_utils.cpython-37.pyc",
    "Lib/site-packages/setuptools/__pycache__/version.cpython-37.pyc",
    "Lib/site-packages/setuptools/__pycache__/wheel.cpython-37.pyc",
    "Lib/site-packages/setuptools/__pycache__/windows_support.cpython-37.pyc",
    "Lib/site-packages/setuptools/_vendor/__init__.py",
    "Lib/site-packages/setuptools/_vendor/__pycache__/__init__.cpython-37.pyc",
    "Lib/site-packages/setuptools/_vendor/__pycache__/pyparsing.cpython-37.pyc",
    "Lib/site-packages/setuptools/_vendor/__pycache__/six.cpython-37.pyc",
    "Lib/site-packages/setuptools/_vendor/packaging/__about__.py",
    "Lib/site-packages/setuptools/_vendor/packaging/__init__.py",
    "Lib/site-packages/setuptools/_vendor/packaging/__pycache__/__about__.cpython-37.pyc",
    "Lib/site-packages/setuptools/_vendor/packaging/__pycache__/__init__.cpython-37.pyc",
    "Lib/site-packages/setuptools/_vendor/packaging/__pycache__/_compat.cpython-37.pyc",
    "Lib/site-packages/setuptools/_vendor/packaging/__pycache__/_structures.cpython-37.pyc",
    "Lib/site-packages/setuptools/_vendor/packaging/__pycache__/markers.cpython-37.pyc",
    "Lib/site-packages/setuptools/_vendor/packaging/__pycache__/requirements.cpython-37.pyc",
    "Lib/site-packages/setuptools/_vendor/packaging/__pycache__/specifiers.cpython-37.pyc",
    "Lib/site-packages/setuptools/_vendor/packaging/__pycache__/utils.cpython-37.pyc",
    "Lib/site-packages/setuptools/_vendor/packaging/__pycache__/version.cpython-37.pyc",
    "Lib/site-packages/setuptools/_vendor/packaging/_compat.py",
    "Lib/site-packages/setuptools/_vendor/packaging/_structures.py",
    "Lib/site-packages/setuptools/_vendor/packaging/markers.py",
    "Lib/site-packages/setuptools/_vendor/packaging/requirements.py",
    "Lib/site-packages/setuptools/_vendor/packaging/specifiers.py",
    "Lib/site-packages/setuptools/_vendor/packaging/utils.py",
    "Lib/site-packages/setuptools/_vendor/packaging/version.py",
    "Lib/site-packages/setuptools/_vendor/pyparsing.py",
    "Lib/site-packages/setuptools/_vendor/six.py",
    "Lib/site-packages/setuptools/archive_util.py",
    "Lib/site-packages/setuptools/build_meta.py",
    "Lib/site-packages/setuptools/cli-32.exe",
    "Lib/site-packages/setuptools/cli-64.exe",
    "Lib/site-packages/setuptools/cli.exe",
    "Lib/site-packages/setuptools/command/__init__.py",
    "Lib/site-packages/setuptools/command/__pycache__/__init__.cpython-37.pyc",
    "Lib/site-packages/setuptools/command/__pycache__/alias.cpython-37.pyc",
    "Lib/site-packages/setuptools/command/__pycache__/bdist_egg.cpython-37.pyc",
    "Lib/site-packages/setuptools/command/__pycache__/bdist_rpm.cpython-37.pyc",
    "Lib/site-packages/setuptools/command/__pycache__/bdist_wininst.cpython-37.pyc",
    "Lib/site-packages/setuptools/command/__pycache__/build_clib.cpython-37.pyc",
    "Lib/site-packages/setuptools/command/__pycache__/build_ext.cpython-37.pyc",
    "Lib/site-packages/setuptools/command/__pycache__/build_py.cpython-37.pyc",
    "Lib/site-packages/setuptools/command/__pycache__/develop.cpython-37.pyc",
    "Lib/site-packages/setuptools/command/__pycache__/dist_info.cpython-37.pyc",
    "Lib/site-packages/setuptools/command/__pycache__/easy_install.cpython-37.pyc",
    "Lib/site-packages/setuptools/command/__pycache__/egg_info.cpython-37.pyc",
    "Lib/site-packages/setuptools/command/__pycache__/install.cpython-37.pyc",
    "Lib/site-packages/setuptools/command/__pycache__/install_egg_info.cpython-37.pyc",
    "Lib/site-packages/setuptools/command/__pycache__/install_lib.cpython-37.pyc",
    "Lib/site-packages/setuptools/command/__pycache__/install_scripts.cpython-37.pyc",
    "Lib/site-packages/setuptools/command/__pycache__/py36compat.cpython-37.pyc",
    "Lib/site-packages/setuptools/command/__pycache__/register.cpython-37.pyc",
    "Lib/site-packages/setuptools/command/__pycache__/rotate.cpython-37.pyc",
    "Lib/site-packages/setuptools/command/__pycache__/saveopts.cpython-37.pyc",
    "Lib/site-packages/setuptools/command/__pycache__/sdist.cpython-37.pyc",
    "Lib/site-packages/setuptools/command/__pycache__/setopt.cpython-37.pyc",
    "Lib/site-packages/setuptools/command/__pycache__/test.cpython-37.pyc",
    "Lib/site-packages/setuptools/command/__pycache__/upload.cpython-37.pyc",
    "Lib/site-packages/setuptools/command/__pycache__/upload_docs.cpython-37.pyc",
    "Lib/site-packages/setuptools/command/alias.py",
    "Lib/site-packages/setuptools/command/bdist_egg.py",
    "Lib/site-packages/setuptools/command/bdist_rpm.py",
    "Lib/site-packages/setuptools/command/bdist_wininst.py",
    "Lib/site-packages/setuptools/command/build_clib.py",
    "Lib/site-packages/setuptools/command/build_ext.py",
    "Lib/site-packages/setuptools/command/build_py.py",
    "Lib/site-packages/setuptools/command/develop.py",
    "Lib/site-packages/setuptools/command/dist_info.py",
    "Lib/site-packages/setuptools/command/easy_install.py",
    "Lib/site-packages/setuptools/command/egg_info.py",
    "Lib/site-packages/setuptools/command/install.py",
    "Lib/site-packages/setuptools/command/install_egg_info.py",
    "Lib/site-packages/setuptools/command/install_lib.py",
    "Lib/site-packages/setuptools/command/install_scripts.py",
    "Lib/site-packages/setuptools/command/launcher manifest.xml",
    "Lib/site-packages/setuptools/command/py36compat.py",
    "Lib/site-packages/setuptools/command/register.py",
    "Lib/site-packages/setuptools/command/rotate.py",
    "Lib/site-packages/setuptools/command/saveopts.py",
    "Lib/site-packages/setuptools/command/sdist.py",
    "Lib/site-packages/setuptools/command/setopt.py",
    "Lib/site-packages/setuptools/command/test.py",
    "Lib/site-packages/setuptools/command/upload.py",
    "Lib/site-packages/setuptools/command/upload_docs.py",
    "Lib/site-packages/setuptools/config.py",
    "Lib/site-packages/setuptools/dep_util.py",
    "Lib/site-packages/setuptools/depends.py",
    "Lib/site-packages/setuptools/dist.py",
    "Lib/site-packages/setuptools/extension.py",
    "Lib/site-packages/setuptools/extern/__init__.py",
    "Lib/site-packages/setuptools/extern/__pycache__/__init__.cpython-37.pyc",
    "Lib/site-packages/setuptools/glibc.py",
    "Lib/site-packages/setuptools/glob.py",
    "Lib/site-packages/setuptools/gui-32.exe",
    "Lib/site-packages/setuptools/gui-64.exe",
    "Lib/site-packages/setuptools/gui.exe",
    "Lib/site-packages/setuptools/launch.py",
    "Lib/site-packages/setuptools/lib2to3_ex.py",
    "Lib/site-packages/setuptools/monkey.py",
    "Lib/site-packages/setuptools/msvc.py",
    "Lib/site-packages/setuptools/namespaces.py",
    "Lib/site-packages/setuptools/package_index.py",
    "Lib/site-packages/setuptools/pep425tags.py",
    "Lib/site-packages/setuptools/py27compat.py",
    "Lib/site-packages/setuptools/py31compat.py",
    "Lib/site-packages/setuptools/py33compat.py",
    "Lib/site-packages/setuptools/py36compat.py",
    "Lib/site-packages/setuptools/sandbox.py",
    "Lib/site-packages/setuptools/script (dev).tmpl",
    "Lib/site-packages/setuptools/script.tmpl",
    "Lib/site-packages/setuptools/site-patch.py",
    "Lib/site-packages/setuptools/ssl_support.py",
    "Lib/site-packages/setuptools/unicode_utils.py",
    "Lib/site-packages/setuptools/version.py",
    "Lib/site-packages/setuptools/wheel.py",
    "Lib/site-packages/setuptools/windows_support.py",
    "Scripts/easy_install-script.py",
    "Scripts/easy_install.exe"
  ],
  "fn": "setuptools-40.2.0-py37_0.tar.bz2",
  "license": "MIT",
  "license_family": "MIT",
  "link": {
    "source": "C:\\Users\\NelsonRibeiro\\Desktop\\Miniconda3\\pkgs\\setuptools-40.2.0-py37_0",
    "type": 1
  },
  "md5": "e8a2d1732e2144f3e15824e8fbd1e8bf",
  "name": "setuptools",
  "package_tarball_full_path": "C:\\Users\\NelsonRibeiro\\Desktop\\Miniconda3\\pkgs\\setuptools-40.2.0-py37_0.tar.bz2",
  "paths_data": {
    "paths": [
      {
        "_path": "Lib/site-packages/__pycache__/easy_install.cpython-37.pyc",
        "path_type": "hardlink",
        "sha256": "2f41129808138d55e52dbeee377fd64b94e911da7e66e709c22365bc034f3a54",
        "sha256_in_prefix": "2f41129808138d55e52dbeee377fd64b94e911da7e66e709c22365bc034f3a54",
        "size_in_bytes": 262
      },
      {
        "_path": "Lib/site-packages/easy_install.py",
        "path_type": "hardlink",
        "sha256": "3030bdbede40c43b175f9a9c2a5073d939d6e93a6ebff0286e77e1089f57dcf3",
        "sha256_in_prefix": "3030bdbede40c43b175f9a9c2a5073d939d6e93a6ebff0286e77e1089f57dcf3",
        "size_in_bytes": 126
      },
      {
        "_path": "Lib/site-packages/pkg_resources/__init__.py",
        "path_type": "hardlink",
        "sha256": "fb13f3758854e26306deb1f7325bd0539aa21ec865df92f6a608ac08c63907dc",
        "sha256_in_prefix": "fb13f3758854e26306deb1f7325bd0539aa21ec865df92f6a608ac08c63907dc",
        "size_in_bytes": 103891
      },
      {
        "_path": "Lib/site-packages/pkg_resources/__pycache__/__init__.cpython-37.pyc",
        "path_type": "hardlink",
        "sha256": "6f372c90b46d8107edb60de28482f07d7f0c9b56d4a0aa089f65d67b08db215a",
        "sha256_in_prefix": "6f372c90b46d8107edb60de28482f07d7f0c9b56d4a0aa089f65d67b08db215a",
        "size_in_bytes": 95928
      },
      {
        "_path": "Lib/site-packages/pkg_resources/__pycache__/py31compat.cpython-37.pyc",
        "path_type": "hardlink",
        "sha256": "3ee6c909ae945da977855bc1e34d38cb76d3fadfbf162b0b3565eeb1b23ae785",
        "sha256_in_prefix": "3ee6c909ae945da977855bc1e34d38cb76d3fadfbf162b0b3565eeb1b23ae785",
        "size_in_bytes": 575
      },
      {
        "_path": "Lib/site-packages/pkg_resources/_vendor/__init__.py",
        "path_type": "hardlink",
        "sha256": "e3b0c44298fc1c149afbf4c8996fb92427ae41e4649b934ca495991b7852b855",
        "sha256_in_prefix": "e3b0c44298fc1c149afbf4c8996fb92427ae41e4649b934ca495991b7852b855",
        "size_in_bytes": 0
      },
      {
        "_path": "Lib/site-packages/pkg_resources/_vendor/__pycache__/__init__.cpython-37.pyc",
        "path_type": "hardlink",
        "sha256": "968325aa19d71c0cad9b2113d047e9ff9bb5f19bb39014debd19f5452a6b0fb0",
        "sha256_in_prefix": "968325aa19d71c0cad9b2113d047e9ff9bb5f19bb39014debd19f5452a6b0fb0",
        "size_in_bytes": 138
      },
      {
        "_path": "Lib/site-packages/pkg_resources/_vendor/__pycache__/appdirs.cpython-37.pyc",
        "path_type": "hardlink",
        "sha256": "819cd6f8f44b5617c399b11b95f26956c2530deadf0daa09dde5db4a0814558f",
        "sha256_in_prefix": "819cd6f8f44b5617c399b11b95f26956c2530deadf0daa09dde5db4a0814558f",
        "size_in_bytes": 20626
      },
      {
        "_path": "Lib/site-packages/pkg_resources/_vendor/__pycache__/pyparsing.cpython-37.pyc",
        "path_type": "hardlink",
        "sha256": "f08c242bd61f227ad084e8b2dc8eea34063efb079dcbbfb41ffb999d0cb7dd72",
        "sha256_in_prefix": "f08c242bd61f227ad084e8b2dc8eea34063efb079dcbbfb41ffb999d0cb7dd72",
        "size_in_bytes": 202019
      },
      {
        "_path": "Lib/site-packages/pkg_resources/_vendor/__pycache__/six.cpython-37.pyc",
        "path_type": "hardlink",
        "sha256": "3cb4202d7b096aa92043fdaeac475210a00c27cd0c6c5fae2faf338baf02d16e",
        "sha256_in_prefix": "3cb4202d7b096aa92043fdaeac475210a00c27cd0c6c5fae2faf338baf02d16e",
        "size_in_bytes": 24339
      },
      {
        "_path": "Lib/site-packages/pkg_resources/_vendor/appdirs.py",
        "path_type": "hardlink",
        "sha256": "3227af504bafde5fe6408487e52174b210e4fc13611c7cd88803eb4f72133782",
        "sha256_in_prefix": "3227af504bafde5fe6408487e52174b210e4fc13611c7cd88803eb4f72133782",
        "size_in_bytes": 24701
      },
      {
        "_path": "Lib/site-packages/pkg_resources/_vendor/packaging/__about__.py",
        "path_type": "hardlink",
        "sha256": "ce47023d337fe9370b5b436b960d35efaf91d5043f5953d39bcb33d51e3e1e33",
        "sha256_in_prefix": "ce47023d337fe9370b5b436b960d35efaf91d5043f5953d39bcb33d51e3e1e33",
        "size_in_bytes": 720
      },
      {
        "_path": "Lib/site-packages/pkg_resources/_vendor/packaging/__init__.py",
        "path_type": "hardlink",
        "sha256": "fef35a7394ebcf0b2bcdb38521b17ee5c1ea73f63668f4f60fbceb211d3a04ea",
        "sha256_in_prefix": "fef35a7394ebcf0b2bcdb38521b17ee5c1ea73f63668f4f60fbceb211d3a04ea",
        "size_in_bytes": 513
      },
      {
        "_path": "Lib/site-packages/pkg_resources/_vendor/packaging/__pycache__/__about__.cpython-37.pyc",
        "path_type": "hardlink",
        "sha256": "31c054d4bbcf1e55a34a95cffdadff0356708079d554e80361937bfddefc5dfc",
        "sha256_in_prefix": "31c054d4bbcf1e55a34a95cffdadff0356708079d554e80361937bfddefc5dfc",
        "size_in_bytes": 674
      },
      {
        "_path": "Lib/site-packages/pkg_resources/_vendor/packaging/__pycache__/__init__.cpython-37.pyc",
        "path_type": "hardlink",
        "sha256": "24e56c993f3c732f6c97344a8532fd667a387b3e110baf49ad08e12d22aed7cd",
        "sha256_in_prefix": "24e56c993f3c732f6c97344a8532fd667a387b3e110baf49ad08e12d22aed7cd",
        "size_in_bytes": 512
      },
      {
        "_path": "Lib/site-packages/pkg_resources/_vendor/packaging/__pycache__/_compat.cpython-37.pyc",
        "path_type": "hardlink",
        "sha256": "fe96fa7c9a22f7d7b600b9b915a896e11cf6fd0021a119a2122bb05df01819c2",
        "sha256_in_prefix": "fe96fa7c9a22f7d7b600b9b915a896e11cf6fd0021a119a2122bb05df01819c2",
        "size_in_bytes": 964
      },
      {
        "_path": "Lib/site-packages/pkg_resources/_vendor/packaging/__pycache__/_structures.cpython-37.pyc",
        "path_type": "hardlink",
        "sha256": "af14d8925b3ca769f8dc2c67e20b30a4d07b7dd6ad476d8e1adf99e6ff89263d",
        "sha256_in_prefix": "af14d8925b3ca769f8dc2c67e20b30a4d07b7dd6ad476d8e1adf99e6ff89263d",
        "size_in_bytes": 2816
      },
      {
        "_path": "Lib/site-packages/pkg_resources/_vendor/packaging/__pycache__/markers.cpython-37.pyc",
        "path_type": "hardlink",
        "sha256": "5716cf1e0085bbd77eb9f91417f1f00cabae7a58ce2872f7631ab3ded42bbdbd",
        "sha256_in_prefix": "5716cf1e0085bbd77eb9f91417f1f00cabae7a58ce2872f7631ab3ded42bbdbd",
        "size_in_bytes": 8824
      },
      {
        "_path": "Lib/site-packages/pkg_resources/_vendor/packaging/__pycache__/requirements.cpython-37.pyc",
        "path_type": "hardlink",
        "sha256": "8f766a24f2f6d075f09ff5a859ae48b3a0c960f60cd20fe17ec1c7c9e20e16da",
        "sha256_in_prefix": "8f766a24f2f6d075f09ff5a859ae48b3a0c960f60cd20fe17ec1c7c9e20e16da",
        "size_in_bytes": 3829
      },
      {
        "_path": "Lib/site-packages/pkg_resources/_vendor/packaging/__pycache__/specifiers.cpython-37.pyc",
        "path_type": "hardlink",
        "sha256": "e37d2921c101dbdcc2ec6f660e91edc07266eea1f201c39758e6e300e63640e7",
        "sha256_in_prefix": "e37d2921c101dbdcc2ec6f660e91edc07266eea1f201c39758e6e300e63640e7",
        "size_in_bytes": 19742
      },
      {
        "_path": "Lib/site-packages/pkg_resources/_vendor/packaging/__pycache__/utils.cpython-37.pyc",
        "path_type": "hardlink",
        "sha256": "7911a3fdeb3af86228760165a0b2ed37e61f1611df396a73a101def7abeea903",
        "sha256_in_prefix": "7911a3fdeb3af86228760165a0b2ed37e61f1611df396a73a101def7abeea903",
        "size_in_bytes": 443
      },
      {
        "_path": "Lib/site-packages/pkg_resources/_vendor/packaging/__pycache__/version.cpython-37.pyc",
        "path_type": "hardlink",
        "sha256": "b76cab23dd58f8f8c264aed3adbba0cf8978d6d9d0da215a472c51e722f37b96",
        "sha256_in_prefix": "b76cab23dd58f8f8c264aed3adbba0cf8978d6d9d0da215a472c51e722f37b96",
        "size_in_bytes": 10509
      },
      {
        "_path": "Lib/site-packages/pkg_resources/_vendor/packaging/_compat.py",
        "path_type": "hardlink",
        "sha256": "562fc0d2b0107876d4f9af57d2db75c909bd46a92041b0d2c73470f16954f640",
        "sha256_in_prefix": "562fc0d2b0107876d4f9af57d2db75c909bd46a92041b0d2c73470f16954f640",
        "size_in_bytes": 860
      },
      {
        "_path": "Lib/site-packages/pkg_resources/_vendor/packaging/_structures.py",
        "path_type": "hardlink",
        "sha256": "448984089e1cff04e5693618c1960b1c489e6c331a00998ad683c0461c354f9a",
        "sha256_in_prefix": "448984089e1cff04e5693618c1960b1c489e6c331a00998ad683c0461c354f9a",
        "size_in_bytes": 1416
      },
      {
        "_path": "Lib/site-packages/pkg_resources/_vendor/packaging/markers.py",
        "path_type": "hardlink",
        "sha256": "b8470106d1afcea96d82702ba9bf5ce11adc2275decc32e8b35e336c11e1589a",
        "sha256_in_prefix": "b8470106d1afcea96d82702ba9bf5ce11adc2275decc32e8b35e336c11e1589a",
        "size_in_bytes": 8248
      },
      {
        "_path": "Lib/site-packages/pkg_resources/_vendor/packaging/requirements.py",
        "path_type": "hardlink",
        "sha256": "4a290bd94ca76ec4f4aad63d96daa78277616bfb1fa34c3a5c6161021a12a1a4",
        "sha256_in_prefix": "4a290bd94ca76ec4f4aad63d96daa78277616bfb1fa34c3a5c6161021a12a1a4",
        "size_in_bytes": 4355
      },
      {
        "_path": "Lib/site-packages/pkg_resources/_vendor/packaging/specifiers.py",
        "path_type": "hardlink",
        "sha256": "4803117abcceddf2b622415909a664bb065a2ff106a8734ecf8a678b8be19cdd",
        "sha256_in_prefix": "4803117abcceddf2b622415909a664bb065a2ff106a8734ecf8a678b8be19cdd",
        "size_in_bytes": 28025
      },
      {
        "_path": "Lib/site-packages/pkg_resources/_vendor/packaging/utils.py",
        "path_type": "hardlink",
        "sha256": "de6e96bcf9ba34dc44f2b9131a69f4afbe41fc66521a0ee291a7f11ec04dd560",
        "sha256_in_prefix": "de6e96bcf9ba34dc44f2b9131a69f4afbe41fc66521a0ee291a7f11ec04dd560",
        "size_in_bytes": 421
      },
      {
        "_path": "Lib/site-packages/pkg_resources/_vendor/packaging/version.py",
        "path_type": "hardlink",
        "sha256": "3b01a7c587ebda084dcd8c79f6a588064acadd29c1ea7f997ddd5768ba679ccd",
        "sha256_in_prefix": "3b01a7c587ebda084dcd8c79f6a588064acadd29c1ea7f997ddd5768ba679ccd",
        "size_in_bytes": 11556
      },
      {
        "_path": "Lib/site-packages/pkg_resources/_vendor/pyparsing.py",
        "path_type": "hardlink",
        "sha256": "6040e69cedd4a0b936aba7486b8f7f9eb4e36e00b598dd05b9175c25a446b1e3",
        "sha256_in_prefix": "6040e69cedd4a0b936aba7486b8f7f9eb4e36e00b598dd05b9175c25a446b1e3",
        "size_in_bytes": 231039
      },
      {
        "_path": "Lib/site-packages/pkg_resources/_vendor/six.py",
        "path_type": "hardlink",
        "sha256": "03a85d259563237b7f81e79b67d07352fc11ac85e8d257f0cd094cd8b70ac9ab",
        "sha256_in_prefix": "03a85d259563237b7f81e79b67d07352fc11ac85e8d257f0cd094cd8b70ac9ab",
        "size_in_bytes": 30098
      },
      {
        "_path": "Lib/site-packages/pkg_resources/extern/__init__.py",
        "path_type": "hardlink",
        "sha256": "7078847c7b8b9a6eabb3955eff3b417cc23b2ebdf5becb3e0f8c24a85e71ce52",
        "sha256_in_prefix": "7078847c7b8b9a6eabb3955eff3b417cc23b2ebdf5becb3e0f8c24a85e71ce52",
        "size_in_bytes": 2498
      },
      {
        "_path": "Lib/site-packages/pkg_resources/extern/__pycache__/__init__.cpython-37.pyc",
        "path_type": "hardlink",
        "sha256": "7e7b5fc6a7455d23e3454f25de687c7d3e87189267386f2240943ff6f2277153",
        "sha256_in_prefix": "7e7b5fc6a7455d23e3454f25de687c7d3e87189267386f2240943ff6f2277153",
        "size_in_bytes": 2357
      },
      {
        "_path": "Lib/site-packages/pkg_resources/py31compat.py",
        "path_type": "hardlink",
        "sha256": "f964347b8737446fda71d8700b780b89784ffe58381b9abb5d89199108348315",
        "sha256_in_prefix": "f964347b8737446fda71d8700b780b89784ffe58381b9abb5d89199108348315",
        "size_in_bytes": 558
      },
      {
        "_path": "Lib/site-packages/setuptools-40.2.0-py3.7.egg-info/PKG-INFO",
        "path_type": "hardlink",
        "sha256": "c26700486e844192ac70370e450c740633845dd5e37548113b43be1aef8db87b",
        "sha256_in_prefix": "c26700486e844192ac70370e450c740633845dd5e37548113b43be1aef8db87b",
        "size_in_bytes": 3250
      },
      {
        "_path": "Lib/site-packages/setuptools-40.2.0-py3.7.egg-info/SOURCES.txt",
        "path_type": "hardlink",
        "sha256": "4eb8db57e08129f9e8ea9c6f9fed48c09c45382e9d9cdf2f9d7e2efaea29ff3d",
        "sha256_in_prefix": "4eb8db57e08129f9e8ea9c6f9fed48c09c45382e9d9cdf2f9d7e2efaea29ff3d",
        "size_in_bytes": 6575
      },
      {
        "_path": "Lib/site-packages/setuptools-40.2.0-py3.7.egg-info/dependency_links.txt",
        "path_type": "hardlink",
        "sha256": "01ba4719c80b6fe911b091a7c05124b64eeece964e09c058ef8f9805daca546b",
        "sha256_in_prefix": "01ba4719c80b6fe911b091a7c05124b64eeece964e09c058ef8f9805daca546b",
        "size_in_bytes": 1
      },
      {
        "_path": "Lib/site-packages/setuptools-40.2.0-py3.7.egg-info/entry_points.txt",
        "path_type": "hardlink",
        "sha256": "b3889b4ebe7fbfffae5ae79e9a0addccb5082ff6a078e32ab200802990e46361",
        "sha256_in_prefix": "b3889b4ebe7fbfffae5ae79e9a0addccb5082ff6a078e32ab200802990e46361",
        "size_in_bytes": 2934
      },
      {
        "_path": "Lib/site-packages/setuptools-40.2.0-py3.7.egg-info/top_level.txt",
        "path_type": "hardlink",
        "sha256": "d87517555c00e0f7dfd7181316bdc6b135d729a3da3babe51baa0d27fe2ee138",
        "sha256_in_prefix": "d87517555c00e0f7dfd7181316bdc6b135d729a3da3babe51baa0d27fe2ee138",
        "size_in_bytes": 38
      },
      {
        "_path": "Lib/site-packages/setuptools-40.2.0-py3.7.egg-info/zip-safe",
        "path_type": "hardlink",
        "sha256": "01ba4719c80b6fe911b091a7c05124b64eeece964e09c058ef8f9805daca546b",
        "sha256_in_prefix": "01ba4719c80b6fe911b091a7c05124b64eeece964e09c058ef8f9805daca546b",
        "size_in_bytes": 1
      },
      {
        "_path": "Lib/site-packages/setuptools/__init__.py",
        "path_type": "hardlink",
        "sha256": "76c643dd3fbfda1b63b550042d159ebbcdc11718c6693141d21dc83bb3c68b75",
        "sha256_in_prefix": "76c643dd3fbfda1b63b550042d159ebbcdc11718c6693141d21dc83bb3c68b75",
        "size_in_bytes": 5878
      },
      {
        "_path": "Lib/site-packages/setuptools/__pycache__/__init__.cpython-37.pyc",
        "path_type": "hardlink",
        "sha256": "b60cceed43489ea2c69ac46d12e760b8c7286038b7dfda1276703db498d8d329",
        "sha256_in_prefix": "b60cceed43489ea2c69ac46d12e760b8c7286038b7dfda1276703db498d8d329",
        "size_in_bytes": 6380
      },
      {
        "_path": "Lib/site-packages/setuptools/__pycache__/archive_util.cpython-37.pyc",
        "path_type": "hardlink",
        "sha256": "388e994366641043951ad1c3123dbd9890209953604b36b8eb46232b71d23dd8",
        "sha256_in_prefix": "388e994366641043951ad1c3123dbd9890209953604b36b8eb46232b71d23dd8",
        "size_in_bytes": 5074
      },
      {
        "_path": "Lib/site-packages/setuptools/__pycache__/build_meta.cpython-37.pyc",
        "path_type": "hardlink",
        "sha256": "5d708a1a2d1e6d08b9922f905f7d597be7eb6c7fdcc952916f4c3005d5c91521",
        "sha256_in_prefix": "5d708a1a2d1e6d08b9922f905f7d597be7eb6c7fdcc952916f4c3005d5c91521",
        "size_in_bytes": 6223
      },
      {
        "_path": "Lib/site-packages/setuptools/__pycache__/config.cpython-37.pyc",
        "path_type": "hardlink",
        "sha256": "cc69740e73bbcde6b91ef6bce5e087aaa09375d28f2995539e723ac84cb47657",
        "sha256_in_prefix": "cc69740e73bbcde6b91ef6bce5e087aaa09375d28f2995539e723ac84cb47657",
        "size_in_bytes": 15231
      },
      {
        "_path": "Lib/site-packages/setuptools/__pycache__/dep_util.cpython-37.pyc",
        "path_type": "hardlink",
        "sha256": "e341a073d757f8d61f7add578aeab715807aa893efaa96bd27b8e02b48c189a9",
        "sha256_in_prefix": "e341a073d757f8d61f7add578aeab715807aa893efaa96bd27b8e02b48c189a9",
        "size_in_bytes": 800
      },
      {
        "_path": "Lib/site-packages/setuptools/__pycache__/depends.cpython-37.pyc",
        "path_type": "hardlink",
        "sha256": "785630922b3379ac5f5cc1ca5bd429a9178673660b6686c2323d60ce76ebbc2e",
        "sha256_in_prefix": "785630922b3379ac5f5cc1ca5bd429a9178673660b6686c2323d60ce76ebbc2e",
        "size_in_bytes": 5209
      },
      {
        "_path": "Lib/site-packages/setuptools/__pycache__/dist.cpython-37.pyc",
        "path_type": "hardlink",
        "sha256": "fe03622ae37249de735621b460ccbd8e622f57663bceadcc48d2fb7a310431b4",
        "sha256_in_prefix": "fe03622ae37249de735621b460ccbd8e622f57663bceadcc48d2fb7a310431b4",
        "size_in_bytes": 36719
      },
      {
        "_path": "Lib/site-packages/setuptools/__pycache__/extension.cpython-37.pyc",
        "path_type": "hardlink",
        "sha256": "f84d567beb4a153173d3529f0349940d9d60f6caef3d40c23e7e5ae38abe73a8",
        "sha256_in_prefix": "f84d567beb4a153173d3529f0349940d9d60f6caef3d40c23e7e5ae38abe73a8",
        "size_in_bytes": 1920
      },
      {
        "_path": "Lib/site-packages/setuptools/__pycache__/glibc.cpython-37.pyc",
        "path_type": "hardlink",
        "sha256": "704692399d81fd40b522f61498ee3b0fa5d24455b8fd9ea58dbaeff375236cfd",
        "sha256_in_prefix": "704692399d81fd40b522f61498ee3b0fa5d24455b8fd9ea58dbaeff375236cfd",
        "size_in_bytes": 1485
      },
      {
        "_path": "Lib/site-packages/setuptools/__pycache__/glob.cpython-37.pyc",
        "path_type": "hardlink",
        "sha256": "8fa45021424e93fe8a6cb3db9d1c452935c1128c1f9004fec153cd470d6eda39",
        "sha256_in_prefix": "8fa45021424e93fe8a6cb3db9d1c452935c1128c1f9004fec153cd470d6eda39",
        "size_in_bytes": 3786
      },
      {
        "_path": "Lib/site-packages/setuptools/__pycache__/launch.cpython-37.pyc",
        "path_type": "hardlink",
        "sha256": "4448467cc552cb282d5f35564b0cd4fa85ee49ac8010c813f9a8ee70bf09d8b8",
        "sha256_in_prefix": "4448467cc552cb282d5f35564b0cd4fa85ee49ac8010c813f9a8ee70bf09d8b8",
        "size_in_bytes": 799
      },
      {
        "_path": "Lib/site-packages/setuptools/__pycache__/lib2to3_ex.cpython-37.pyc",
        "path_type": "hardlink",
        "sha256": "ecacfe2a38b2ccdeb6f07cb6d9384b809b1e0a23b91f33a8aa6ed1151bad69f4",
        "sha256_in_prefix": "ecacfe2a38b2ccdeb6f07cb6d9384b809b1e0a23b91f33a8aa6ed1151bad69f4",
        "size_in_bytes": 2378
      },
      {
        "_path": "Lib/site-packages/setuptools/__pycache__/monkey.cpython-37.pyc",
        "path_type": "hardlink",
        "sha256": "598bef41bfc8023cdf52b7a3df5b1e8d292b16089ffefedb49c76ab5711662c3",
        "sha256_in_prefix": "598bef41bfc8023cdf52b7a3df5b1e8d292b16089ffefedb49c76ab5711662c3",
        "size_in_bytes": 4501
      },
      {
        "_path": "Lib/site-packages/setuptools/__pycache__/msvc.cpython-37.pyc",
        "path_type": "hardlink",
        "sha256": "0b9b32bb52034bedd37a68d1cfbb019d78aad09bae723c00ffc434e1e3d01051",
        "sha256_in_prefix": "0b9b32bb52034bedd37a68d1cfbb019d78aad09bae723c00ffc434e1e3d01051",
        "size_in_bytes": 34376
      },
      {
        "_path": "Lib/site-packages/setuptools/__pycache__/namespaces.cpython-37.pyc",
        "path_type": "hardlink",
        "sha256": "f27b55394ad9b504a80724adc104ee7048370be2b7781bfd570483720fb63bae",
        "sha256_in_prefix": "f27b55394ad9b504a80724adc104ee7048370be2b7781bfd570483720fb63bae",
        "size_in_bytes": 3557
      },
      {
        "_path": "Lib/site-packages/setuptools/__pycache__/package_index.cpython-37.pyc",
        "path_type": "hardlink",
        "sha256": "84630bbb34102c143cae596726b1ffca1219b2994127963bffc49252fa081340",
        "sha256_in_prefix": "84630bbb34102c143cae596726b1ffca1219b2994127963bffc49252fa081340",
        "size_in_bytes": 32498
      },
      {
        "_path": "Lib/site-packages/setuptools/__pycache__/pep425tags.cpython-37.pyc",
        "path_type": "hardlink",
        "sha256": "d37a1d8abf67522252438e898c75e567ecb6bb3595b49822eb135aacf6e17dd6",
        "sha256_in_prefix": "d37a1d8abf67522252438e898c75e567ecb6bb3595b49822eb135aacf6e17dd6",
        "size_in_bytes": 7148
      },
      {
        "_path": "Lib/site-packages/setuptools/__pycache__/py27compat.cpython-37.pyc",
        "path_type": "hardlink",
        "sha256": "effdbb172135ff166a5deedf55808f96fd2ab42bfc56796a15da4b85ab734ae1",
        "sha256_in_prefix": "effdbb172135ff166a5deedf55808f96fd2ab42bfc56796a15da4b85ab734ae1",
        "size_in_bytes": 756
      },
      {
        "_path": "Lib/site-packages/setuptools/__pycache__/py31compat.cpython-37.pyc",
        "path_type": "hardlink",
        "sha256": "930bb964f994b7f7469a0d1976eaa254b69f5510d133e8a44fada785be894d3f",
        "sha256_in_prefix": "930bb964f994b7f7469a0d1976eaa254b69f5510d133e8a44fada785be894d3f",
        "size_in_bytes": 1142
      },
      {
        "_path": "Lib/site-packages/setuptools/__pycache__/py33compat.cpython-37.pyc",
        "path_type": "hardlink",
        "sha256": "86020131949c34b2198f7fee2a8d497832a89ceab0e7485b701f6d7319301423",
        "sha256_in_prefix": "86020131949c34b2198f7fee2a8d497832a89ceab0e7485b701f6d7319301423",
        "size_in_bytes": 1365
      },
      {
        "_path": "Lib/site-packages/setuptools/__pycache__/py36compat.cpython-37.pyc",
        "path_type": "hardlink",
        "sha256": "5960fe74f5ef84c08f5114fee3e08958cc15934dc23cb7a3df97a546b6313d47",
        "sha256_in_prefix": "5960fe74f5ef84c08f5114fee3e08958cc15934dc23cb7a3df97a546b6313d47",
        "size_in_bytes": 2137
      },
      {
        "_path": "Lib/site-packages/setuptools/__pycache__/sandbox.cpython-37.pyc",
        "path_type": "hardlink",
        "sha256": "569b7ecc1a2008a63ac7ce3f594415742c4a6f43608b0d14c6898f01e14536a9",
        "sha256_in_prefix": "569b7ecc1a2008a63ac7ce3f594415742c4a6f43608b0d14c6898f01e14536a9",
        "size_in_bytes": 15481
      },
      {
        "_path": "Lib/site-packages/setuptools/__pycache__/site-patch.cpython-37.pyc",
        "path_type": "hardlink",
        "sha256": "c50e879adae050a6a0e49f0579b65f8da1990ec9fa216667400e40affe23f0fd",
        "sha256_in_prefix": "c50e879adae050a6a0e49f0579b65f8da1990ec9fa216667400e40affe23f0fd",
        "size_in_bytes": 1447
      },
      {
        "_path": "Lib/site-packages/setuptools/__pycache__/ssl_support.cpython-37.pyc",
        "path_type": "hardlink",
        "sha256": "a4c4c0e050b5c72800e529a3ec08ec626203157bd3668bffe8dc679681749ce1",
        "sha256_in_prefix": "a4c4c0e050b5c72800e529a3ec08ec626203157bd3668bffe8dc679681749ce1",
        "size_in_bytes": 6736
      },
      {
        "_path": "Lib/site-packages/setuptools/__pycache__/unicode_utils.cpython-37.pyc",
        "path_type": "hardlink",
        "sha256": "aca6ea2614ac9546fc0ac28c987bf3ccf6af5f83fecb92d5390f5520101845a5",
        "sha256_in_prefix": "aca6ea2614ac9546fc0ac28c987bf3ccf6af5f83fecb92d5390f5520101845a5",
        "size_in_bytes": 1114
      },
      {
        "_path": "Lib/site-packages/setuptools/__pycache__/version.cpython-37.pyc",
        "path_type": "hardlink",
        "sha256": "c7bba7d9069f039c70f56ded30973c59d63e56d1beee940beaf67393d99c80df",
        "sha256_in_prefix": "c7bba7d9069f039c70f56ded30973c59d63e56d1beee940beaf67393d99c80df",
        "size_in_bytes": 273
      },
      {
        "_path": "Lib/site-packages/setuptools/__pycache__/wheel.cpython-37.pyc",
        "path_type": "hardlink",
        "sha256": "d366aa16326b2503ab47227ef7cd8d11e58ffa5987cd5bc0d4ea31debe714dee",
        "sha256_in_prefix": "d366aa16326b2503ab47227ef7cd8d11e58ffa5987cd5bc0d4ea31debe714dee",
        "size_in_bytes": 6961
      },
      {
        "_path": "Lib/site-packages/setuptools/__pycache__/windows_support.cpython-37.pyc",
        "path_type": "hardlink",
        "sha256": "b159264892bfb2852637d9c560e2b48df676a0596fb0961ece847a287a340169",
        "sha256_in_prefix": "b159264892bfb2852637d9c560e2b48df676a0596fb0961ece847a287a340169",
        "size_in_bytes": 956
      },
      {
        "_path": "Lib/site-packages/setuptools/_vendor/__init__.py",
        "path_type": "hardlink",
        "sha256": "e3b0c44298fc1c149afbf4c8996fb92427ae41e4649b934ca495991b7852b855",
        "sha256_in_prefix": "e3b0c44298fc1c149afbf4c8996fb92427ae41e4649b934ca495991b7852b855",
        "size_in_bytes": 0
      },
      {
        "_path": "Lib/site-packages/setuptools/_vendor/__pycache__/__init__.cpython-37.pyc",
        "path_type": "hardlink",
        "sha256": "b6663fe003cb5c5947837bb6ea5f8e454a6786151a84d4f7dee9e8e283bc89ee",
        "sha256_in_prefix": "b6663fe003cb5c5947837bb6ea5f8e454a6786151a84d4f7dee9e8e283bc89ee",
        "size_in_bytes": 135
      },
      {
        "_path": "Lib/site-packages/setuptools/_vendor/__pycache__/pyparsing.cpython-37.pyc",
        "path_type": "hardlink",
        "sha256": "70b55b9a74694469d4a64d099aab991432ac808d68f7602fb246b5811c4cee71",
        "sha256_in_prefix": "70b55b9a74694469d4a64d099aab991432ac808d68f7602fb246b5811c4cee71",
        "size_in_bytes": 202016
      },
      {
        "_path": "Lib/site-packages/setuptools/_vendor/__pycache__/six.cpython-37.pyc",
        "path_type": "hardlink",
        "sha256": "8708f2547960b29a244633ed98aa9681d4b40a5546ecff19d990918c9ac041c1",
        "sha256_in_prefix": "8708f2547960b29a244633ed98aa9681d4b40a5546ecff19d990918c9ac041c1",
        "size_in_bytes": 24336
      },
      {
        "_path": "Lib/site-packages/setuptools/_vendor/packaging/__about__.py",
        "path_type": "hardlink",
        "sha256": "ce47023d337fe9370b5b436b960d35efaf91d5043f5953d39bcb33d51e3e1e33",
        "sha256_in_prefix": "ce47023d337fe9370b5b436b960d35efaf91d5043f5953d39bcb33d51e3e1e33",
        "size_in_bytes": 720
      },
      {
        "_path": "Lib/site-packages/setuptools/_vendor/packaging/__init__.py",
        "path_type": "hardlink",
        "sha256": "fef35a7394ebcf0b2bcdb38521b17ee5c1ea73f63668f4f60fbceb211d3a04ea",
        "sha256_in_prefix": "fef35a7394ebcf0b2bcdb38521b17ee5c1ea73f63668f4f60fbceb211d3a04ea",
        "size_in_bytes": 513
      },
      {
        "_path": "Lib/site-packages/setuptools/_vendor/packaging/__pycache__/__about__.cpython-37.pyc",
        "path_type": "hardlink",
        "sha256": "5366546b8710f7daeb98d318d53b029624edf4f6945bd9fd8876ae0a11e1c075",
        "sha256_in_prefix": "5366546b8710f7daeb98d318d53b029624edf4f6945bd9fd8876ae0a11e1c075",
        "size_in_bytes": 671
      },
      {
        "_path": "Lib/site-packages/setuptools/_vendor/packaging/__pycache__/__init__.cpython-37.pyc",
        "path_type": "hardlink",
        "sha256": "8375366df13a7ea164a9a4b74f59671efc99918f0f36721028fe223d25df65b6",
        "sha256_in_prefix": "8375366df13a7ea164a9a4b74f59671efc99918f0f36721028fe223d25df65b6",
        "size_in_bytes": 509
      },
      {
        "_path": "Lib/site-packages/setuptools/_vendor/packaging/__pycache__/_compat.cpython-37.pyc",
        "path_type": "hardlink",
        "sha256": "b6e67398e8bf56a94bd4ca57081a557aab65c18ec1ceed9a6b538d8126ad9dd3",
        "sha256_in_prefix": "b6e67398e8bf56a94bd4ca57081a557aab65c18ec1ceed9a6b538d8126ad9dd3",
        "size_in_bytes": 961
      },
      {
        "_path": "Lib/site-packages/setuptools/_vendor/packaging/__pycache__/_structures.cpython-37.pyc",
        "path_type": "hardlink",
        "sha256": "38a6985550b8176ac5ec554b70ecdf8be6e0079cd4a4f4e54aeb2047a3646063",
        "sha256_in_prefix": "38a6985550b8176ac5ec554b70ecdf8be6e0079cd4a4f4e54aeb2047a3646063",
        "size_in_bytes": 2813
      },
      {
        "_path": "Lib/site-packages/setuptools/_vendor/packaging/__pycache__/markers.cpython-37.pyc",
        "path_type": "hardlink",
        "sha256": "bd106a73fa12ceb2e7f6b51908e7b459e87025ca07039211a3d1b8268e71e1b8",
        "sha256_in_prefix": "bd106a73fa12ceb2e7f6b51908e7b459e87025ca07039211a3d1b8268e71e1b8",
        "size_in_bytes": 8818
      },
      {
        "_path": "Lib/site-packages/setuptools/_vendor/packaging/__pycache__/requirements.cpython-37.pyc",
        "path_type": "hardlink",
        "sha256": "0f772145797b2ab941b45cf174d870f6e03031eb9bd8d85b2815445607b921b9",
        "sha256_in_prefix": "0f772145797b2ab941b45cf174d870f6e03031eb9bd8d85b2815445607b921b9",
        "size_in_bytes": 3820
      },
      {
        "_path": "Lib/site-packages/setuptools/_vendor/packaging/__pycache__/specifiers.cpython-37.pyc",
        "path_type": "hardlink",
        "sha256": "0a69040a60e979897944742d195ba364e296ad8607578b59481e077d3483af9b",
        "sha256_in_prefix": "0a69040a60e979897944742d195ba364e296ad8607578b59481e077d3483af9b",
        "size_in_bytes": 19739
      },
      {
        "_path": "Lib/site-packages/setuptools/_vendor/packaging/__pycache__/utils.cpython-37.pyc",
        "path_type": "hardlink",
        "sha256": "93ae7b5b8f19c60294554646bd33f84c07e686abdc09a23c4420a24cd1fe6896",
        "sha256_in_prefix": "93ae7b5b8f19c60294554646bd33f84c07e686abdc09a23c4420a24cd1fe6896",
        "size_in_bytes": 440
      },
      {
        "_path": "Lib/site-packages/setuptools/_vendor/packaging/__pycache__/version.cpython-37.pyc",
        "path_type": "hardlink",
        "sha256": "2faf2538f0777d366cc8353eb2ec5cabf2f101aaa8655dbc4a23cdadffce7448",
        "sha256_in_prefix": "2faf2538f0777d366cc8353eb2ec5cabf2f101aaa8655dbc4a23cdadffce7448",
        "size_in_bytes": 10506
      },
      {
        "_path": "Lib/site-packages/setuptools/_vendor/packaging/_compat.py",
        "path_type": "hardlink",
        "sha256": "562fc0d2b0107876d4f9af57d2db75c909bd46a92041b0d2c73470f16954f640",
        "sha256_in_prefix": "562fc0d2b0107876d4f9af57d2db75c909bd46a92041b0d2c73470f16954f640",
        "size_in_bytes": 860
      },
      {
        "_path": "Lib/site-packages/setuptools/_vendor/packaging/_structures.py",
        "path_type": "hardlink",
        "sha256": "448984089e1cff04e5693618c1960b1c489e6c331a00998ad683c0461c354f9a",
        "sha256_in_prefix": "448984089e1cff04e5693618c1960b1c489e6c331a00998ad683c0461c354f9a",
        "size_in_bytes": 1416
      },
      {
        "_path": "Lib/site-packages/setuptools/_vendor/packaging/markers.py",
        "path_type": "hardlink",
        "sha256": "1afa64f44636d3229a31388a81067cc85104a6876a560558b5f7a4a2273562db",
        "sha256_in_prefix": "1afa64f44636d3229a31388a81067cc85104a6876a560558b5f7a4a2273562db",
        "size_in_bytes": 8239
      },
      {
        "_path": "Lib/site-packages/setuptools/_vendor/packaging/requirements.py",
        "path_type": "hardlink",
        "sha256": "b78e0cd87556b6bf29848cf63a19c82f3b864f7ad30136a8bdcb55d5da675488",
        "sha256_in_prefix": "b78e0cd87556b6bf29848cf63a19c82f3b864f7ad30136a8bdcb55d5da675488",
        "size_in_bytes": 4343
      },
      {
        "_path": "Lib/site-packages/setuptools/_vendor/packaging/specifiers.py",
        "path_type": "hardlink",
        "sha256": "4803117abcceddf2b622415909a664bb065a2ff106a8734ecf8a678b8be19cdd",
        "sha256_in_prefix": "4803117abcceddf2b622415909a664bb065a2ff106a8734ecf8a678b8be19cdd",
        "size_in_bytes": 28025
      },
      {
        "_path": "Lib/site-packages/setuptools/_vendor/packaging/utils.py",
        "path_type": "hardlink",
        "sha256": "de6e96bcf9ba34dc44f2b9131a69f4afbe41fc66521a0ee291a7f11ec04dd560",
        "sha256_in_prefix": "de6e96bcf9ba34dc44f2b9131a69f4afbe41fc66521a0ee291a7f11ec04dd560",
        "size_in_bytes": 421
      },
      {
        "_path": "Lib/site-packages/setuptools/_vendor/packaging/version.py",
        "path_type": "hardlink",
        "sha256": "3b01a7c587ebda084dcd8c79f6a588064acadd29c1ea7f997ddd5768ba679ccd",
        "sha256_in_prefix": "3b01a7c587ebda084dcd8c79f6a588064acadd29c1ea7f997ddd5768ba679ccd",
        "size_in_bytes": 11556
      },
      {
        "_path": "Lib/site-packages/setuptools/_vendor/pyparsing.py",
        "path_type": "hardlink",
        "sha256": "6040e69cedd4a0b936aba7486b8f7f9eb4e36e00b598dd05b9175c25a446b1e3",
        "sha256_in_prefix": "6040e69cedd4a0b936aba7486b8f7f9eb4e36e00b598dd05b9175c25a446b1e3",
        "size_in_bytes": 231039
      },
      {
        "_path": "Lib/site-packages/setuptools/_vendor/six.py",
        "path_type": "hardlink",
        "sha256": "03a85d259563237b7f81e79b67d07352fc11ac85e8d257f0cd094cd8b70ac9ab",
        "sha256_in_prefix": "03a85d259563237b7f81e79b67d07352fc11ac85e8d257f0cd094cd8b70ac9ab",
        "size_in_bytes": 30098
      },
      {
        "_path": "Lib/site-packages/setuptools/archive_util.py",
        "path_type": "hardlink",
        "sha256": "930f086ff94a8c27273ca35b4bb87c1f3b5154ad1de5169c537aff2917559e63",
        "sha256_in_prefix": "930f086ff94a8c27273ca35b4bb87c1f3b5154ad1de5169c537aff2917559e63",
        "size_in_bytes": 6592
      },
      {
        "_path": "Lib/site-packages/setuptools/build_meta.py",
        "path_type": "hardlink",
        "sha256": "814d9d19797d7d9577fe979ff81020413ebdf66aa41aef9799ee8d2ee39e307b",
        "sha256_in_prefix": "814d9d19797d7d9577fe979ff81020413ebdf66aa41aef9799ee8d2ee39e307b",
        "size_in_bytes": 6069
      },
      {
        "_path": "Lib/site-packages/setuptools/cli-32.exe",
        "path_type": "hardlink",
        "sha256": "75f12ea2f30d9c0d872dade345f30f562e6d93847b6a509ba53beec6d0b2c346",
        "sha256_in_prefix": "75f12ea2f30d9c0d872dade345f30f562e6d93847b6a509ba53beec6d0b2c346",
        "size_in_bytes": 65536
      },
      {
        "_path": "Lib/site-packages/setuptools/cli-64.exe",
        "path_type": "hardlink",
        "sha256": "28b001bb9a72ae7a24242bfab248d767a1ac5dec981c672a3944f7a072375e9a",
        "sha256_in_prefix": "28b001bb9a72ae7a24242bfab248d767a1ac5dec981c672a3944f7a072375e9a",
        "size_in_bytes": 74752
      },
      {
        "_path": "Lib/site-packages/setuptools/cli.exe",
        "path_type": "hardlink",
        "sha256": "75f12ea2f30d9c0d872dade345f30f562e6d93847b6a509ba53beec6d0b2c346",
        "sha256_in_prefix": "75f12ea2f30d9c0d872dade345f30f562e6d93847b6a509ba53beec6d0b2c346",
        "size_in_bytes": 65536
      },
      {
        "_path": "Lib/site-packages/setuptools/command/__init__.py",
        "path_type": "hardlink",
        "sha256": "356cc9d00d4111e9e066955ea94c962cd9b66e4e0fdc5e222f941412b1f2ee40",
        "sha256_in_prefix": "356cc9d00d4111e9e066955ea94c962cd9b66e4e0fdc5e222f941412b1f2ee40",
        "size_in_bytes": 594
      },
      {
        "_path": "Lib/site-packages/setuptools/command/__pycache__/__init__.cpython-37.pyc",
        "path_type": "hardlink",
        "sha256": "083cb0f3ab8afe14d4daa8146ac16a73d5abccc198185c052d277b8926f6e868",
        "sha256_in_prefix": "083cb0f3ab8afe14d4daa8146ac16a73d5abccc198185c052d277b8926f6e868",
        "size_in_bytes": 681
      },
      {
        "_path": "Lib/site-packages/setuptools/command/__pycache__/alias.cpython-37.pyc",
        "path_type": "hardlink",
        "sha256": "cef3518e55cf706b237a109110aed23c6e6cf78d6dcabfba7a38c1ebb0b355b4",
        "sha256_in_prefix": "cef3518e55cf706b237a109110aed23c6e6cf78d6dcabfba7a38c1ebb0b355b4",
        "size_in_bytes": 2349
      },
      {
        "_path": "Lib/site-packages/setuptools/command/__pycache__/bdist_egg.cpython-37.pyc",
        "path_type": "hardlink",
        "sha256": "81af1ace6523235696a811f81008eafe5f9a82870c10eb54362914605b6709ae",
        "sha256_in_prefix": "81af1ace6523235696a811f81008eafe5f9a82870c10eb54362914605b6709ae",
        "size_in_bytes": 14137
      },
      {
        "_path": "Lib/site-packages/setuptools/command/__pycache__/bdist_rpm.cpython-37.pyc",
        "path_type": "hardlink",
        "sha256": "930355bd7052e7b8f8485fd6aa524bf43368e1ed180b24584c7e38c8b6c80a7f",
        "sha256_in_prefix": "930355bd7052e7b8f8485fd6aa524bf43368e1ed180b24584c7e38c8b6c80a7f",
        "size_in_bytes": 1728
      },
      {
        "_path": "Lib/site-packages/setuptools/command/__pycache__/bdist_wininst.cpython-37.pyc",
        "path_type": "hardlink",
        "sha256": "d73205b93c7be0b57d00a19b5f2ab7cb150cf51e7486ca5ee1fad3782ad53b46",
        "sha256_in_prefix": "d73205b93c7be0b57d00a19b5f2ab7cb150cf51e7486ca5ee1fad3782ad53b46",
        "size_in_bytes": 919
      },
      {
        "_path": "Lib/site-packages/setuptools/command/__pycache__/build_clib.cpython-37.pyc",
        "path_type": "hardlink",
        "sha256": "d94e19588caacfe06d62941507d9cc8b1b886376275d37702c4486cce2301e08",
        "sha256_in_prefix": "d94e19588caacfe06d62941507d9cc8b1b886376275d37702c4486cce2301e08",
        "size_in_bytes": 2398
      },
      {
        "_path": "Lib/site-packages/setuptools/command/__pycache__/build_ext.cpython-37.pyc",
        "path_type": "hardlink",
        "sha256": "d8f42cc32e311b24fe28e5d8bcd945af7293deabc247ed69d27d1ed575ce7f5f",
        "sha256_in_prefix": "d8f42cc32e311b24fe28e5d8bcd945af7293deabc247ed69d27d1ed575ce7f5f",
        "size_in_bytes": 9652
      },
      {
        "_path": "Lib/site-packages/setuptools/command/__pycache__/build_py.cpython-37.pyc",
        "path_type": "hardlink",
        "sha256": "984ea2bc749355d6db9f585135e38dfb112b452fbb0e75d1901ba2f20f549c6c",
        "sha256_in_prefix": "984ea2bc749355d6db9f585135e38dfb112b452fbb0e75d1901ba2f20f549c6c",
        "size_in_bytes": 8528
      },
      {
        "_path": "Lib/site-packages/setuptools/command/__pycache__/develop.cpython-37.pyc",
        "path_type": "hardlink",
        "sha256": "2cf85a91bee9401a6e4c59eb8f0f15cbd12c504f571b05e8aa673225eb792ca1",
        "sha256_in_prefix": "2cf85a91bee9401a6e4c59eb8f0f15cbd12c504f571b05e8aa673225eb792ca1",
        "size_in_bytes": 6369
      },
      {
        "_path": "Lib/site-packages/setuptools/command/__pycache__/dist_info.cpython-37.pyc",
        "path_type": "hardlink",
        "sha256": "6c47583ced8bdb36e5c6d9815de9382d5dcdc421affecd9ccd1476d2bddb651e",
        "sha256_in_prefix": "6c47583ced8bdb36e5c6d9815de9382d5dcdc421affecd9ccd1476d2bddb651e",
        "size_in_bytes": 1324
      },
      {
        "_path": "Lib/site-packages/setuptools/command/__pycache__/easy_install.cpython-37.pyc",
        "path_type": "hardlink",
        "sha256": "c3f96a229d50ff77d152e44fbbc8863b0549f5c030168e18ae82502a834c5f93",
        "sha256_in_prefix": "c3f96a229d50ff77d152e44fbbc8863b0549f5c030168e18ae82502a834c5f93",
        "size_in_bytes": 64505
      },
      {
        "_path": "Lib/site-packages/setuptools/command/__pycache__/egg_info.cpython-37.pyc",
        "path_type": "hardlink",
        "sha256": "da3de84a2211a3ca1a62a0f6a4a7ae924f3ad69f281315d0f2403b6b455189c5",
        "sha256_in_prefix": "da3de84a2211a3ca1a62a0f6a4a7ae924f3ad69f281315d0f2403b6b455189c5",
        "size_in_bytes": 21231
      },
      {
        "_path": "Lib/site-packages/setuptools/command/__pycache__/install.cpython-37.pyc",
        "path_type": "hardlink",
        "sha256": "64d81784f11b6fe626df5760c77aaf24a2497bc6438255032405cbe1ff9ac101",
        "sha256_in_prefix": "64d81784f11b6fe626df5760c77aaf24a2497bc6438255032405cbe1ff9ac101",
        "size_in_bytes": 3956
      },
      {
        "_path": "Lib/site-packages/setuptools/command/__pycache__/install_egg_info.cpython-37.pyc",
        "path_type": "hardlink",
        "sha256": "78468c17d1c448d59a35f4196b82281b33c7c647583bc475515c18e46261fc1a",
        "sha256_in_prefix": "78468c17d1c448d59a35f4196b82281b33c7c647583bc475515c18e46261fc1a",
        "size_in_bytes": 2357
      },
      {
        "_path": "Lib/site-packages/setuptools/command/__pycache__/install_lib.cpython-37.pyc",
        "path_type": "hardlink",
        "sha256": "accbb2c80eaf1aea43eb33bd098d786b4cd4b1774bbc5caacceb0bca5cc40f34",
        "sha256_in_prefix": "accbb2c80eaf1aea43eb33bd098d786b4cd4b1774bbc5caacceb0bca5cc40f34",
        "size_in_bytes": 4033
      },
      {
        "_path": "Lib/site-packages/setuptools/command/__pycache__/install_scripts.cpython-37.pyc",
        "path_type": "hardlink",
        "sha256": "76efa046d6d98b79f43cd57958dbeb63122b14280d03e308fba9454fd910fe77",
        "sha256_in_prefix": "76efa046d6d98b79f43cd57958dbeb63122b14280d03e308fba9454fd910fe77",
        "size_in_bytes": 2236
      },
      {
        "_path": "Lib/site-packages/setuptools/command/__pycache__/py36compat.cpython-37.pyc",
        "path_type": "hardlink",
        "sha256": "f280b17d5538709615c8d90c6b2d8b251d1477d1e1f79c1d4aaa56c207426466",
        "sha256_in_prefix": "f280b17d5538709615c8d90c6b2d8b251d1477d1e1f79c1d4aaa56c207426466",
        "size_in_bytes": 4569
      },
      {
        "_path": "Lib/site-packages/setuptools/command/__pycache__/register.cpython-37.pyc",
        "path_type": "hardlink",
        "sha256": "8bb36688d139fb7ef6bf4aa100cca87f932e31c13875f7ac4913f56f8cf64c82",
        "sha256_in_prefix": "8bb36688d139fb7ef6bf4aa100cca87f932e31c13875f7ac4913f56f8cf64c82",
        "size_in_bytes": 726
      },
      {
        "_path": "Lib/site-packages/setuptools/command/__pycache__/rotate.cpython-37.pyc",
        "path_type": "hardlink",
        "sha256": "25021beaecc247124c29d6530d904e21ee4aee4b10530cca6716231f767a78cb",
        "sha256_in_prefix": "25021beaecc247124c29d6530d904e21ee4aee4b10530cca6716231f767a78cb",
        "size_in_bytes": 2475
      },
      {
        "_path": "Lib/site-packages/setuptools/command/__pycache__/saveopts.cpython-37.pyc",
        "path_type": "hardlink",
        "sha256": "d0f47438c4257081e5a082edd89ffa06807f8297720cf089a71d3f1dac8e7d96",
        "sha256_in_prefix": "d0f47438c4257081e5a082edd89ffa06807f8297720cf089a71d3f1dac8e7d96",
        "size_in_bytes": 870
      },
      {
        "_path": "Lib/site-packages/setuptools/command/__pycache__/sdist.cpython-37.pyc",
        "path_type": "hardlink",
        "sha256": "9a0ff0517482d9e9f109e28bec61c43a48c5be809041281c2c942d00298d4f9d",
        "sha256_in_prefix": "9a0ff0517482d9e9f109e28bec61c43a48c5be809041281c2c942d00298d4f9d",
        "size_in_bytes": 6166
      },
      {
        "_path": "Lib/site-packages/setuptools/command/__pycache__/setopt.cpython-37.pyc",
        "path_type": "hardlink",
        "sha256": "aad0a8d29c900b5ab2c2ec6592f7338d1057786d92ae9ed78bf737ca304a2bb5",
        "sha256_in_prefix": "aad0a8d29c900b5ab2c2ec6592f7338d1057786d92ae9ed78bf737ca304a2bb5",
        "size_in_bytes": 4468
      },
      {
        "_path": "Lib/site-packages/setuptools/command/__pycache__/test.cpython-37.pyc",
        "path_type": "hardlink",
        "sha256": "aa1fef307e735d8a49ca77aa3b37dad9da928e138ab9fff7f726a513ce42e0a0",
        "sha256_in_prefix": "aa1fef307e735d8a49ca77aa3b37dad9da928e138ab9fff7f726a513ce42e0a0",
        "size_in_bytes": 8063
      },
      {
        "_path": "Lib/site-packages/setuptools/command/__pycache__/upload.cpython-37.pyc",
        "path_type": "hardlink",
        "sha256": "5e099599125f00228500d1254e6a44fafd88470915390e95ccccd38c3cd3db6d",
        "sha256_in_prefix": "5e099599125f00228500d1254e6a44fafd88470915390e95ccccd38c3cd3db6d",
        "size_in_bytes": 1660
      },
      {
        "_path": "Lib/site-packages/setuptools/command/__pycache__/upload_docs.cpython-37.pyc",
        "path_type": "hardlink",
        "sha256": "00b0292d89c234b431402ffc9a189a4bc1a6dcb7ae76167f4c7d4ee18a074141",
        "sha256_in_prefix": "00b0292d89c234b431402ffc9a189a4bc1a6dcb7ae76167f4c7d4ee18a074141",
        "size_in_bytes": 6079
      },
      {
        "_path": "Lib/site-packages/setuptools/command/alias.py",
        "path_type": "hardlink",
        "sha256": "2a3a44d2ccff483207bf77e965c2102beb02909cfe4ab0ba1a6ba0e9bf4d91cf",
        "sha256_in_prefix": "2a3a44d2ccff483207bf77e965c2102beb02909cfe4ab0ba1a6ba0e9bf4d91cf",
        "size_in_bytes": 2426
      },
      {
        "_path": "Lib/site-packages/setuptools/command/bdist_egg.py",
        "path_type": "hardlink",
        "sha256": "6def88069af5ce14bd8ba1a328034983391b1f70a122675663b4be8f4af604af",
        "sha256_in_prefix": "6def88069af5ce14bd8ba1a328034983391b1f70a122675663b4be8f4af604af",
        "size_in_bytes": 18167
      },
      {
        "_path": "Lib/site-packages/setuptools/command/bdist_rpm.py",
        "path_type": "hardlink",
        "sha256": "07b9744e7cc219bfb49cb966eab4b4d2358b9288c04b05667615b6c39433fc09",
        "sha256_in_prefix": "07b9744e7cc219bfb49cb966eab4b4d2358b9288c04b05667615b6c39433fc09",
        "size_in_bytes": 1508
      },
      {
        "_path": "Lib/site-packages/setuptools/command/bdist_wininst.py",
        "path_type": "hardlink",
        "sha256": "ffa773de5a41d6d636d342f128f2cceea8304c271e38c81a58517e8d6dbea66d",
        "sha256_in_prefix": "ffa773de5a41d6d636d342f128f2cceea8304c271e38c81a58517e8d6dbea66d",
        "size_in_bytes": 637
      },
      {
        "_path": "Lib/site-packages/setuptools/command/build_clib.py",
        "path_type": "hardlink",
        "sha256": "6d0f5a06bfb96523bef5f1ac1ac0cbcf49a79c5b5e1d46677ed54b921bc70ead",
        "sha256_in_prefix": "6d0f5a06bfb96523bef5f1ac1ac0cbcf49a79c5b5e1d46677ed54b921bc70ead",
        "size_in_bytes": 4484
      },
      {
        "_path": "Lib/site-packages/setuptools/command/build_ext.py",
        "path_type": "hardlink",
        "sha256": "f3509382caa3063365fc73a0089d65439befd4d20cdd1069728546a6a4f83753",
        "sha256_in_prefix": "f3509382caa3063365fc73a0089d65439befd4d20cdd1069728546a6a4f83753",
        "size_in_bytes": 12897
      },
      {
        "_path": "Lib/site-packages/setuptools/command/build_py.py",
        "path_type": "hardlink",
        "sha256": "c96c9869a4bd177a3d25b21cce7d3ae00e60d42e7f5222910f119a4ea61bb4b1",
        "sha256_in_prefix": "c96c9869a4bd177a3d25b21cce7d3ae00e60d42e7f5222910f119a4ea61bb4b1",
        "size_in_bytes": 9596
      },
      {
        "_path": "Lib/site-packages/setuptools/command/develop.py",
        "path_type": "hardlink",
        "sha256": "4a5d6230e3916c09e9e41aa25e6c8c043d2ebaf1278527ce0aa6f120f46224f7",
        "sha256_in_prefix": "4a5d6230e3916c09e9e41aa25e6c8c043d2ebaf1278527ce0aa6f120f46224f7",
        "size_in_bytes": 8060
      },
      {
        "_path": "Lib/site-packages/setuptools/command/dist_info.py",
        "path_type": "hardlink",
        "sha256": "e6dea439fadd8002d3f8fde882cb3a3c5f64f8b7b27acb9ec9cba4ddd5326672",
        "sha256_in_prefix": "e6dea439fadd8002d3f8fde882cb3a3c5f64f8b7b27acb9ec9cba4ddd5326672",
        "size_in_bytes": 960
      },
      {
        "_path": "Lib/site-packages/setuptools/command/easy_install.py",
        "path_type": "hardlink",
        "sha256": "80a7446a6bd82e59f80601ee9128f3684a026dd120e865ce9a5b4f7ad7a24a62",
        "sha256_in_prefix": "80a7446a6bd82e59f80601ee9128f3684a026dd120e865ce9a5b4f7ad7a24a62",
        "size_in_bytes": 87050
      },
      {
        "_path": "Lib/site-packages/setuptools/command/egg_info.py",
        "path_type": "hardlink",
        "sha256": "64accc1d4cdedb1314bd1152c2c27f6daf5c9d3d0a180437335dcc87a993ac00",
        "sha256_in_prefix": "64accc1d4cdedb1314bd1152c2c27f6daf5c9d3d0a180437335dcc87a993ac00",
        "size_in_bytes": 25047
      },
      {
        "_path": "Lib/site-packages/setuptools/command/install.py",
        "path_type": "hardlink",
        "sha256": "6b4119a4bfc0f3ae8a11d86271319bbb20ff4d8975b3291fcddaeb8becdacd3e",
        "sha256_in_prefix": "6b4119a4bfc0f3ae8a11d86271319bbb20ff4d8975b3291fcddaeb8becdacd3e",
        "size_in_bytes": 4683
      },
      {
        "_path": "Lib/site-packages/setuptools/command/install_egg_info.py",
        "path_type": "hardlink",
        "sha256": "6cc81e21e4625f34380c018f575df6f24723c108c78ce594e059e00162d5efc4",
        "sha256_in_prefix": "6cc81e21e4625f34380c018f575df6f24723c108c78ce594e059e00162d5efc4",
        "size_in_bytes": 2203
      },
      {
        "_path": "Lib/site-packages/setuptools/command/install_lib.py",
        "path_type": "hardlink",
        "sha256": "d759b17f40a1d7636cb98c12f0f1f05c146fca1ebbd5000ce1c4d187b7a9cc6d",
        "sha256_in_prefix": "d759b17f40a1d7636cb98c12f0f1f05c146fca1ebbd5000ce1c4d187b7a9cc6d",
        "size_in_bytes": 3840
      },
      {
        "_path": "Lib/site-packages/setuptools/command/install_scripts.py",
        "path_type": "hardlink",
        "sha256": "503d2b119ebceb599362121dcdcb2a2a7525f0fa33a1c5d697d5414355535a77",
        "sha256_in_prefix": "503d2b119ebceb599362121dcdcb2a2a7525f0fa33a1c5d697d5414355535a77",
        "size_in_bytes": 2439
      },
      {
        "_path": "Lib/site-packages/setuptools/command/launcher manifest.xml",
        "path_type": "hardlink",
        "sha256": "c652db8d6ac1d35b4a0b4fa195590e2a48923dbccc9a5d9e38fb49fee7029db1",
        "sha256_in_prefix": "c652db8d6ac1d35b4a0b4fa195590e2a48923dbccc9a5d9e38fb49fee7029db1",
        "size_in_bytes": 628
      },
      {
        "_path": "Lib/site-packages/setuptools/command/py36compat.py",
        "path_type": "hardlink",
        "sha256": "4b38d970ec45ef3745513e3b66fda7ec03371fc9280f2b3fd0ea52fa7f6021f7",
        "sha256_in_prefix": "4b38d970ec45ef3745513e3b66fda7ec03371fc9280f2b3fd0ea52fa7f6021f7",
        "size_in_bytes": 4986
      },
      {
        "_path": "Lib/site-packages/setuptools/command/register.py",
        "path_type": "hardlink",
        "sha256": "2cedccbd828f13c74dd66f8a92b0511c2ebc645a0fbc0fef23c5e0a7bbefeb32",
        "sha256_in_prefix": "2cedccbd828f13c74dd66f8a92b0511c2ebc645a0fbc0fef23c5e0a7bbefeb32",
        "size_in_bytes": 534
      },
      {
        "_path": "Lib/site-packages/setuptools/command/rotate.py",
        "path_type": "hardlink",
        "sha256": "728e42d44908ecfd06193e93ab3f93d92223d8b0494d95d810ba666a8e9de0a4",
        "sha256_in_prefix": "728e42d44908ecfd06193e93ab3f93d92223d8b0494d95d810ba666a8e9de0a4",
        "size_in_bytes": 2164
      },
      {
        "_path": "Lib/site-packages/setuptools/command/saveopts.py",
        "path_type": "hardlink",
        "sha256": "cdaed00817108a628aae259ca0271b8713e3533df481207be33b932f8ef1a4fe",
        "sha256_in_prefix": "cdaed00817108a628aae259ca0271b8713e3533df481207be33b932f8ef1a4fe",
        "size_in_bytes": 658
      },
      {
        "_path": "Lib/site-packages/setuptools/command/sdist.py",
        "path_type": "hardlink",
        "sha256": "a1b0d37b60665add8f96714f65987b7b42d6bde984b1b0823bd33386b4d98e6f",
        "sha256_in_prefix": "a1b0d37b60665add8f96714f65987b7b42d6bde984b1b0823bd33386b4d98e6f",
        "size_in_bytes": 6711
      },
      {
        "_path": "Lib/site-packages/setuptools/command/setopt.py",
        "path_type": "hardlink",
        "sha256": "353583cb1fa08c317eb717f874ee7beececb3b31d5a0a47432adf7ac5c5a46bf",
        "sha256_in_prefix": "353583cb1fa08c317eb717f874ee7beececb3b31d5a0a47432adf7ac5c5a46bf",
        "size_in_bytes": 5085
      },
      {
        "_path": "Lib/site-packages/setuptools/command/test.py",
        "path_type": "hardlink",
        "sha256": "7d29793ac6564a6151dd0251bf2cb63b16dc624b8890fbf291634e845bc07140",
        "sha256_in_prefix": "7d29793ac6564a6151dd0251bf2cb63b16dc624b8890fbf291634e845bc07140",
        "size_in_bytes": 9228
      },
      {
        "_path": "Lib/site-packages/setuptools/command/upload.py",
        "path_type": "hardlink",
        "sha256": "ba792d968f1fab1f325d4ec5e612a4b213614151b5b5320ddce6c3f44443d0a1",
        "sha256_in_prefix": "ba792d968f1fab1f325d4ec5e612a4b213614151b5b5320ddce6c3f44443d0a1",
        "size_in_bytes": 1493
      },
      {
        "_path": "Lib/site-packages/setuptools/command/upload_docs.py",
        "path_type": "hardlink",
        "sha256": "a17886a6533f71428bc04e02596c3df11cc2b9f02ef2d061302f7b19e805726b",
        "sha256_in_prefix": "a17886a6533f71428bc04e02596c3df11cc2b9f02ef2d061302f7b19e805726b",
        "size_in_bytes": 7311
      },
      {
        "_path": "Lib/site-packages/setuptools/config.py",
        "path_type": "hardlink",
        "sha256": "dc1cbeb4ab52656b51d3adf080fc6dc1dacf32089f7931f53c15dff27da8098c",
        "sha256_in_prefix": "dc1cbeb4ab52656b51d3adf080fc6dc1dacf32089f7931f53c15dff27da8098c",
        "size_in_bytes": 18383
      },
      {
        "_path": "Lib/site-packages/setuptools/dep_util.py",
        "path_type": "hardlink",
        "sha256": "7e08b1bc2d51eec1f7af5de4b727fb3741402e8a845cbd5c05aae6369484a168",
        "sha256_in_prefix": "7e08b1bc2d51eec1f7af5de4b727fb3741402e8a845cbd5c05aae6369484a168",
        "size_in_bytes": 935
      },
      {
        "_path": "Lib/site-packages/setuptools/depends.py",
        "path_type": "hardlink",
        "sha256": "842f1020370cdd50e9457bd1540e8e7cbf406907f1be1c4770dff0eac03236af",
        "sha256_in_prefix": "842f1020370cdd50e9457bd1540e8e7cbf406907f1be1c4770dff0eac03236af",
        "size_in_bytes": 5837
      },
      {
        "_path": "Lib/site-packages/setuptools/dist.py",
        "path_type": "hardlink",
        "sha256": "d63de4b8d10669a0335b3d222d622dc7388dc894d90bc3207137cc67853859eb",
        "sha256_in_prefix": "d63de4b8d10669a0335b3d222d622dc7388dc894d90bc3207137cc67853859eb",
        "size_in_bytes": 42613
      },
      {
        "_path": "Lib/site-packages/setuptools/extension.py",
        "path_type": "hardlink",
        "sha256": "b9cea71c8f8cc7098d08d3db522067c9b4b2aa1a49aa36e1bce43e7a676fb7f1",
        "sha256_in_prefix": "b9cea71c8f8cc7098d08d3db522067c9b4b2aa1a49aa36e1bce43e7a676fb7f1",
        "size_in_bytes": 1729
      },
      {
        "_path": "Lib/site-packages/setuptools/extern/__init__.py",
        "path_type": "hardlink",
        "sha256": "4f178d2853127c1333069043887c7c0e1dd1cec7559af59a5e1b59d370d932cd",
        "sha256_in_prefix": "4f178d2853127c1333069043887c7c0e1dd1cec7559af59a5e1b59d370d932cd",
        "size_in_bytes": 2499
      },
      {
        "_path": "Lib/site-packages/setuptools/extern/__pycache__/__init__.cpython-37.pyc",
        "path_type": "hardlink",
        "sha256": "59477e5dcdd71261f993039f43cf3d9cd232f5c002d55f4e3a8b772a95c70162",
        "sha256_in_prefix": "59477e5dcdd71261f993039f43cf3d9cd232f5c002d55f4e3a8b772a95c70162",
        "size_in_bytes": 2358
      },
      {
        "_path": "Lib/site-packages/setuptools/glibc.py",
        "path_type": "hardlink",
        "sha256": "5fae15bc63cbd806d444ac1846c5893975c60183a217fbf6aa2c5e4e40142ee5",
        "sha256_in_prefix": "5fae15bc63cbd806d444ac1846c5893975c60183a217fbf6aa2c5e4e40142ee5",
        "size_in_bytes": 3146
      },
      {
        "_path": "Lib/site-packages/setuptools/glob.py",
        "path_type": "hardlink",
        "sha256": "63e7e9bfcc1d1d9ceff433c2686002a4c481589e9a9aaff57b447f8bcfde978c",
        "sha256_in_prefix": "63e7e9bfcc1d1d9ceff433c2686002a4c481589e9a9aaff57b447f8bcfde978c",
        "size_in_bytes": 5207
      },
      {
        "_path": "Lib/site-packages/setuptools/gui-32.exe",
        "path_type": "hardlink",
        "sha256": "5c1af46c7300e87a73dacf6cf41ce397e3f05df6bd9c7e227b4ac59f85769160",
        "sha256_in_prefix": "5c1af46c7300e87a73dacf6cf41ce397e3f05df6bd9c7e227b4ac59f85769160",
        "size_in_bytes": 65536
      },
      {
        "_path": "Lib/site-packages/setuptools/gui-64.exe",
        "path_type": "hardlink",
        "sha256": "69828c857d4824b9f850b1e0597d2c134c91114b7a0774c41dffe33b0eb23721",
        "sha256_in_prefix": "69828c857d4824b9f850b1e0597d2c134c91114b7a0774c41dffe33b0eb23721",
        "size_in_bytes": 75264
      },
      {
        "_path": "Lib/site-packages/setuptools/gui.exe",
        "path_type": "hardlink",
        "sha256": "5c1af46c7300e87a73dacf6cf41ce397e3f05df6bd9c7e227b4ac59f85769160",
        "sha256_in_prefix": "5c1af46c7300e87a73dacf6cf41ce397e3f05df6bd9c7e227b4ac59f85769160",
        "size_in_bytes": 65536
      },
      {
        "_path": "Lib/site-packages/setuptools/launch.py",
        "path_type": "hardlink",
        "sha256": "b1dede8f0841a1c083c7fc06f6b22cd0e699f07b6698553c642e8847f4b42ef8",
        "sha256_in_prefix": "b1dede8f0841a1c083c7fc06f6b22cd0e699f07b6698553c642e8847f4b42ef8",
        "size_in_bytes": 787
      },
      {
        "_path": "Lib/site-packages/setuptools/lib2to3_ex.py",
        "path_type": "hardlink",
        "sha256": "b797b5da16d1da98bd5787b35834c1e0933e0084949c63a499c9d81de937c638",
        "sha256_in_prefix": "b797b5da16d1da98bd5787b35834c1e0933e0084949c63a499c9d81de937c638",
        "size_in_bytes": 2013
      },
      {
        "_path": "Lib/site-packages/setuptools/monkey.py",
        "path_type": "hardlink",
        "sha256": "fd62582e1cfd161c2fa45e5d0d02a372c89798ebc7d2d6f9d6eb7945d0f98b87",
        "sha256_in_prefix": "fd62582e1cfd161c2fa45e5d0d02a372c89798ebc7d2d6f9d6eb7945d0f98b87",
        "size_in_bytes": 5204
      },
      {
        "_path": "Lib/site-packages/setuptools/msvc.py",
        "path_type": "hardlink",
        "sha256": "bae445699ce326de45bf7666c8a514b8bb63c75dbff06f5120b8a019e7388ab2",
        "sha256_in_prefix": "bae445699ce326de45bf7666c8a514b8bb63c75dbff06f5120b8a019e7388ab2",
        "size_in_bytes": 40838
      },
      {
        "_path": "Lib/site-packages/setuptools/namespaces.py",
        "path_type": "hardlink",
        "sha256": "17436b6eff0a093d8eaceeebc1ad37a26e0de0664a0259dc7beaebf9c80341af",
        "sha256_in_prefix": "17436b6eff0a093d8eaceeebc1ad37a26e0de0664a0259dc7beaebf9c80341af",
        "size_in_bytes": 3199
      },
      {
        "_path": "Lib/site-packages/setuptools/package_index.py",
        "path_type": "hardlink",
        "sha256": "b6e3d620cef6cb46039671402f3e6db68279a07440fc471173797be7b80bf52b",
        "sha256_in_prefix": "b6e3d620cef6cb46039671402f3e6db68279a07440fc471173797be7b80bf52b",
        "size_in_bytes": 40530
      },
      {
        "_path": "Lib/site-packages/setuptools/pep425tags.py",
        "path_type": "hardlink",
        "sha256": "6d21b09726dc229b2cc7d900bff86a0142737c4a574b3611a76bbe9c360f75b9",
        "sha256_in_prefix": "6d21b09726dc229b2cc7d900bff86a0142737c4a574b3611a76bbe9c360f75b9",
        "size_in_bytes": 10862
      },
      {
        "_path": "Lib/site-packages/setuptools/py27compat.py",
        "path_type": "hardlink",
        "sha256": "de6c3144c0e4e50e4ed6b49738445b4035e116ac032618548ad7cc5bfaa9502a",
        "sha256_in_prefix": "de6c3144c0e4e50e4ed6b49738445b4035e116ac032618548ad7cc5bfaa9502a",
        "size_in_bytes": 536
      },
      {
        "_path": "Lib/site-packages/setuptools/py31compat.py",
        "path_type": "hardlink",
        "sha256": "444beb50189b50782a23d4bec30d02f5b854fa7f0fc9a43c4a5af5fcd47169a1",
        "sha256_in_prefix": "444beb50189b50782a23d4bec30d02f5b854fa7f0fc9a43c4a5af5fcd47169a1",
        "size_in_bytes": 820
      },
      {
        "_path": "Lib/site-packages/setuptools/py33compat.py",
        "path_type": "hardlink",
        "sha256": "3ae6e395d1c91f528613508ab7591153e439e6479fb474f779ad58a0bd1949ca",
        "sha256_in_prefix": "3ae6e395d1c91f528613508ab7591153e439e6479fb474f779ad58a0bd1949ca",
        "size_in_bytes": 1195
      },
      {
        "_path": "Lib/site-packages/setuptools/py36compat.py",
        "path_type": "hardlink",
        "sha256": "5540d6c66bb9aede101e519346d005bba5b98ef7cbe960637830337a8072d0e3",
        "sha256_in_prefix": "5540d6c66bb9aede101e519346d005bba5b98ef7cbe960637830337a8072d0e3",
        "size_in_bytes": 2891
      },
      {
        "_path": "Lib/site-packages/setuptools/sandbox.py",
        "path_type": "hardlink",
        "sha256": "f546f07c42f9418e37ea8308d4bb455a8861a19f94cf01ef1b2663507fea864c",
        "sha256_in_prefix": "f546f07c42f9418e37ea8308d4bb455a8861a19f94cf01ef1b2663507fea864c",
        "size_in_bytes": 14276
      },
      {
        "_path": "Lib/site-packages/setuptools/script (dev).tmpl",
        "path_type": "hardlink",
        "sha256": "454cd0cc2414697b7074bb581d661b21098e6844b906baaad45bd403fb6efb92",
        "sha256_in_prefix": "454cd0cc2414697b7074bb581d661b21098e6844b906baaad45bd403fb6efb92",
        "size_in_bytes": 218
      },
      {
        "_path": "Lib/site-packages/setuptools/script.tmpl",
        "path_type": "hardlink",
        "sha256": "5864ede6989eccedbb73e0dbc7a9794384f715fdb4039cfbf3bda1bf76808586",
        "sha256_in_prefix": "5864ede6989eccedbb73e0dbc7a9794384f715fdb4039cfbf3bda1bf76808586",
        "size_in_bytes": 138
      },
      {
        "_path": "Lib/site-packages/setuptools/site-patch.py",
        "path_type": "hardlink",
        "sha256": "3ae9a420732ea127a74525b5dfcda4296235540c31344f3a1395bc883777e056",
        "sha256_in_prefix": "3ae9a420732ea127a74525b5dfcda4296235540c31344f3a1395bc883777e056",
        "size_in_bytes": 2302
      },
      {
        "_path": "Lib/site-packages/setuptools/ssl_support.py",
        "path_type": "hardlink",
        "sha256": "6010c9b026634a9eb60968f19929247bd927f6b8471e3db90aeb3ace12515b77",
        "sha256_in_prefix": "6010c9b026634a9eb60968f19929247bd927f6b8471e3db90aeb3ace12515b77",
        "size_in_bytes": 8492
      },
      {
        "_path": "Lib/site-packages/setuptools/unicode_utils.py",
        "path_type": "hardlink",
        "sha256": "34e899ff9843ef603ac3ee30563f1ac0714cde7e752a6c3521cfefc75e5716ac",
        "sha256_in_prefix": "34e899ff9843ef603ac3ee30563f1ac0714cde7e752a6c3521cfefc75e5716ac",
        "size_in_bytes": 996
      },
      {
        "_path": "Lib/site-packages/setuptools/version.py",
        "path_type": "hardlink",
        "sha256": "a20fdcb9941bd1023aba429915f6563e5af51e02413cf9f6bceda6fdb23d6531",
        "sha256_in_prefix": "a20fdcb9941bd1023aba429915f6563e5af51e02413cf9f6bceda6fdb23d6531",
        "size_in_bytes": 144
      },
      {
        "_path": "Lib/site-packages/setuptools/wheel.py",
        "path_type": "hardlink",
        "sha256": "03c84a4aa1d667928cd3e54ffc3b69b71a4cc5517da50c235997071a4971ab6a",
        "sha256_in_prefix": "03c84a4aa1d667928cd3e54ffc3b69b71a4cc5517da50c235997071a4971ab6a",
        "size_in_bytes": 8102
      },
      {
        "_path": "Lib/site-packages/setuptools/windows_support.py",
        "path_type": "hardlink",
        "sha256": "e46adfa923f6f9d2c6268653ab683a7422a4c90c716b69f92108979490a86041",
        "sha256_in_prefix": "e46adfa923f6f9d2c6268653ab683a7422a4c90c716b69f92108979490a86041",
        "size_in_bytes": 714
      },
      {
        "_path": "Scripts/easy_install-script.py",
        "path_type": "hardlink",
        "sha256": "faaf3209366cd175a77979bb1fffd70320cf58df3e5d59b8b3e9aa59276369d6",
        "sha256_in_prefix": "faaf3209366cd175a77979bb1fffd70320cf58df3e5d59b8b3e9aa59276369d6",
        "size_in_bytes": 225
      },
      {
        "_path": "Scripts/easy_install.exe",
        "path_type": "hardlink",
        "sha256": "993203a406e04936a07829b1f482fd27d739b640482e213f4c49ea1ee78a5fcf",
        "sha256_in_prefix": "993203a406e04936a07829b1f482fd27d739b640482e213f4c49ea1ee78a5fcf",
        "size_in_bytes": 40960
      }
    ],
    "paths_version": 1
  },
  "platform": "win32",
  "requested_spec": "setuptools==40.2.0=py37_0",
  "size": 588977,
  "subdir": "win-64",
  "timestamp": 1535392103305,
  "track_features": "",
  "url": "https://repo.anaconda.com/pkgs/main/win-64/setuptools-40.2.0-py37_0.tar.bz2",
  "version": "40.2.0"
}