{
  "arch": "x86_64",
  "build": "py37_1",
  "build_number": 1,
  "channel": "https://repo.anaconda.com/pkgs/main/win-64",
  "constrains": [],
  "depends": [
    "python >=3.7,<3.8.0a0"
  ],
  "extracted_package_dir": "C:\\Users\\NelsonRibeiro\\Desktop\\Miniconda3\\pkgs\\six-1.11.0-py37_1",
  "features": "",
  "files": [
    "Lib/site-packages/__pycache__/six.cpython-37.pyc",
    "Lib/site-packages/six-1.11.0-py3.7.egg-info/PKG-INFO",
    "Lib/site-packages/six-1.11.0-py3.7.egg-info/SOURCES.txt",
    "Lib/site-packages/six-1.11.0-py3.7.egg-info/dependency_links.txt",
    "Lib/site-packages/six-1.11.0-py3.7.egg-info/top_level.txt",
    "Lib/site-packages/six.py"
  ],
  "fn": "six-1.11.0-py37_1.tar.bz2",
  "license": "MIT",
  "license_family": "MIT",
  "link": {
    "source": "C:\\Users\\NelsonRibeiro\\Desktop\\Miniconda3\\pkgs\\six-1.11.0-py37_1",
    "type": 1
  },
  "md5": "435aef93d101e41414f86ec745eb1ac9",
  "name": "six",
  "package_tarball_full_path": "C:\\Users\\NelsonRibeiro\\Desktop\\Miniconda3\\pkgs\\six-1.11.0-py37_1.tar.bz2",
  "paths_data": {
    "paths": [
      {
        "_path": "Lib/site-packages/__pycache__/six.cpython-37.pyc",
        "path_type": "hardlink",
        "sha256": "48e139677c583f2b27f08ad851bd27ce01bda7fcb367d65172a3e6a79fcd08ec",
        "sha256_in_prefix": "48e139677c583f2b27f08ad851bd27ce01bda7fcb367d65172a3e6a79fcd08ec",
        "size_in_bytes": 24927
      },
      {
        "_path": "Lib/site-packages/six-1.11.0-py3.7.egg-info/PKG-INFO",
        "path_type": "hardlink",
        "sha256": "3b65a99aea65ceca66aaca50a28a8da4c2bab855683ecdab0653c31b6a5dbb87",
        "sha256_in_prefix": "3b65a99aea65ceca66aaca50a28a8da4c2bab855683ecdab0653c31b6a5dbb87",
        "size_in_bytes": 1859
      },
      {
        "_path": "Lib/site-packages/six-1.11.0-py3.7.egg-info/SOURCES.txt",
        "path_type": "hardlink",
        "sha256": "0e5cf78d9cf118b109b87e8640636cebaedaa7bdc22a3be9fd6fcbe8ea43dc8e",
        "sha256_in_prefix": "0e5cf78d9cf118b109b87e8640636cebaedaa7bdc22a3be9fd6fcbe8ea43dc8e",
        "size_in_bytes": 253
      },
      {
        "_path": "Lib/site-packages/six-1.11.0-py3.7.egg-info/dependency_links.txt",
        "path_type": "hardlink",
        "sha256": "01ba4719c80b6fe911b091a7c05124b64eeece964e09c058ef8f9805daca546b",
        "sha256_in_prefix": "01ba4719c80b6fe911b091a7c05124b64eeece964e09c058ef8f9805daca546b",
        "size_in_bytes": 1
      },
      {
        "_path": "Lib/site-packages/six-1.11.0-py3.7.egg-info/top_level.txt",
        "path_type": "hardlink",
        "sha256": "fe2547fe2604b445e70fc9d819062960552f9145bdb043b51986e478a4806a2b",
        "sha256_in_prefix": "fe2547fe2604b445e70fc9d819062960552f9145bdb043b51986e478a4806a2b",
        "size_in_bytes": 4
      },
      {
        "_path": "Lib/site-packages/six.py",
        "path_type": "hardlink",
        "sha256": "034f0c3dbf868bd15f227237216ec78a65c59841f64f620fcc7803bdd8593d10",
        "sha256_in_prefix": "034f0c3dbf868bd15f227237216ec78a65c59841f64f620fcc7803bdd8593d10",
        "size_in_bytes": 30888
      }
    ],
    "paths_version": 1
  },
  "platform": "win32",
  "requested_spec": "six==1.11.0=py37_1",
  "size": 21390,
  "subdir": "win-64",
  "timestamp": 1531143898548,
  "track_features": "",
  "url": "https://repo.anaconda.com/pkgs/main/win-64/six-1.11.0-py37_1.tar.bz2",
  "version": "1.11.0"
}