{
  "arch": "x86_64",
  "build": "py37_0",
  "build_number": 0,
  "channel": "https://repo.anaconda.com/pkgs/main/win-64",
  "constrains": [],
  "depends": [
    "certifi",
    "cryptography >=1.3.4",
    "idna >=2.0.0",
    "pyopenssl >=0.14",
    "pysocks >=1.5.6,<2.0,!=1.5.7",
    "python >=3.7,<3.8.0a0"
  ],
  "extracted_package_dir": "C:\\Users\\NelsonRibeiro\\Desktop\\Miniconda3\\pkgs\\urllib3-1.23-py37_0",
  "features": "",
  "files": [
    "Lib/site-packages/urllib3-1.23-py3.7.egg-info/PKG-INFO",
    "Lib/site-packages/urllib3-1.23-py3.7.egg-info/SOURCES.txt",
    "Lib/site-packages/urllib3-1.23-py3.7.egg-info/dependency_links.txt",
    "Lib/site-packages/urllib3-1.23-py3.7.egg-info/requires.txt",
    "Lib/site-packages/urllib3-1.23-py3.7.egg-info/top_level.txt",
    "Lib/site-packages/urllib3/__init__.py",
    "Lib/site-packages/urllib3/__pycache__/__init__.cpython-37.pyc",
    "Lib/site-packages/urllib3/__pycache__/_collections.cpython-37.pyc",
    "Lib/site-packages/urllib3/__pycache__/connection.cpython-37.pyc",
    "Lib/site-packages/urllib3/__pycache__/connectionpool.cpython-37.pyc",
    "Lib/site-packages/urllib3/__pycache__/exceptions.cpython-37.pyc",
    "Lib/site-packages/urllib3/__pycache__/fields.cpython-37.pyc",
    "Lib/site-packages/urllib3/__pycache__/filepost.cpython-37.pyc",
    "Lib/site-packages/urllib3/__pycache__/poolmanager.cpython-37.pyc",
    "Lib/site-packages/urllib3/__pycache__/request.cpython-37.pyc",
    "Lib/site-packages/urllib3/__pycache__/response.cpython-37.pyc",
    "Lib/site-packages/urllib3/_collections.py",
    "Lib/site-packages/urllib3/connection.py",
    "Lib/site-packages/urllib3/connectionpool.py",
    "Lib/site-packages/urllib3/contrib/__init__.py",
    "Lib/site-packages/urllib3/contrib/__pycache__/__init__.cpython-37.pyc",
    "Lib/site-packages/urllib3/contrib/__pycache__/appengine.cpython-37.pyc",
    "Lib/site-packages/urllib3/contrib/__pycache__/ntlmpool.cpython-37.pyc",
    "Lib/site-packages/urllib3/contrib/__pycache__/pyopenssl.cpython-37.pyc",
    "Lib/site-packages/urllib3/contrib/__pycache__/securetransport.cpython-37.pyc",
    "Lib/site-packages/urllib3/contrib/__pycache__/socks.cpython-37.pyc",
    "Lib/site-packages/urllib3/contrib/_securetransport/__init__.py",
    "Lib/site-packages/urllib3/contrib/_securetransport/__pycache__/__init__.cpython-37.pyc",
    "Lib/site-packages/urllib3/contrib/_securetransport/__pycache__/bindings.cpython-37.pyc",
    "Lib/site-packages/urllib3/contrib/_securetransport/__pycache__/low_level.cpython-37.pyc",
    "Lib/site-packages/urllib3/contrib/_securetransport/bindings.py",
    "Lib/site-packages/urllib3/contrib/_securetransport/low_level.py",
    "Lib/site-packages/urllib3/contrib/appengine.py",
    "Lib/site-packages/urllib3/contrib/ntlmpool.py",
    "Lib/site-packages/urllib3/contrib/pyopenssl.py",
    "Lib/site-packages/urllib3/contrib/securetransport.py",
    "Lib/site-packages/urllib3/contrib/socks.py",
    "Lib/site-packages/urllib3/exceptions.py",
    "Lib/site-packages/urllib3/fields.py",
    "Lib/site-packages/urllib3/filepost.py",
    "Lib/site-packages/urllib3/packages/__init__.py",
    "Lib/site-packages/urllib3/packages/__pycache__/__init__.cpython-37.pyc",
    "Lib/site-packages/urllib3/packages/__pycache__/ordered_dict.cpython-37.pyc",
    "Lib/site-packages/urllib3/packages/__pycache__/six.cpython-37.pyc",
    "Lib/site-packages/urllib3/packages/backports/__init__.py",
    "Lib/site-packages/urllib3/packages/backports/__pycache__/__init__.cpython-37.pyc",
    "Lib/site-packages/urllib3/packages/backports/__pycache__/makefile.cpython-37.pyc",
    "Lib/site-packages/urllib3/packages/backports/makefile.py",
    "Lib/site-packages/urllib3/packages/ordered_dict.py",
    "Lib/site-packages/urllib3/packages/six.py",
    "Lib/site-packages/urllib3/packages/ssl_match_hostname/__init__.py",
    "Lib/site-packages/urllib3/packages/ssl_match_hostname/__pycache__/__init__.cpython-37.pyc",
    "Lib/site-packages/urllib3/packages/ssl_match_hostname/__pycache__/_implementation.cpython-37.pyc",
    "Lib/site-packages/urllib3/packages/ssl_match_hostname/_implementation.py",
    "Lib/site-packages/urllib3/poolmanager.py",
    "Lib/site-packages/urllib3/request.py",
    "Lib/site-packages/urllib3/response.py",
    "Lib/site-packages/urllib3/util/__init__.py",
    "Lib/site-packages/urllib3/util/__pycache__/__init__.cpython-37.pyc",
    "Lib/site-packages/urllib3/util/__pycache__/connection.cpython-37.pyc",
    "Lib/site-packages/urllib3/util/__pycache__/queue.cpython-37.pyc",
    "Lib/site-packages/urllib3/util/__pycache__/request.cpython-37.pyc",
    "Lib/site-packages/urllib3/util/__pycache__/response.cpython-37.pyc",
    "Lib/site-packages/urllib3/util/__pycache__/retry.cpython-37.pyc",
    "Lib/site-packages/urllib3/util/__pycache__/ssl_.cpython-37.pyc",
    "Lib/site-packages/urllib3/util/__pycache__/timeout.cpython-37.pyc",
    "Lib/site-packages/urllib3/util/__pycache__/url.cpython-37.pyc",
    "Lib/site-packages/urllib3/util/__pycache__/wait.cpython-37.pyc",
    "Lib/site-packages/urllib3/util/connection.py",
    "Lib/site-packages/urllib3/util/queue.py",
    "Lib/site-packages/urllib3/util/request.py",
    "Lib/site-packages/urllib3/util/response.py",
    "Lib/site-packages/urllib3/util/retry.py",
    "Lib/site-packages/urllib3/util/ssl_.py",
    "Lib/site-packages/urllib3/util/timeout.py",
    "Lib/site-packages/urllib3/util/url.py",
    "Lib/site-packages/urllib3/util/wait.py"
  ],
  "fn": "urllib3-1.23-py37_0.tar.bz2",
  "license": "MIT",
  "license_family": "MIT",
  "link": {
    "source": "C:\\Users\\NelsonRibeiro\\Desktop\\Miniconda3\\pkgs\\urllib3-1.23-py37_0",
    "type": 1
  },
  "md5": "d46f406c8e0c408488bb76bc04edf289",
  "name": "urllib3",
  "package_tarball_full_path": "C:\\Users\\NelsonRibeiro\\Desktop\\Miniconda3\\pkgs\\urllib3-1.23-py37_0.tar.bz2",
  "paths_data": {
    "paths": [
      {
        "_path": "Lib/site-packages/urllib3-1.23-py3.7.egg-info/PKG-INFO",
        "path_type": "hardlink",
        "sha256": "5eb6bfdfcae4f39dcdcc1f4cd2c76a37634fc88253362d9f8db9fa18991cb0cc",
        "sha256_in_prefix": "5eb6bfdfcae4f39dcdcc1f4cd2c76a37634fc88253362d9f8db9fa18991cb0cc",
        "size_in_bytes": 42956
      },
      {
        "_path": "Lib/site-packages/urllib3-1.23-py3.7.egg-info/SOURCES.txt",
        "path_type": "hardlink",
        "sha256": "1d04534b1bf4ebe49e8ab841b29b929ef4b109804f77d2860c193a2c1c99a7c7",
        "sha256_in_prefix": "1d04534b1bf4ebe49e8ab841b29b929ef4b109804f77d2860c193a2c1c99a7c7",
        "size_in_bytes": 3671
      },
      {
        "_path": "Lib/site-packages/urllib3-1.23-py3.7.egg-info/dependency_links.txt",
        "path_type": "hardlink",
        "sha256": "01ba4719c80b6fe911b091a7c05124b64eeece964e09c058ef8f9805daca546b",
        "sha256_in_prefix": "01ba4719c80b6fe911b091a7c05124b64eeece964e09c058ef8f9805daca546b",
        "size_in_bytes": 1
      },
      {
        "_path": "Lib/site-packages/urllib3-1.23-py3.7.egg-info/requires.txt",
        "path_type": "hardlink",
        "sha256": "864f491991052008c4ef91221d214d02453cbdef5b94ab9679526018c0ec8a3c",
        "sha256_in_prefix": "864f491991052008c4ef91221d214d02453cbdef5b94ab9679526018c0ec8a3c",
        "size_in_bytes": 113
      },
      {
        "_path": "Lib/site-packages/urllib3-1.23-py3.7.egg-info/top_level.txt",
        "path_type": "hardlink",
        "sha256": "10c8972f6b0aad3726accc481d3a9d737113e78a50236634ef62dec4511e9afa",
        "sha256_in_prefix": "10c8972f6b0aad3726accc481d3a9d737113e78a50236634ef62dec4511e9afa",
        "size_in_bytes": 8
      },
      {
        "_path": "Lib/site-packages/urllib3/__init__.py",
        "path_type": "hardlink",
        "sha256": "0d9b9c4bcb65cc660a98ae4522cc945623208690aaff4ff43aebe6fc9a7d18d7",
        "sha256_in_prefix": "0d9b9c4bcb65cc660a98ae4522cc945623208690aaff4ff43aebe6fc9a7d18d7",
        "size_in_bytes": 2853
      },
      {
        "_path": "Lib/site-packages/urllib3/__pycache__/__init__.cpython-37.pyc",
        "path_type": "hardlink",
        "sha256": "e98c049d6b8f7da5878da814f3fc4802fbced094ba6a370079418fcd6dd3aa36",
        "sha256_in_prefix": "e98c049d6b8f7da5878da814f3fc4802fbced094ba6a370079418fcd6dd3aa36",
        "size_in_bytes": 2355
      },
      {
        "_path": "Lib/site-packages/urllib3/__pycache__/_collections.cpython-37.pyc",
        "path_type": "hardlink",
        "sha256": "87e6798fdac7f450bfe0c5fbf86d2b99f22d63f50c02c8f00e37654284cd3183",
        "sha256_in_prefix": "87e6798fdac7f450bfe0c5fbf86d2b99f22d63f50c02c8f00e37654284cd3183",
        "size_in_bytes": 10679
      },
      {
        "_path": "Lib/site-packages/urllib3/__pycache__/connection.cpython-37.pyc",
        "path_type": "hardlink",
        "sha256": "a4c6260bebe593f0e47f8242f9d7db00f851e569796592ac0c09cb78e10b6540",
        "sha256_in_prefix": "a4c6260bebe593f0e47f8242f9d7db00f851e569796592ac0c09cb78e10b6540",
        "size_in_bytes": 10200
      },
      {
        "_path": "Lib/site-packages/urllib3/__pycache__/connectionpool.cpython-37.pyc",
        "path_type": "hardlink",
        "sha256": "0fb955f5fc7d1acc92ffe44cbfafd01572bee61e5f81915ebb9317ac7209a813",
        "sha256_in_prefix": "0fb955f5fc7d1acc92ffe44cbfafd01572bee61e5f81915ebb9317ac7209a813",
        "size_in_bytes": 23734
      },
      {
        "_path": "Lib/site-packages/urllib3/__pycache__/exceptions.cpython-37.pyc",
        "path_type": "hardlink",
        "sha256": "b28be7e97e949aa0a981218684baf860727e8fdae504a0c07455ec3238f8b03d",
        "sha256_in_prefix": "b28be7e97e949aa0a981218684baf860727e8fdae504a0c07455ec3238f8b03d",
        "size_in_bytes": 10333
      },
      {
        "_path": "Lib/site-packages/urllib3/__pycache__/fields.cpython-37.pyc",
        "path_type": "hardlink",
        "sha256": "0122c79dca2493a3ab6b397fb6ebf9a29fb4128af49bb1ed6cb93e49b6f1fe73",
        "sha256_in_prefix": "0122c79dca2493a3ab6b397fb6ebf9a29fb4128af49bb1ed6cb93e49b6f1fe73",
        "size_in_bytes": 5801
      },
      {
        "_path": "Lib/site-packages/urllib3/__pycache__/filepost.cpython-37.pyc",
        "path_type": "hardlink",
        "sha256": "f847d388ba64d42e54b37ba5d0cd36c30dcb90840fa9e9160bd7cc8c39eae5ef",
        "sha256_in_prefix": "f847d388ba64d42e54b37ba5d0cd36c30dcb90840fa9e9160bd7cc8c39eae5ef",
        "size_in_bytes": 2693
      },
      {
        "_path": "Lib/site-packages/urllib3/__pycache__/poolmanager.cpython-37.pyc",
        "path_type": "hardlink",
        "sha256": "d54754ab6f6c5f1e36687ea8b9e2452b256350e6744aae1bf07dd33f98e54854",
        "sha256_in_prefix": "d54754ab6f6c5f1e36687ea8b9e2452b256350e6744aae1bf07dd33f98e54854",
        "size_in_bytes": 12632
      },
      {
        "_path": "Lib/site-packages/urllib3/__pycache__/request.cpython-37.pyc",
        "path_type": "hardlink",
        "sha256": "5b4720e1802c5ba66f250b0d140a4ae18f49ec3dad91c903db2d81c4d3724aaa",
        "sha256_in_prefix": "5b4720e1802c5ba66f250b0d140a4ae18f49ec3dad91c903db2d81c4d3724aaa",
        "size_in_bytes": 5524
      },
      {
        "_path": "Lib/site-packages/urllib3/__pycache__/response.cpython-37.pyc",
        "path_type": "hardlink",
        "sha256": "94672243c9860882452b4bfbc54e4404ebc6330ff31ac80c0411d9d293ff08d4",
        "sha256_in_prefix": "94672243c9860882452b4bfbc54e4404ebc6330ff31ac80c0411d9d293ff08d4",
        "size_in_bytes": 17350
      },
      {
        "_path": "Lib/site-packages/urllib3/_collections.py",
        "path_type": "hardlink",
        "sha256": "88d78053fc1ef4bde530645428a76adb831fee8d39d135cfe54e099bd033018e",
        "sha256_in_prefix": "88d78053fc1ef4bde530645428a76adb831fee8d39d135cfe54e099bd033018e",
        "size_in_bytes": 10841
      },
      {
        "_path": "Lib/site-packages/urllib3/connection.py",
        "path_type": "hardlink",
        "sha256": "332efaa9e58c0e457e28fd65de20a15c7384ec9f9909a51d3f7b0f2222c0dae1",
        "sha256_in_prefix": "332efaa9e58c0e457e28fd65de20a15c7384ec9f9909a51d3f7b0f2222c0dae1",
        "size_in_bytes": 14485
      },
      {
        "_path": "Lib/site-packages/urllib3/connectionpool.py",
        "path_type": "hardlink",
        "sha256": "c36d0ec0a748aa4e9ff05225e901a09fa8dff60674fad9a01fb54fc67a448244",
        "sha256_in_prefix": "c36d0ec0a748aa4e9ff05225e901a09fa8dff60674fad9a01fb54fc67a448244",
        "size_in_bytes": 35464
      },
      {
        "_path": "Lib/site-packages/urllib3/contrib/__init__.py",
        "path_type": "hardlink",
        "sha256": "e3b0c44298fc1c149afbf4c8996fb92427ae41e4649b934ca495991b7852b855",
        "sha256_in_prefix": "e3b0c44298fc1c149afbf4c8996fb92427ae41e4649b934ca495991b7852b855",
        "size_in_bytes": 0
      },
      {
        "_path": "Lib/site-packages/urllib3/contrib/__pycache__/__init__.cpython-37.pyc",
        "path_type": "hardlink",
        "sha256": "073aecaed61ce781c4fd51dff2bdc883927379de8be6ac2f71b852efb1b9eb07",
        "sha256_in_prefix": "073aecaed61ce781c4fd51dff2bdc883927379de8be6ac2f71b852efb1b9eb07",
        "size_in_bytes": 132
      },
      {
        "_path": "Lib/site-packages/urllib3/contrib/__pycache__/appengine.cpython-37.pyc",
        "path_type": "hardlink",
        "sha256": "494ec1126006f6ff2c0e31e69144dce523a3fdc14bfa13fff0cc9051eb2e9f3f",
        "sha256_in_prefix": "494ec1126006f6ff2c0e31e69144dce523a3fdc14bfa13fff0cc9051eb2e9f3f",
        "size_in_bytes": 8856
      },
      {
        "_path": "Lib/site-packages/urllib3/contrib/__pycache__/ntlmpool.cpython-37.pyc",
        "path_type": "hardlink",
        "sha256": "04dae6b78c89c341413275642d00b0ac6cd67c9a1b2eba6988119846905c17a7",
        "sha256_in_prefix": "04dae6b78c89c341413275642d00b0ac6cd67c9a1b2eba6988119846905c17a7",
        "size_in_bytes": 3180
      },
      {
        "_path": "Lib/site-packages/urllib3/contrib/__pycache__/pyopenssl.cpython-37.pyc",
        "path_type": "hardlink",
        "sha256": "7d5fdcd5f3911de281911e4ea942c6eafbf121b493070b5de2f7dea91c06bdc7",
        "sha256_in_prefix": "7d5fdcd5f3911de281911e4ea942c6eafbf121b493070b5de2f7dea91c06bdc7",
        "size_in_bytes": 14183
      },
      {
        "_path": "Lib/site-packages/urllib3/contrib/__pycache__/securetransport.cpython-37.pyc",
        "path_type": "hardlink",
        "sha256": "60f6c859b0c82d11cd813b6314e61a7347d3ff08ff1b2ccfc8f41f49c374ae5a",
        "sha256_in_prefix": "60f6c859b0c82d11cd813b6314e61a7347d3ff08ff1b2ccfc8f41f49c374ae5a",
        "size_in_bytes": 17829
      },
      {
        "_path": "Lib/site-packages/urllib3/contrib/__pycache__/socks.cpython-37.pyc",
        "path_type": "hardlink",
        "sha256": "dc00e39ab73dcfc31634fe0d5ef7ea7c3c66cd5c729bbb2fc2adb8952fe9e738",
        "sha256_in_prefix": "dc00e39ab73dcfc31634fe0d5ef7ea7c3c66cd5c729bbb2fc2adb8952fe9e738",
        "size_in_bytes": 4838
      },
      {
        "_path": "Lib/site-packages/urllib3/contrib/_securetransport/__init__.py",
        "path_type": "hardlink",
        "sha256": "e3b0c44298fc1c149afbf4c8996fb92427ae41e4649b934ca495991b7852b855",
        "sha256_in_prefix": "e3b0c44298fc1c149afbf4c8996fb92427ae41e4649b934ca495991b7852b855",
        "size_in_bytes": 0
      },
      {
        "_path": "Lib/site-packages/urllib3/contrib/_securetransport/__pycache__/__init__.cpython-37.pyc",
        "path_type": "hardlink",
        "sha256": "bc4ca8b3f71c81f7312a65101fa259d5fcb2dfac2410e6b3aecf1d87e9edfc86",
        "sha256_in_prefix": "bc4ca8b3f71c81f7312a65101fa259d5fcb2dfac2410e6b3aecf1d87e9edfc86",
        "size_in_bytes": 149
      },
      {
        "_path": "Lib/site-packages/urllib3/contrib/_securetransport/__pycache__/bindings.cpython-37.pyc",
        "path_type": "hardlink",
        "sha256": "6edabf2d2b2c24c1c77b2b9ecd5d9f04561e9225310adbb42ad5200c975a660f",
        "sha256_in_prefix": "6edabf2d2b2c24c1c77b2b9ecd5d9f04561e9225310adbb42ad5200c975a660f",
        "size_in_bytes": 10244
      },
      {
        "_path": "Lib/site-packages/urllib3/contrib/_securetransport/__pycache__/low_level.cpython-37.pyc",
        "path_type": "hardlink",
        "sha256": "327fddf764776d7b47012264b401f0dfeefc414dbddb6621bad9ab3b65f27764",
        "sha256_in_prefix": "327fddf764776d7b47012264b401f0dfeefc414dbddb6621bad9ab3b65f27764",
        "size_in_bytes": 7425
      },
      {
        "_path": "Lib/site-packages/urllib3/contrib/_securetransport/bindings.py",
        "path_type": "hardlink",
        "sha256": "c7690b4a1f804992acba7d05c6dada06e2d57b7a07bad878616eb26795687fec",
        "sha256_in_prefix": "c7690b4a1f804992acba7d05c6dada06e2d57b7a07bad878616eb26795687fec",
        "size_in_bytes": 17560
      },
      {
        "_path": "Lib/site-packages/urllib3/contrib/_securetransport/low_level.py",
        "path_type": "hardlink",
        "sha256": "526cb9bbedd9f79ec68ab75aa6789c5d53a91da338c5d39900126e2717da7890",
        "sha256_in_prefix": "526cb9bbedd9f79ec68ab75aa6789c5d53a91da338c5d39900126e2717da7890",
        "size_in_bytes": 12162
      },
      {
        "_path": "Lib/site-packages/urllib3/contrib/appengine.py",
        "path_type": "hardlink",
        "sha256": "1b00bc1bd46104732c5bfb335c2523d05c60face7c7f0694cb523d41676c9faa",
        "sha256_in_prefix": "1b00bc1bd46104732c5bfb335c2523d05c60face7c7f0694cb523d41676c9faa",
        "size_in_bytes": 11173
      },
      {
        "_path": "Lib/site-packages/urllib3/contrib/ntlmpool.py",
        "path_type": "hardlink",
        "sha256": "43dfab3b9461dbe22ac847786627294c37cc9ce95fd083cf0a48e10a10428d5e",
        "sha256_in_prefix": "43dfab3b9461dbe22ac847786627294c37cc9ce95fd083cf0a48e10a10428d5e",
        "size_in_bytes": 4478
      },
      {
        "_path": "Lib/site-packages/urllib3/contrib/pyopenssl.py",
        "path_type": "hardlink",
        "sha256": "3512c2c8c1edf8f38fe996a3a6cc87e01ac9432d8369ebd75955d995e6dc4b11",
        "sha256_in_prefix": "3512c2c8c1edf8f38fe996a3a6cc87e01ac9432d8369ebd75955d995e6dc4b11",
        "size_in_bytes": 15463
      },
      {
        "_path": "Lib/site-packages/urllib3/contrib/securetransport.py",
        "path_type": "hardlink",
        "sha256": "06a5d294284df7f86309683237a25d720bc151d737ed00825f8bb7ffccc4ffda",
        "sha256_in_prefix": "06a5d294284df7f86309683237a25d720bc151d737ed00825f8bb7ffccc4ffda",
        "size_in_bytes": 30309
      },
      {
        "_path": "Lib/site-packages/urllib3/contrib/socks.py",
        "path_type": "hardlink",
        "sha256": "2289b4b276c7902b996d9ed295ed8ab9e85ad56d236002744b208eb5e3cb6a2a",
        "sha256_in_prefix": "2289b4b276c7902b996d9ed295ed8ab9e85ad56d236002744b208eb5e3cb6a2a",
        "size_in_bytes": 6391
      },
      {
        "_path": "Lib/site-packages/urllib3/exceptions.py",
        "path_type": "hardlink",
        "sha256": "ac57887c134a0bc289eb5bb1f8cb49c899440bd1bd82092609e17be75270551e",
        "sha256_in_prefix": "ac57887c134a0bc289eb5bb1f8cb49c899440bd1bd82092609e17be75270551e",
        "size_in_bytes": 6604
      },
      {
        "_path": "Lib/site-packages/urllib3/fields.py",
        "path_type": "hardlink",
        "sha256": "0ff4c4fd22b5e586ad75b8560cc374384dd7e940899f545390034834260ea1b1",
        "sha256_in_prefix": "0ff4c4fd22b5e586ad75b8560cc374384dd7e940899f545390034834260ea1b1",
        "size_in_bytes": 5943
      },
      {
        "_path": "Lib/site-packages/urllib3/filepost.py",
        "path_type": "hardlink",
        "sha256": "e340913a5a51295069154903d11eb025ffcfa6f6dc45044552ed0e39094590a3",
        "sha256_in_prefix": "e340913a5a51295069154903d11eb025ffcfa6f6dc45044552ed0e39094590a3",
        "size_in_bytes": 2436
      },
      {
        "_path": "Lib/site-packages/urllib3/packages/__init__.py",
        "path_type": "hardlink",
        "sha256": "9e50a1ac6ce48c29268425fd1eb17fa873d4828b1fb0f4245482718a22e193d8",
        "sha256_in_prefix": "9e50a1ac6ce48c29268425fd1eb17fa873d4828b1fb0f4245482718a22e193d8",
        "size_in_bytes": 109
      },
      {
        "_path": "Lib/site-packages/urllib3/packages/__pycache__/__init__.cpython-37.pyc",
        "path_type": "hardlink",
        "sha256": "6f217d13e3451814602a0f8495eeea105f7bff2e9d08d7fa34807084fbcc4f3f",
        "sha256_in_prefix": "6f217d13e3451814602a0f8495eeea105f7bff2e9d08d7fa34807084fbcc4f3f",
        "size_in_bytes": 246
      },
      {
        "_path": "Lib/site-packages/urllib3/packages/__pycache__/ordered_dict.cpython-37.pyc",
        "path_type": "hardlink",
        "sha256": "1eba8b7e199f15e8f3172bf75aae56cd273ce3ff18f07be4ef4336184bbc4c20",
        "sha256_in_prefix": "1eba8b7e199f15e8f3172bf75aae56cd273ce3ff18f07be4ef4336184bbc4c20",
        "size_in_bytes": 8340
      },
      {
        "_path": "Lib/site-packages/urllib3/packages/__pycache__/six.cpython-37.pyc",
        "path_type": "hardlink",
        "sha256": "d588de1e04fcd6711d088fd7e569b22990ebef32c05f435e40a58011c33e9db5",
        "sha256_in_prefix": "d588de1e04fcd6711d088fd7e569b22990ebef32c05f435e40a58011c33e9db5",
        "size_in_bytes": 24334
      },
      {
        "_path": "Lib/site-packages/urllib3/packages/backports/__init__.py",
        "path_type": "hardlink",
        "sha256": "e3b0c44298fc1c149afbf4c8996fb92427ae41e4649b934ca495991b7852b855",
        "sha256_in_prefix": "e3b0c44298fc1c149afbf4c8996fb92427ae41e4649b934ca495991b7852b855",
        "size_in_bytes": 0
      },
      {
        "_path": "Lib/site-packages/urllib3/packages/backports/__pycache__/__init__.cpython-37.pyc",
        "path_type": "hardlink",
        "sha256": "b863b9feb4e37414e02f785488b034fc09f407aefce01a02bec6c432395cf1fc",
        "sha256_in_prefix": "b863b9feb4e37414e02f785488b034fc09f407aefce01a02bec6c432395cf1fc",
        "size_in_bytes": 143
      },
      {
        "_path": "Lib/site-packages/urllib3/packages/backports/__pycache__/makefile.cpython-37.pyc",
        "path_type": "hardlink",
        "sha256": "dab5c2201fc09ecff69a69f1ed28022ce126e93dba01c53883d4e33b83a12259",
        "sha256_in_prefix": "dab5c2201fc09ecff69a69f1ed28022ce126e93dba01c53883d4e33b83a12259",
        "size_in_bytes": 1241
      },
      {
        "_path": "Lib/site-packages/urllib3/packages/backports/makefile.py",
        "path_type": "hardlink",
        "sha256": "af52000e897fa4106ad98d6e6f808fcae4b6857b9284ae3b9df16781945c4612",
        "sha256_in_prefix": "af52000e897fa4106ad98d6e6f808fcae4b6857b9284ae3b9df16781945c4612",
        "size_in_bytes": 1461
      },
      {
        "_path": "Lib/site-packages/urllib3/packages/ordered_dict.py",
        "path_type": "hardlink",
        "sha256": "55068f38d7e154cb1bf01eb75e0ed93b2749a8813f8f378c8553773de73aa20c",
        "sha256_in_prefix": "55068f38d7e154cb1bf01eb75e0ed93b2749a8813f8f378c8553773de73aa20c",
        "size_in_bytes": 8935
      },
      {
        "_path": "Lib/site-packages/urllib3/packages/six.py",
        "path_type": "hardlink",
        "sha256": "03a85d259563237b7f81e79b67d07352fc11ac85e8d257f0cd094cd8b70ac9ab",
        "sha256_in_prefix": "03a85d259563237b7f81e79b67d07352fc11ac85e8d257f0cd094cd8b70ac9ab",
        "size_in_bytes": 30098
      },
      {
        "_path": "Lib/site-packages/urllib3/packages/ssl_match_hostname/__init__.py",
        "path_type": "hardlink",
        "sha256": "58155bc500688cd0317d9c0d6af928c77060262300f412669befdfc1dd230ffa",
        "sha256_in_prefix": "58155bc500688cd0317d9c0d6af928c77060262300f412669befdfc1dd230ffa",
        "size_in_bytes": 688
      },
      {
        "_path": "Lib/site-packages/urllib3/packages/ssl_match_hostname/__pycache__/__init__.cpython-37.pyc",
        "path_type": "hardlink",
        "sha256": "df5b0f5e01126dd09992a2c8c260f7fda7622203296fc3860cd40bde2309fe69",
        "sha256_in_prefix": "df5b0f5e01126dd09992a2c8c260f7fda7622203296fc3860cd40bde2309fe69",
        "size_in_bytes": 487
      },
      {
        "_path": "Lib/site-packages/urllib3/packages/ssl_match_hostname/__pycache__/_implementation.cpython-37.pyc",
        "path_type": "hardlink",
        "sha256": "38e61753dd21faee9404daac88474a22d90bcd5e2e525aecaace13fd03bec783",
        "sha256_in_prefix": "38e61753dd21faee9404daac88474a22d90bcd5e2e525aecaace13fd03bec783",
        "size_in_bytes": 3222
      },
      {
        "_path": "Lib/site-packages/urllib3/packages/ssl_match_hostname/_implementation.py",
        "path_type": "hardlink",
        "sha256": "9408fba860992ce95d867f2064363a4eaa789af8246d37f2e24e200c80d1a3c8",
        "sha256_in_prefix": "9408fba860992ce95d867f2064363a4eaa789af8246d37f2e24e200c80d1a3c8",
        "size_in_bytes": 5702
      },
      {
        "_path": "Lib/site-packages/urllib3/poolmanager.py",
        "path_type": "hardlink",
        "sha256": "1470636fba1d6cfd8bc904737a2b60a6e87501000fc9e8339ab9b66f78126656",
        "sha256_in_prefix": "1470636fba1d6cfd8bc904737a2b60a6e87501000fc9e8339ab9b66f78126656",
        "size_in_bytes": 16821
      },
      {
        "_path": "Lib/site-packages/urllib3/request.py",
        "path_type": "hardlink",
        "sha256": "7f08e5ab99d07dc51aedaa27711db9cfaf9f2405ffa0d4dc3e4b0a2868c19b7f",
        "sha256_in_prefix": "7f08e5ab99d07dc51aedaa27711db9cfaf9f2405ffa0d4dc3e4b0a2868c19b7f",
        "size_in_bytes": 5996
      },
      {
        "_path": "Lib/site-packages/urllib3/response.py",
        "path_type": "hardlink",
        "sha256": "b80b8e4d94ae4e8773bd05880c2660843a0a999d9b29b8084427da5482197e7f",
        "sha256_in_prefix": "b80b8e4d94ae4e8773bd05880c2660843a0a999d9b29b8084427da5482197e7f",
        "size_in_bytes": 24667
      },
      {
        "_path": "Lib/site-packages/urllib3/util/__init__.py",
        "path_type": "hardlink",
        "sha256": "e916a7e28015232e340aefe810f5a7355f5bc05e6b5f1e86d43519ee87a18cf6",
        "sha256_in_prefix": "e916a7e28015232e340aefe810f5a7355f5bc05e6b5f1e86d43519ee87a18cf6",
        "size_in_bytes": 1044
      },
      {
        "_path": "Lib/site-packages/urllib3/util/__pycache__/__init__.cpython-37.pyc",
        "path_type": "hardlink",
        "sha256": "4272262cb3d6a0be9eee6ec43bad63a17e9ca3166ce8aba14096b32af473fc1d",
        "sha256_in_prefix": "4272262cb3d6a0be9eee6ec43bad63a17e9ca3166ce8aba14096b32af473fc1d",
        "size_in_bytes": 924
      },
      {
        "_path": "Lib/site-packages/urllib3/util/__pycache__/connection.cpython-37.pyc",
        "path_type": "hardlink",
        "sha256": "c1cea7585526bab9ff110aefe4e05843da9664ee61fbedebfecb4a2fd717cded",
        "sha256_in_prefix": "c1cea7585526bab9ff110aefe4e05843da9664ee61fbedebfecb4a2fd717cded",
        "size_in_bytes": 3001
      },
      {
        "_path": "Lib/site-packages/urllib3/util/__pycache__/queue.cpython-37.pyc",
        "path_type": "hardlink",
        "sha256": "e3275b851e7e39643cd7250fef46f944a49d035ec640602f3a18cf3ea56c0e27",
        "sha256_in_prefix": "e3275b851e7e39643cd7250fef46f944a49d035ec640602f3a18cf3ea56c0e27",
        "size_in_bytes": 973
      },
      {
        "_path": "Lib/site-packages/urllib3/util/__pycache__/request.cpython-37.pyc",
        "path_type": "hardlink",
        "sha256": "90c0b640eae1aea16de2aa395c8e1c8006fd07796a07a8592e8099a1cff1035c",
        "sha256_in_prefix": "90c0b640eae1aea16de2aa395c8e1c8006fd07796a07a8592e8099a1cff1035c",
        "size_in_bytes": 3154
      },
      {
        "_path": "Lib/site-packages/urllib3/util/__pycache__/response.cpython-37.pyc",
        "path_type": "hardlink",
        "sha256": "fdb9a3b8e2ea711e7d6acdaaa22fbe5960b503f78c3d3038c49497d6e6f470b3",
        "sha256_in_prefix": "fdb9a3b8e2ea711e7d6acdaaa22fbe5960b503f78c3d3038c49497d6e6f470b3",
        "size_in_bytes": 1835
      },
      {
        "_path": "Lib/site-packages/urllib3/util/__pycache__/retry.cpython-37.pyc",
        "path_type": "hardlink",
        "sha256": "75dcb393e048987f34424d4860e0a8ea675c271a2b25c282eaed52553e0b83ef",
        "sha256_in_prefix": "75dcb393e048987f34424d4860e0a8ea675c271a2b25c282eaed52553e0b83ef",
        "size_in_bytes": 12587
      },
      {
        "_path": "Lib/site-packages/urllib3/util/__pycache__/ssl_.cpython-37.pyc",
        "path_type": "hardlink",
        "sha256": "46382fcd6a2a45fb1711e8bdabeb8b9820c0e3324bf985c37abfaf8d8d8d5a50",
        "sha256_in_prefix": "46382fcd6a2a45fb1711e8bdabeb8b9820c0e3324bf985c37abfaf8d8d8d5a50",
        "size_in_bytes": 9889
      },
      {
        "_path": "Lib/site-packages/urllib3/util/__pycache__/timeout.cpython-37.pyc",
        "path_type": "hardlink",
        "sha256": "7ba62e84384dd9b9c44c68f13d48324f7bb95a592bdb10d31627884f24882d88",
        "sha256_in_prefix": "7ba62e84384dd9b9c44c68f13d48324f7bb95a592bdb10d31627884f24882d88",
        "size_in_bytes": 8703
      },
      {
        "_path": "Lib/site-packages/urllib3/util/__pycache__/url.cpython-37.pyc",
        "path_type": "hardlink",
        "sha256": "38e9ef7fd88072c82f2ce3870dd449cec7fe644a427466181d7cb5ca3b17b7e9",
        "sha256_in_prefix": "38e9ef7fd88072c82f2ce3870dd449cec7fe644a427466181d7cb5ca3b17b7e9",
        "size_in_bytes": 5113
      },
      {
        "_path": "Lib/site-packages/urllib3/util/__pycache__/wait.cpython-37.pyc",
        "path_type": "hardlink",
        "sha256": "052bf143951b5cced6f15b37f82127d2b398c8672a65bdfe3c166d3a011923e4",
        "sha256_in_prefix": "052bf143951b5cced6f15b37f82127d2b398c8672a65bdfe3c166d3a011923e4",
        "size_in_bytes": 3086
      },
      {
        "_path": "Lib/site-packages/urllib3/util/connection.py",
        "path_type": "hardlink",
        "sha256": "f0ad555e6f011ec3374004c924604d45afcc4ad9330f2d436b621a3c068253c7",
        "sha256_in_prefix": "f0ad555e6f011ec3374004c924604d45afcc4ad9330f2d436b621a3c068253c7",
        "size_in_bytes": 4279
      },
      {
        "_path": "Lib/site-packages/urllib3/util/queue.py",
        "path_type": "hardlink",
        "sha256": "9b24d7dc90c79ed8252903417f76fa75ab071feb85f96e7dbf319242215d01f2",
        "sha256_in_prefix": "9b24d7dc90c79ed8252903417f76fa75ab071feb85f96e7dbf319242215d01f2",
        "size_in_bytes": 497
      },
      {
        "_path": "Lib/site-packages/urllib3/util/request.py",
        "path_type": "hardlink",
        "sha256": "1f9fe5ac7bedc25d94d816d3d5460df47a6bb8d73582c345973da78d09a13eb4",
        "sha256_in_prefix": "1f9fe5ac7bedc25d94d816d3d5460df47a6bb8d73582c345973da78d09a13eb4",
        "size_in_bytes": 3705
      },
      {
        "_path": "Lib/site-packages/urllib3/util/response.py",
        "path_type": "hardlink",
        "sha256": "49234bf3cf16f8c43cb771c08b8e24346805ebcda9e87fffcad117cc163157f3",
        "sha256_in_prefix": "49234bf3cf16f8c43cb771c08b8e24346805ebcda9e87fffcad117cc163157f3",
        "size_in_bytes": 2343
      },
      {
        "_path": "Lib/site-packages/urllib3/util/retry.py",
        "path_type": "hardlink",
        "sha256": "b65c6212af0e5360527a73e93e36183b55119def00faa4c481aca46a6eab64f8",
        "sha256_in_prefix": "b65c6212af0e5360527a73e93e36183b55119def00faa4c481aca46a6eab64f8",
        "size_in_bytes": 15104
      },
      {
        "_path": "Lib/site-packages/urllib3/util/ssl_.py",
        "path_type": "hardlink",
        "sha256": "64668f41c29832acdaeaf525e782728140f95dc234a7d771170531f24eec081c",
        "sha256_in_prefix": "64668f41c29832acdaeaf525e782728140f95dc234a7d771170531f24eec081c",
        "size_in_bytes": 13993
      },
      {
        "_path": "Lib/site-packages/urllib3/util/timeout.py",
        "path_type": "hardlink",
        "sha256": "ee51cdae02f9607d9c2358fec999f357f27c8c195155d98585068dc8cd7fd9bf",
        "sha256_in_prefix": "ee51cdae02f9607d9c2358fec999f357f27c8c195155d98585068dc8cd7fd9bf",
        "size_in_bytes": 9757
      },
      {
        "_path": "Lib/site-packages/urllib3/util/url.py",
        "path_type": "hardlink",
        "sha256": "a8263f1c7517be8d39c00b0411100b804c6d960c4b9c01d243b71ed5bfa0dd23",
        "sha256_in_prefix": "a8263f1c7517be8d39c00b0411100b804c6d960c4b9c01d243b71ed5bfa0dd23",
        "size_in_bytes": 6487
      },
      {
        "_path": "Lib/site-packages/urllib3/util/wait.py",
        "path_type": "hardlink",
        "sha256": "ff8befb13d414d3a6ac5060afb691755f1ac52c5518ae73847817ed017f904f7",
        "sha256_in_prefix": "ff8befb13d414d3a6ac5060afb691755f1ac52c5518ae73847817ed017f904f7",
        "size_in_bytes": 5468
      }
    ],
    "paths_version": 1
  },
  "platform": "win32",
  "requested_spec": "urllib3==1.23=py37_0",
  "size": 155536,
  "subdir": "win-64",
  "timestamp": 1531666108913,
  "track_features": "",
  "url": "https://repo.anaconda.com/pkgs/main/win-64/urllib3-1.23-py37_0.tar.bz2",
  "version": "1.23"
}