{
  "arch": "x86_64",
  "build": "h0510ff6_3",
  "build_number": 3,
  "channel": "https://repo.anaconda.com/pkgs/main/win-64",
  "constrains": [],
  "depends": [
    "vs2015_runtime >=14.0.25123,<15.0a0"
  ],
  "extracted_package_dir": "C:\\Users\\NelsonRibeiro\\Desktop\\Miniconda3\\pkgs\\vc-14-h0510ff6_3",
  "features": "",
  "files": [],
  "fn": "vc-14-h0510ff6_3.tar.bz2",
  "license": "Modified BSD License (3-clause)",
  "license_family": "BSD",
  "link": {
    "source": "C:\\Users\\NelsonRibeiro\\Desktop\\Miniconda3\\pkgs\\vc-14-h0510ff6_3",
    "type": 1
  },
  "md5": "e9af5df0ce656124ba7bbf42ec403113",
  "name": "vc",
  "package_tarball_full_path": "C:\\Users\\NelsonRibeiro\\Desktop\\Miniconda3\\pkgs\\vc-14-h0510ff6_3.tar.bz2",
  "paths_data": {
    "paths": [],
    "paths_version": 1
  },
  "platform": "win32",
  "requested_spec": "vc==14=h0510ff6_3",
  "size": 3289,
  "subdir": "win-64",
  "timestamp": 1516068856643,
  "track_features": "vc14",
  "url": "https://repo.anaconda.com/pkgs/main/win-64/vc-14-h0510ff6_3.tar.bz2",
  "version": "14"
}